fecha, nro, provincia, hoy, acumulado
"14/05/2020",122,"total",255,7134
"14/05/2020",122,"fallecidos",9,353
"14/05/2020",122,"Buenos Aires",79,2411
"14/05/2020",122,"Ciudad de Buenos Aires",153,2618
"14/05/2020",122,"Catamarca",0,0
"14/05/2020",122,"Chaco",9,513
"14/05/2020",122,"Chubut",0,4
"14/05/2020",122,"Córdoba",5,366
"14/05/2020",122,"Corrientes",3,79
"14/05/2020",122,"Entre Ríos",1,30
"14/05/2020",122,"Formosa",0,0
"14/05/2020",122,"Jujuy",0,5
"14/05/2020",122,"La Pampa",0,5
"14/05/2020",122,"La Rioja",0,60
"14/05/2020",122,"Mendoza",0,88
"14/05/2020",122,"Misiones",0,25
"14/05/2020",122,"Neuquén",1,114
"14/05/2020",122,"Río Negro",4,298
"14/05/2020",122,"Salta",0,5
"14/05/2020",122,"San Juan",0,3
"14/05/2020",122,"San Luis",0,11
"14/05/2020",122,"Santa Cruz",0,49
"14/05/2020",122,"Santa Fe",0,244
"14/05/2020",122,"Santiago del Estero",0,16
"14/05/2020",122,"Tierra del Fuego",0,148
"14/05/2020",122,"Tucumán",0,42
