fecha, nro, provincia, hoy, acumulado
"04/06/2020",164,"total",929,20197
"04/06/2020",164,"fallecidos",20,608
"04/06/2020",164,"Buenos Aires",422,7496
"04/06/2020",164,"Ciudad de Buenos Aires",436,9754
"04/06/2020",164,"Catamarca",0,0
"04/06/2020",164,"Chaco",53,979
"04/06/2020",164,"Chubut",0,11
"04/06/2020",164,"Córdoba",2,462
"04/06/2020",164,"Corrientes",0,96
"04/06/2020",164,"Entre Ríos",0,35
"04/06/2020",164,"Formosa",0,0
"04/06/2020",164,"Jujuy",0,6
"04/06/2020",164,"La Pampa",0,5
"04/06/2020",164,"La Rioja",0,63
"04/06/2020",164,"Mendoza",0,100
"04/06/2020",164,"Misiones",2,31
"04/06/2020",164,"Neuquén",0,150
"04/06/2020",164,"Río Negro",8,434
"04/06/2020",164,"Salta",0,15
"04/06/2020",164,"San Juan",0,5
"04/06/2020",164,"San Luis",0,11
"04/06/2020",164,"Santa Cruz",0,51
"04/06/2020",164,"Santa Fe",5,273
"04/06/2020",164,"Santiago del Estero",0,22
"04/06/2020",164,"Tierra del Fuego",0,149
"04/06/2020",164,"Tucumán",1,49
