fecha, nro, provincia, hoy, acumulado
"26/04/2020",86,"total",112,3892
"26/04/2020",86,"fallecidos",5,192
"26/04/2020",86,"Buenos Aires",56,1331
"26/04/2020",86,"Ciudad de Buenos Aires",36,1007
"26/04/2020",86,"Catamarca",0,0
"26/04/2020",86,"Chaco",3,297
"26/04/2020",86,"Chubut",0,2
"26/04/2020",86,"Córdoba",3,273
"26/04/2020",86,"Corrientes",6,46
"26/04/2020",86,"Entre Ríos",1,23
"26/04/2020",86,"Formosa",0,0
"26/04/2020",86,"Jujuy",0,5
"26/04/2020",86,"La Pampa",0,5
"26/04/2020",86,"La Rioja",0,50
"26/04/2020",86,"Mendoza",0,75
"26/04/2020",86,"Misiones",0,6
"26/04/2020",86,"Neuquén",1,105
"26/04/2020",86,"Río Negro",1,185
"26/04/2020",86,"Salta",1,4
"26/04/2020",86,"San Juan",0,2
"26/04/2020",86,"San Luis",0,11
"26/04/2020",86,"Santa Cruz",1,43
"26/04/2020",86,"Santa Fe",0,242
"26/04/2020",86,"Santiago del Estero",2,15
"26/04/2020",86,"Tierra del Fuego",0,130
"26/04/2020",86,"Tucumán",1,35
