"fecha","nro","provincia","hoy","acumulado"
"29/03/2020",30,"fallecidos",1,20
"29/03/2020",30,"total",75,820
"29/03/2020",30,"Buenos Aires",16,0
"29/03/2020",30,"Cordoba",18,0
"29/03/2020",30,"Catamarca",0,0
"29/03/2020",30,"Chaco",4,0
"29/03/2020",30,"Chubut",0,0
"29/03/2020",30,"Ciudad de Buenos Aires",13,0
"29/03/2020",30,"Corrientes",1,0
"29/03/2020",30,"Entre Rios",0,0
"29/03/2020",30,"Formosa",0,0
"29/03/2020",30,"Jujuy",0,0
"29/03/2020",30,"La Pampa",2,0
"29/03/2020",30,"La Rioja",1,0
"29/03/2020",30,"Mendoza",1,0
"29/03/2020",30,"Misiones",1,0
"29/03/2020",30,"Neuquen",0,0
"29/03/2020",30,"Rio Negro",0,0
"29/03/2020",30,"Salta",0,0
"29/03/2020",30,"San Juan",1,0
"29/03/2020",30,"San Luis",0,0
"29/03/2020",30,"Santa Cruz",0,0
"29/03/2020",30,"Santa Fe",13,0
"29/03/2020",30,"Santiago del Estero",0,0
"29/03/2020",30,"Tierra del Fuego",4,0
"29/03/2020",30,"Tucuman",0,0
