"fecha","nro","provincia","hoy","acumulado"
"18/03/2020",14,"fallecidos",0,2
"18/03/2020",14,"total",19,97
"18/03/2020",14,"Buenos Aires",6,0
"18/03/2020",14,"Cordoba",1,0
"18/03/2020",14,"Catamarca",0,0
"18/03/2020",14,"Chaco",1,0
"18/03/2020",14,"Chubut",0,0
"18/03/2020",14,"Ciudad de Buenos Aires",10,0
"18/03/2020",14,"Corrientes",0,0
"18/03/2020",14,"Entre Rios",1,0
"18/03/2020",14,"Formosa",0,0
"18/03/2020",14,"Jujuy",0,0
"18/03/2020",14,"La Pampa",0,0
"18/03/2020",14,"La Rioja",0,0
"18/03/2020",14,"Mendoza",0,0
"18/03/2020",14,"Misiones",0,0
"18/03/2020",14,"Neuquen",0,0
"18/03/2020",14,"Rio Negro",0,0
"18/03/2020",14,"Salta",0,0
"18/03/2020",14,"San Juan",0,0
"18/03/2020",14,"San Luis",0,0
"18/03/2020",14,"Santa Cruz",0,0
"18/03/2020",14,"Santa Fe",0,0
"18/03/2020",14,"Santiago del Estero",0,0
"18/03/2020",14,"Tierra del Fuego",0,0
"18/03/2020",14,"Tucuman",0,0
