fecha, nro, provincia, hoy, acumulado
"24/04/2020",82,"total",172,3607
"24/04/2020",82,"fallecidos",9,176
"24/04/2020",82,"Buenos Aires",61,1181
"24/04/2020",82,"Ciudad de Buenos Aires",79,916
"24/04/2020",82,"Catamarca",0,0
"24/04/2020",82,"Chaco",7,287
"24/04/2020",82,"Chubut",0,2
"24/04/2020",82,"Córdoba",3,269
"24/04/2020",82,"Corrientes",4,39
"24/04/2020",82,"Entre Ríos",0,22
"24/04/2020",82,"Formosa",0,0
"24/04/2020",82,"Jujuy",0,5
"24/04/2020",82,"La Pampa",0,5
"24/04/2020",82,"La Rioja",2,47
"24/04/2020",82,"Mendoza",0,75
"24/04/2020",82,"Misiones",1,6
"24/04/2020",82,"Neuquén",0,104
"24/04/2020",82,"Río Negro",11,180
"24/04/2020",82,"Salta",0,3
"24/04/2020",82,"San Juan",0,2
"24/04/2020",82,"San Luis",0,11
"24/04/2020",82,"Santa Cruz",1,42
"24/04/2020",82,"Santa Fe",3,239
"24/04/2020",82,"Santiago del Estero",0,12
"24/04/2020",82,"Tierra del Fuego",1,126
"24/04/2020",82,"Tucumán",-1,34
