fecha, nro, provincia, hoy, acumulado
"16/04/2020",66,"total",98,2669
"16/04/2020",66,"fallecidos",7,122
"16/04/2020",66,"Buenos Aires",30,759
"16/04/2020",66,"Ciudad de Buenos Aires",15,663
"16/04/2020",66,"Catamarca",0,0
"16/04/2020",66,"Chaco",11,202
"16/04/2020",66,"Chubut",1,2
"16/04/2020",66,"Córdoba",13,241
"16/04/2020",66,"Corrientes",0,31
"16/04/2020",66,"Entre Ríos",1,22
"16/04/2020",66,"Formosa",0,0
"16/04/2020",66,"Jujuy",0,5
"16/04/2020",66,"La Pampa",0,5
"16/04/2020",66,"La Rioja",3,34
"16/04/2020",66,"Mendoza",5,68
"16/04/2020",66,"Misiones",0,3
"16/04/2020",66,"Neuquén",1,92
"16/04/2020",66,"Río Negro",9,115
"16/04/2020",66,"Salta",-1,3
"16/04/2020",66,"San Juan",0,2
"16/04/2020",66,"San Luis",0,11
"16/04/2020",66,"Santa Cruz",0,40
"16/04/2020",66,"Santa Fe",3,212
"16/04/2020",66,"Santiago del Estero",0,12
"16/04/2020",66,"Tierra del Fuego",7,117
"16/04/2020",66,"Tucumán",0,30
