"fecha","nro","provincia","hoy","acumulado"
"28/03/2020",28,"fallecidos",2,19
"28/03/2020",28,"total",56,745
"28/03/2020",28,"Buenos Aires",8,0
"28/03/2020",28,"Cordoba",1,0
"28/03/2020",28,"Catamarca",0,0
"28/03/2020",28,"Chaco",5,0
"28/03/2020",28,"Chubut",0,0
"28/03/2020",28,"Ciudad de Buenos Aires",18,0
"28/03/2020",28,"Corrientes",4,0
"28/03/2020",28,"Entre Rios",0,0
"28/03/2020",28,"Formosa",0,0
"28/03/2020",28,"Jujuy",0,0
"28/03/2020",28,"La Pampa",0,0
"28/03/2020",28,"La Rioja",0,0
"28/03/2020",28,"Mendoza",1,0
"28/03/2020",28,"Misiones",0,0
"28/03/2020",28,"Neuquen",2,0
"28/03/2020",28,"Rio Negro",0,0
"28/03/2020",28,"Salta",0,0
"28/03/2020",28,"San Juan",0,0
"28/03/2020",28,"San Luis",0,0
"28/03/2020",28,"Santa Cruz",0,0
"28/03/2020",28,"Santa Fe",13,0
"28/03/2020",28,"Santiago del Estero",0,0
"28/03/2020",28,"Tierra del Fuego",4,0
"28/03/2020",28,"Tucuman",0,0
