"fecha","nro","provincia","hoy","acumulado"
"10/03/2020",6,"fallecidos",0,1
"10/03/2020",6,"total",2,19
"10/03/2020",6,"Buenos Aires",1,0
"10/03/2020",6,"Cordoba",0,0
"10/03/2020",6,"Catamarca",0,0
"10/03/2020",6,"Chaco",0,0
"10/03/2020",6,"Chubut",0,0
"10/03/2020",6,"Ciudad de Buenos Aires",1,0
"10/03/2020",6,"Corrientes",0,0
"10/03/2020",6,"Entre Rios",0,0
"10/03/2020",6,"Formosa",0,0
"10/03/2020",6,"Jujuy",0,0
"10/03/2020",6,"La Pampa",0,0
"10/03/2020",6,"La Rioja",0,0
"10/03/2020",6,"Mendoza",0,0
"10/03/2020",6,"Misiones",0,0
"10/03/2020",6,"Neuquen",0,0
"10/03/2020",6,"Rio Negro",0,0
"10/03/2020",6,"Salta",0,0
"10/03/2020",6,"San Juan",0,0
"10/03/2020",6,"San Luis",0,0
"10/03/2020",6,"Santa Cruz",0,0
"10/03/2020",6,"Santa Fe",0,0
"10/03/2020",6,"Santiago del Estero",0,0
"10/03/2020",6,"Tierra del Fuego",0,0
"10/03/2020",6,"Tucuman",0,0
