fecha, nro, provincia, hoy, acumulado
"06/04/2020",46,"total",74,1628
"06/04/2020",46,"fallecidos",5,53
"06/04/2020",46,"Buenos Aires",12,409
"06/04/2020",46,"Ciudad de Buenos Aires",17,456
"06/04/2020",46,"Catamarca",0,0
"06/04/2020",46,"Chaco",4,119
"06/04/2020",46,"Chubut",0,0
"06/04/2020",46,"Córdoba",7,146
"06/04/2020",46,"Corrientes",2,24
"06/04/2020",46,"Entre Ríos",0,19
"06/04/2020",46,"Formosa",0,0
"06/04/2020",46,"Jujuy",0,5
"06/04/2020",46,"La Pampa",0,3
"06/04/2020",46,"La Rioja",1,9
"06/04/2020",46,"Mendoza",1,30
"06/04/2020",46,"Misiones",0,3
"06/04/2020",46,"Neuquén",6,50
"06/04/2020",46,"Río Negro",2,19
"06/04/2020",46,"Salta",0,3
"06/04/2020",46,"San Juan",0,1
"06/04/2020",46,"San Luis",1,11
"06/04/2020",46,"Santa Cruz",0,23
"06/04/2020",46,"Santa Fe",8,184
"06/04/2020",46,"Santiago del Estero",6,10
"06/04/2020",46,"Tierra del Fuego",2,77
"06/04/2020",46,"Tucumán",5,27
