fecha, nro, provincia, hoy, acumulado
"09/04/2020",52,"total",99,1894
"09/04/2020",52,"fallecidos",10,79
"09/04/2020",52,"Buenos Aires",28,488
"09/04/2020",52,"Ciudad de Buenos Aires",23,521
"09/04/2020",52,"Catamarca",0,0
"09/04/2020",52,"Chaco",6,144
"09/04/2020",52,"Chubut",0,0
"09/04/2020",52,"Córdoba",5,156
"09/04/2020",52,"Corrientes",0,24
"09/04/2020",52,"Entre Ríos",2,22
"09/04/2020",52,"Formosa",0,0
"09/04/2020",52,"Jujuy",0,5
"09/04/2020",52,"La Pampa",0,4
"09/04/2020",52,"La Rioja",5,14
"09/04/2020",52,"Mendoza",2,40
"09/04/2020",52,"Misiones",0,3
"09/04/2020",52,"Neuquén",7,77
"09/04/2020",52,"Río Negro",13,35
"09/04/2020",52,"Salta",0,3
"09/04/2020",52,"San Juan",0,1
"09/04/2020",52,"San Luis",0,11
"09/04/2020",52,"Santa Cruz",0,31
"09/04/2020",52,"Santa Fe",7,196
"09/04/2020",52,"Santiago del Estero",0,9
"09/04/2020",52,"Tierra del Fuego",0,81
"09/04/2020",52,"Tucumán",1,29
