fecha, nro, provincia, hoy, acumulado
"13/04/2020",60,"total",69,2277
"13/04/2020",60,"fallecidos",3,98
"13/04/2020",60,"Buenos Aires",29,601
"13/04/2020",60,"Ciudad de Buenos Aires",10,596
"13/04/2020",60,"Catamarca",0,0
"13/04/2020",60,"Chaco",3,153
"13/04/2020",60,"Chubut",0,0
"13/04/2020",60,"Córdoba",4,210
"13/04/2020",60,"Corrientes",7,31
"13/04/2020",60,"Entre Ríos",0,21
"13/04/2020",60,"Formosa",0,0
"13/04/2020",60,"Jujuy",0,5
"13/04/2020",60,"La Pampa",0,5
"13/04/2020",60,"La Rioja",3,22
"13/04/2020",60,"Mendoza",2,59
"13/04/2020",60,"Misiones",0,3
"13/04/2020",60,"Neuquén",2,88
"13/04/2020",60,"Río Negro",3,81
"13/04/2020",60,"Salta",0,3
"13/04/2020",60,"San Juan",0,2
"13/04/2020",60,"San Luis",0,11
"13/04/2020",60,"Santa Cruz",0,40
"13/04/2020",60,"Santa Fe",2,205
"13/04/2020",60,"Santiago del Estero",0,12
"13/04/2020",60,"Tierra del Fuego",4,99
"13/04/2020",60,"Tucumán",0,30
