fecha, nro, provincia, hoy, acumulado
"31/03/2020",34,"total", 88, 1054 
"31/03/2020",34,"fallecidos", 3, 27  
"31/03/2020",34,"Buenos Aires", 17, 270 
"31/03/2020",34,"Ciudad de Buenos Aires", 19, 311 
"31/03/2020",34,"Catamarca", 0, 0 
"31/03/2020",34,"Chaco", 3, 84 
"31/03/2020",34,"Chubut", 0, 0 
"31/03/2020",34,"Córdoba", 14, 95 
"31/03/2020",34,"Corrientes", 1, 20 
"31/03/2020",34,"Entre Ríos", 0, 13 
"31/03/2020",34,"Formosa", 0, 0 
"31/03/2020",34,"Jujuy", 0, 3 
"31/03/2020",34,"La Pampa", 0, 3 
"31/03/2020",34,"La Rioja", 0, 1 
"31/03/2020",34,"Mendoza", 2, 15 
"31/03/2020",34,"Misiones", 1, 3 
"31/03/2020",34,"Neuquén", 0, 20 
"31/03/2020",34,"Río Negro", 1, 9 
"31/03/2020",34,"Salta", 0, 1 
"31/03/2020",34,"San Juan", 0, 1 
"31/03/2020",34,"San Luis", 0, 6 
"31/03/2020",34,"Santa Cruz", 0, 9 
"31/03/2020",34,"Santa Fe", 22, 133 
"31/03/2020",34,"Santiago del Estero", 0, 2 
"31/03/2020",34,"Tierra del Fuego", 7, 39 
"31/03/2020",34,"Tucumán", 1, 16 
