"fecha","nro","provincia","hoy","acumulado"
"12/03/2020",8,"fallecidos",0,1
"12/03/2020",8,"total",10,31
"12/03/2020",8,"Buenos Aires",0,0
"12/03/2020",8,"Cordoba",0,0
"12/03/2020",8,"Catamarca",0,0
"12/03/2020",8,"Chaco",0,0
"12/03/2020",8,"Chubut",0,0
"12/03/2020",8,"Ciudad de Buenos Aires",0,0
"12/03/2020",8,"Corrientes",0,0
"12/03/2020",8,"Entre Rios",0,0
"12/03/2020",8,"Formosa",0,0
"12/03/2020",8,"Jujuy",0,0
"12/03/2020",8,"La Pampa",0,0
"12/03/2020",8,"La Rioja",0,0
"12/03/2020",8,"Mendoza",0,0
"12/03/2020",8,"Misiones",0,0
"12/03/2020",8,"Neuquen",0,0
"12/03/2020",8,"Rio Negro",0,0
"12/03/2020",8,"Salta",0,0
"12/03/2020",8,"San Juan",0,0
"12/03/2020",8,"San Luis",0,0
"12/03/2020",8,"Santa Cruz",0,0
"12/03/2020",8,"Santa Fe",0,0
"12/03/2020",8,"Santiago del Estero",0,0
"12/03/2020",8,"Tierra del Fuego",0,0
"12/03/2020",8,"Tucuman",0,0
