fecha, nro, provincia, hoy, acumulado
"24/05/2020",142,"total",723,12076
"24/05/2020",142,"fallecidos",4,452
"24/05/2020",142,"Buenos Aires",196,4060
"24/05/2020",142,"Ciudad de Buenos Aires",494,5500
"24/05/2020",142,"Catamarca",0,0
"24/05/2020",142,"Chaco",20,748
"24/05/2020",142,"Chubut",0,4
"24/05/2020",142,"Córdoba",6,456
"24/05/2020",142,"Corrientes",0,78
"24/05/2020",142,"Entre Ríos",0,29
"24/05/2020",142,"Formosa",0,0
"24/05/2020",142,"Jujuy",0,5
"24/05/2020",142,"La Pampa",0,5
"24/05/2020",142,"La Rioja",0,63
"24/05/2020",142,"Mendoza",0,90
"24/05/2020",142,"Misiones",0,25
"24/05/2020",142,"Neuquén",1,115
"24/05/2020",142,"Río Negro",5,352
"24/05/2020",142,"Salta",0,7
"24/05/2020",142,"San Juan",0,4
"24/05/2020",142,"San Luis",0,11
"24/05/2020",142,"Santa Cruz",0,49
"24/05/2020",142,"Santa Fe",2,260
"24/05/2020",142,"Santiago del Estero",0,22
"24/05/2020",142,"Tierra del Fuego",0,148
"24/05/2020",142,"Tucumán",-1,45
