fecha, nro, provincia, hoy, acumulado
"10/04/2020",54,"total",81,1975
"10/04/2020",54,"fallecidos",3,82
"10/04/2020",54,"Buenos Aires",19,507
"10/04/2020",54,"Ciudad de Buenos Aires",11,532
"10/04/2020",54,"Catamarca",0,0
"10/04/2020",54,"Chaco",5,149
"10/04/2020",54,"Chubut",0,0
"10/04/2020",54,"Córdoba",13,169
"10/04/2020",54,"Corrientes",0,24
"10/04/2020",54,"Entre Ríos",0,22
"10/04/2020",54,"Formosa",0,0
"10/04/2020",54,"Jujuy",0,5
"10/04/2020",54,"La Pampa",1,5
"10/04/2020",54,"La Rioja",0,14
"10/04/2020",54,"Mendoza",9,49
"10/04/2020",54,"Misiones",0,3
"10/04/2020",54,"Neuquén",7,84
"10/04/2020",54,"Río Negro",7,42
"10/04/2020",54,"Salta",0,3
"10/04/2020",54,"San Juan",0,1
"10/04/2020",54,"San Luis",0,11
"10/04/2020",54,"Santa Cruz",6,37
"10/04/2020",54,"Santa Fe",1,197
"10/04/2020",54,"Santiago del Estero",0,9
"10/04/2020",54,"Tierra del Fuego",2,83
"10/04/2020",54,"Tucumán",0,29
