"fecha","nro","provincia","hoy","acumulado"
"05/03/2020",1,"fallecidos",0,0
"05/03/2020",1,"total",1,1
"05/03/2020",1,"Buenos Aires",0,0
"05/03/2020",1,"Cordoba",0,0
"05/03/2020",1,"Catamarca",0,0
"05/03/2020",1,"Chaco",0,0
"05/03/2020",1,"Chubut",0,0
"05/03/2020",1,"Ciudad de Buenos Aires",0,0
"05/03/2020",1,"Corrientes",0,0
"05/03/2020",1,"Entre Rios",0,0
"05/03/2020",1,"Formosa",0,0
"05/03/2020",1,"Jujuy",0,0
"05/03/2020",1,"La Pampa",0,0
"05/03/2020",1,"La Rioja",0,0
"05/03/2020",1,"Mendoza",0,0
"05/03/2020",1,"Misiones",0,0
"05/03/2020",1,"Neuquen",0,0
"05/03/2020",1,"Rio Negro",0,0
"05/03/2020",1,"Salta",0,0
"05/03/2020",1,"San Juan",0,0
"05/03/2020",1,"San Luis",0,0
"05/03/2020",1,"Santa Cruz",0,0
"05/03/2020",1,"Santa Fe",0,0
"05/03/2020",1,"Santiago del Estero",0,0
"05/03/2020",1,"Tierra del Fuego",0,0
"05/03/2020",1,"Tucuman",0,0
