fecha, nro, provincia, hoy, acumulado
"07/05/2020",108,"total",163,5371
"07/05/2020",108,"fallecidos",9,282
"07/05/2020",108,"Buenos Aires",50,1924
"07/05/2020",108,"Ciudad de Buenos Aires",77,1583
"07/05/2020",108,"Catamarca",0,0
"07/05/2020",108,"Chaco",26,392
"07/05/2020",108,"Chubut",0,4
"07/05/2020",108,"Córdoba",4,320
"07/05/2020",108,"Corrientes",1,52
"07/05/2020",108,"Entre Ríos",0,28
"07/05/2020",108,"Formosa",0,0
"07/05/2020",108,"Jujuy",0,5
"07/05/2020",108,"La Pampa",0,5
"07/05/2020",108,"La Rioja",1,58
"07/05/2020",108,"Mendoza",0,85
"07/05/2020",108,"Misiones",0,25
"07/05/2020",108,"Neuquén",0,110
"07/05/2020",108,"Río Negro",3,268
"07/05/2020",108,"Salta",0,4
"07/05/2020",108,"San Juan",1,3
"07/05/2020",108,"San Luis",0,11
"07/05/2020",108,"Santa Cruz",0,49
"07/05/2020",108,"Santa Fe",0,244
"07/05/2020",108,"Santiago del Estero",0,15
"07/05/2020",108,"Tierra del Fuego",0,145
"07/05/2020",108,"Tucumán",0,41
