fecha, nro, provincia, hoy, acumulado
"23/05/2020",140,"total",704,11353
"23/05/2020",140,"fallecidos",6,445
"23/05/2020",140,"Buenos Aires",289,3864
"23/05/2020",140,"Ciudad de Buenos Aires",400,5006
"23/05/2020",140,"Catamarca",0,0
"23/05/2020",140,"Chaco",7,728
"23/05/2020",140,"Chubut",0,4
"23/05/2020",140,"Córdoba",0,450
"23/05/2020",140,"Corrientes",0,78
"23/05/2020",140,"Entre Ríos",0,29
"23/05/2020",140,"Formosa",0,0
"23/05/2020",140,"Jujuy",0,5
"23/05/2020",140,"La Pampa",0,5
"23/05/2020",140,"La Rioja",0,63
"23/05/2020",140,"Mendoza",0,90
"23/05/2020",140,"Misiones",0,25
"23/05/2020",140,"Neuquén",0,114
"23/05/2020",140,"Río Negro",5,347
"23/05/2020",140,"Salta",0,7
"23/05/2020",140,"San Juan",0,4
"23/05/2020",140,"San Luis",0,11
"23/05/2020",140,"Santa Cruz",0,49
"23/05/2020",140,"Santa Fe",0,258
"23/05/2020",140,"Santiago del Estero",0,22
"23/05/2020",140,"Tierra del Fuego",0,148
"23/05/2020",140,"Tucumán",3,46
