fecha, nro, provincia, hoy, acumulado
"05/06/2020",166,"total",840,21037
"05/06/2020",166,"fallecidos",17,632
"05/06/2020",166,"Buenos Aires",371,7868
"05/06/2020",166,"Ciudad de Buenos Aires",420,10174
"05/06/2020",166,"Catamarca",0,0
"05/06/2020",166,"Chaco",29,1008
"05/06/2020",166,"Chubut",3,14
"05/06/2020",166,"Córdoba",2,464
"05/06/2020",166,"Corrientes",0,96
"05/06/2020",166,"Entre Ríos",4,39
"05/06/2020",166,"Formosa",0,0
"05/06/2020",166,"Jujuy",0,6
"05/06/2020",166,"La Pampa",0,5
"05/06/2020",166,"La Rioja",0,63
"05/06/2020",166,"Mendoza",1,101
"05/06/2020",166,"Misiones",0,30
"05/06/2020",166,"Neuquén",1,151
"05/06/2020",166,"Río Negro",8,442
"05/06/2020",166,"Salta",0,15
"05/06/2020",166,"San Juan",0,5
"05/06/2020",166,"San Luis",0,11
"05/06/2020",166,"Santa Cruz",0,51
"05/06/2020",166,"Santa Fe",1,274
"05/06/2020",166,"Santiago del Estero",0,22
"05/06/2020",166,"Tierra del Fuego",0,149
"05/06/2020",166,"Tucumán",0,49
