"date","place","totconfirmed","totconfirmednew","totdeaths","totdeathsnew","transmissionclass","dayslastrep"
"2020/05/15","South Africa",12739,665,238,19,"Community transmission",0
"2020/05/15","Algeria",6442,189,529,7,"Community transmission",0
"2020/05/15","Ghana",5530,122,24,0,"Community transmission",0
"2020/05/15","Nigeria",5162,191,167,3,"Community transmission",0
"2020/05/15","Cameroon",2954,154,139,3,"Community transmission",0
"2020/05/15","Guinea",2473,101,14,0,"Community transmission",0
"2020/05/15","Senegal",2189,84,23,1,"Community transmission",0
"2020/05/15","Côte d’Ivoire",1971,59,24,0,"Community transmission",0
"2020/05/15","Democratic Republic of the Congo",1298,56,50,0,"Community transmission",0
"2020/05/15","Gabon",1104,100,10,1,"Community transmission",0
"2020/05/15","Guinea-Bissau",913,77,3,0,"Community transmission",0
"2020/05/15","Niger",876,16,50,1,"Community transmission",0
"2020/05/15","Mali",779,21,46,2,"Community transmission",0
"2020/05/15","Burkina Faso",773,0,51,0,"Community transmission",1
"2020/05/15","Kenya",758,21,42,2,"Community transmission",0
"2020/05/15","Zambia",654,208,7,0,"Community transmission",0
"2020/05/15","Equatorial Guinea",594,11,7,0,"Community transmission",0
"2020/05/15","United Republic of Tanzania",509,0,21,0,"Community transmission",7
"2020/05/15","Sierra Leone",408,21,26,5,"Clusters of cases",0
"2020/05/15","Chad",399,27,46,4,"Community transmission",0
"2020/05/15","Congo",391,50,15,4,"Community transmission",0
"2020/05/15","Benin",339,12,2,0,"Community transmission",0
"2020/05/15","Mauritius",332,0,10,0,"Clusters of cases",18
"2020/05/15","Cabo Verde",315,26,2,0,"Clusters of cases",0
"2020/05/15","Rwanda",287,0,0,0,"Sporadic cases",1
"2020/05/15","Ethiopia",272,9,5,0,"Clusters of cases",0
"2020/05/15","Togo",238,19,11,0,"Community transmission",0
"2020/05/15","South Sudan",231,37,1,1,"Clusters of cases",0
"2020/05/15","Madagascar",230,18,0,0,"Clusters of cases",0
"2020/05/15","Central African Republic",221,34,0,0,"Sporadic cases",0
"2020/05/15","Liberia",215,2,20,0,"Community transmission",0
"2020/05/15","Eswatini",187,0,2,0,"Clusters of cases",1
"2020/05/15","São Tomé and Príncipe",166,1,7,0,"Clusters of cases",0
"2020/05/15","Uganda",160,21,0,0,"Sporadic cases",0
"2020/05/15","Mozambique",115,8,0,0,"Clusters of cases",0
"2020/05/15","Malawi",63,0,3,0,"Clusters of cases",1
"2020/05/15","Angola",48,3,2,0,"Clusters of cases",0
"2020/05/15","Eritrea",39,0,0,0,"Sporadic cases",26
"2020/05/15","Zimbabwe",37,0,4,0,"Sporadic cases",2
"2020/05/15","Burundi",27,0,1,0,"Clusters of cases",2
"2020/05/15","Botswana",24,0,1,0,"Clusters of cases",3
"2020/05/15","Gambia",23,0,1,0,"Sporadic cases",2
"2020/05/15","Mauritania",16,7,2,1,"Sporadic cases",0
"2020/05/15","Namibia",16,0,0,0,"Sporadic cases",39
"2020/05/15","Comoros",11,0,1,0,"Community transmission",5
"2020/05/15","Seychelles",11,0,0,0,"Clusters of cases",38
"2020/05/15","Lesotho",1,0,0,0,"Pending",1
"2020/05/15","ii Mayotte",1210,67,16,2,"Clusters of cases",0
"2020/05/15","Réunion",440,1,0,0,"Clusters of cases",0
"2020/05/15","United States of America",1361522,21424,82119,1424,"Community transmission",0
"2020/05/15","Brazil",188974,11385,13149,749,"Community transmission",0
"2020/05/15","Peru",76306,4247,2169,112,"Community transmission",0
"2020/05/15","Canada",72536,1050,5337,128,"Community transmission",0
"2020/05/15","Mexico",40186,1862,4220,294,"Community transmission",0
"2020/05/15","Chile",37040,2659,368,22,"Community transmission",0
"2020/05/15","Ecuador",30502,16,2338,4,"Community transmission",0
"2020/05/15","Colombia",12930,658,509,16,"Community transmission",0
"2020/05/15","Dominican Republic",11320,124,422,13,"Community transmission",0
"2020/05/15","Panama",8944,328,256,7,"Community transmission",0
"2020/05/15","Argentina",6973,410,345,24,"Community transmission",0
"2020/05/15","Bolivia (Plurinational State of)",3148,184,142,14,"Clusters of cases",0
"2020/05/15","Honduras",2255,175,123,2,"Community transmission",0
"2020/05/15","Cuba",1830,20,79,0,"Clusters of cases",0
"2020/05/15","Guatemala",1342,143,29,2,"Clusters of cases",0
"2020/05/15","El Salvador",1112,75,20,0,"Clusters of cases",0
"2020/05/15","Costa Rica",815,11,7,0,"Clusters of cases",0
"2020/05/15","Paraguay",754,14,11,0,"Community transmission",0
"2020/05/15","Uruguay",719,2,19,0,"Clusters of cases",0
"2020/05/15","Jamaica",509,2,9,0,"Clusters of cases",0
"2020/05/15","Venezuela (Bolivarian Republic of)",440,0,10,0,"Clusters of cases",1
"2020/05/15","Haiti",234,15,18,0,"Clusters of cases",0
"2020/05/15","Trinidad and Tobago",116,0,8,0,"Sporadic cases",17
"2020/05/15","Guyana",113,0,10,0,"Clusters of cases",1
"2020/05/15","Bahamas",94,1,11,0,"Clusters of cases",0
"2020/05/15","Barbados",85,0,7,0,"Clusters of cases",1
"2020/05/15","Antigua and Barbuda",25,0,3,0,"Clusters of cases",11
"2020/05/15","Nicaragua",25,0,8,0,"Pending",1
"2020/05/15","Grenada",21,0,0,0,"Clusters of cases",11
"2020/05/15","Belize",18,0,2,0,"Sporadic cases",30
"2020/05/15","Saint Lucia",18,0,0,0,"Sporadic cases",10
"2020/05/15","Saint Vincent and the Grenadines",17,0,0,0,"Sporadic cases",10
"2020/05/15","Dominica",16,0,0,0,"Clusters of cases",34
"2020/05/15","Saint Kitts and Nevis",15,0,0,0,"Sporadic cases",24
"2020/05/15","Suriname",10,0,1,0,"Sporadic cases",41
"2020/05/15","Puerto Rico",2427,98,117,2,"Clusters of cases",0
"2020/05/15","Martinique",189,0,14,0,"Clusters of cases",1
"2020/05/15","French Guiana",164,11,1,0,"Clusters of cases",0
"2020/05/15","Guadeloupe",155,0,13,0,"Clusters of cases",2
"2020/05/15","Bermuda",121,0,8,0,"Clusters of cases",1
"2020/05/15","Aruba",101,0,3,0,"Sporadic cases",9
"2020/05/15","Cayman Islands",86,1,1,0,"Clusters of cases",0
"2020/05/15","Sint Maarten",78,0,15,0,"Sporadic cases",1
"2020/05/15","United States Virgin Islands",69,0,6,0,"Clusters of cases",4
"2020/05/15","Saint Martin",39,0,3,0,"Sporadic cases",4
"2020/05/15","Curaçao",16,0,1,0,"Sporadic cases",17
"2020/05/15","Falkland Islands (Malvinas)",13,0,0,0,"Clusters of cases",19
"2020/05/15","Turks and Caicos Islands",12,0,1,0,"Sporadic cases",17
"2020/05/15","Montserrat",11,0,1,0,"Sporadic cases",31
"2020/05/15","British Virgin Islands",7,0,1,0,"Sporadic cases",9
"2020/05/15","Bonaire, Sint Eustatius and Saba",6,0,0,0,"Sporadic cases",17
"2020/05/15","Saint Barthélemy",6,0,0,0,"Sporadic cases",45
"2020/05/15","Anguilla",3,0,0,0,"Sporadic cases",41
"2020/05/15","Saint Pierre and Miquelon",1,0,0,0,"Sporadic cases",37
"2020/05/15","Iran (Islamic Republic of)",114533,1808,6854,71,"Community transmission",0
"2020/05/15","Saudi Arabia",46869,2039,283,10,"Clusters of cases",0
"2020/05/15","Pakistan",37218,1920,803,42,"Clusters of cases",0
"2020/05/15","Qatar",28272,1733,14,0,"Community transmission",0
"2020/05/15","United Arab Emirates",21084,698,208,2,"Pending",0
"2020/05/15","Kuwait",11975,947,88,6,"Clusters of cases",0
"2020/05/15","Egypt",10829,398,571,15,"Clusters of cases",0
"2020/05/15","Morocco",6607,95,190,2,"Clusters of cases",0
"2020/05/15","Bahrain",6198,382,10,0,"Clusters of cases",0
"2020/05/15","Afghanistan",6053,714,153,17,"Clusters of cases",0
"2020/05/15","Oman",4625,284,19,2,"Clusters of cases",0
"2020/05/15","Iraq",3143,111,115,0,"Clusters of cases",0
"2020/05/15","Sudan",1964,147,91,1,"Sporadic cases",0
"2020/05/15","Djibouti",1284,16,3,0,"Clusters of cases",0
"2020/05/15","Somalia",1284,65,53,1,"Sporadic cases",0
"2020/05/15","Tunisia",1032,0,45,0,"Community transmission",5
"2020/05/15","Lebanon",886,8,26,0,"Clusters of cases",0
"2020/05/15","Jordan",586,4,9,0,"Clusters of cases",0
"2020/05/15","Yemen",87,15,13,0,"Pending",0
"2020/05/15","Libya",64,0,3,0,"Clusters of cases",8
"2020/05/15","Syrian Arab Republic",48,0,3,0,"Community transmission",1
"2020/05/15","occupied Palestinian territory",548,0,4,0,"Clusters of cases",1
"2020/05/15","Russian Federation",262843,10598,2418,113,"Clusters of cases",0
"2020/05/15","The United Kingdom",233155,3446,33614,428,"Community transmission",1
"2020/05/15","Spain",229540,849,27321,217,"Community transmission",0
"2020/05/15","Italy",223096,992,31368,262,"Community transmission",0
"2020/05/15","Germany",173152,913,7824,101,"Community transmission",0
"2020/05/15","Turkey",144749,1635,4007,55,"Community transmission",1
"2020/05/15","France",139152,543,27378,349,"Community transmission",0
"2020/05/15","Belgium",54288,307,8903,60,"Community transmission",0
"2020/05/15","Netherlands",43481,270,5590,28,"Community transmission",0
"2020/05/15","Switzerland",30380,50,1588,25,"Community transmission",0
"2020/05/15","Sweden",28582,673,3529,69,"Community transmission",0
"2020/05/15","Portugal",28319,187,1184,9,"Community transmission",0
"2020/05/15","Belarus",26772,932,151,2,"Clusters of cases",0
"2020/05/15","Ireland",23827,426,1506,9,"Community transmission",0
"2020/05/15","Poland",17615,411,883,22,"Community transmission",0
"2020/05/15","Ukraine",17330,483,476,20,"Community transmission",0
"2020/05/15","Israel",16567,28,264,2,"Pending",0
"2020/05/15","Romania",16247,245,1046,30,"Community transmission",0
"2020/05/15","Austria",16005,41,626,2,"Community transmission",0
"2020/05/15","Denmark",10713,46,537,4,"Community transmission",0
"2020/05/15","Serbia",10374,79,224,2,"Pending",0
"2020/05/15","Czechia",8351,82,293,3,"Community transmission",0
"2020/05/15","Norway",8175,17,232,3,"Clusters of cases",0
"2020/05/15","Finland",6145,91,287,3,"Pending",0
"2020/05/15","Kazakhstan",5689,118,34,1,"Pending",0
"2020/05/15","Republic of Moldova",5553,147,196,6,"Pending",0
"2020/05/15","Armenia",4044,208,52,3,"Clusters of cases",0
"2020/05/15","Luxembourg",3915,11,103,0,"Pending",0
"2020/05/15","Hungary",3417,37,442,6,"Community transmission",0
"2020/05/15","Azerbaijan",2879,121,35,0,"Clusters of cases",0
"2020/05/15","Greece",2770,10,156,1,"Clusters of cases",0
"2020/05/15","Uzbekistan",2652,32,11,0,"Clusters of cases",0
"2020/05/15","Croatia",2221,8,94,0,"Community transmission",0
"2020/05/15","Bosnia and Herzegovina",2216,35,123,4,"Community transmission",0
"2020/05/15","Bulgaria",2100,31,99,3,"Clusters of cases",0
"2020/05/15","Iceland",1802,0,10,0,"Community transmission",1
"2020/05/15","Estonia",1758,7,62,1,"Pending",0
"2020/05/15","North Macedonia",1723,29,95,0,"Clusters of cases",0
"2020/05/15","Lithuania",1511,6,54,0,"Community transmission",0
"2020/05/15","Slovakia",1477,8,27,0,"Clusters of cases",0
"2020/05/15","Slovenia",1464,1,103,0,"Clusters of cases",0
"2020/05/15","Kyrgyzstan",1111,29,14,2,"Clusters of cases",0
"2020/05/15","Tajikistan",1085,356,41,18,"Pending",0
"2020/05/15","Latvia",962,11,19,0,"Clusters of cases",0
"2020/05/15","Cyprus",907,2,17,0,"Clusters of cases",0
"2020/05/15","Albania",898,18,31,0,"Clusters of cases",0
"2020/05/15","Andorra",761,0,49,0,"Community transmission",1
"2020/05/15","Georgia",671,19,12,1,"Community transmission",0
"2020/05/15","San Marino",647,0,41,0,"Community transmission",3
"2020/05/15","Malta",522,14,6,0,"Sporadic cases",0
"2020/05/15","Montenegro",324,0,9,0,"Clusters of cases",9
"2020/05/15","Monaco",96,0,1,0,"Sporadic cases",4
"2020/05/15","Liechtenstein",83,0,1,0,"Pending",19
"2020/05/15","Holy See",12,0,0,0,"Sporadic cases",8
"2020/05/15","Kosovo",944,25,29,0,"Community transmission",0
"2020/05/15","Isle of Man",331,0,23,0,"Pending",1
"2020/05/15","Jersey",295,0,26,0,"Pending",1
"2020/05/15","Guernsey",252,0,13,0,"Community transmission",12
"2020/05/15","Faroe Islands",187,0,0,0,"Pending",21
"2020/05/15","Gibraltar",147,0,0,0,"Clusters of cases",2
"2020/05/15","Greenland",11,0,0,0,"Pending",39
"2020/05/15","India",81970,3967,2649,100,"Clusters of cases",0
"2020/05/15","Bangladesh",18863,1041,283,14,"Clusters of cases",0
"2020/05/15","Indonesia",16006,568,1043,15,"Community transmission",0
"2020/05/15","Thailand",3025,7,56,0,"Clusters of cases",0
"2020/05/15","Maldives",982,27,4,0,"Clusters of cases",0
"2020/05/15","Sri Lanka",925,10,9,0,"Clusters of cases",0
"2020/05/15","Nepal",258,12,0,0,"Sporadic cases",0
"2020/05/15","Myanmar",181,0,6,0,"Clusters of cases",1
"2020/05/15","Timor-Leste",24,0,0,0,"Clusters of cases",21
"2020/05/15","Bhutan",20,5,0,0,"Sporadic cases",0
"2020/05/15","China",84469,5,4644,0,"Clusters of cases",0
"2020/05/15","Singapore",26098,752,21,0,"Clusters of cases",0
"2020/05/15","Japan",16193,114,710,23,"Clusters of cases",0
"2020/05/15","Philippines",11876,258,790,18,"Community transmission",0
"2020/05/15","Republic of Korea",11018,27,260,0,"Clusters of cases",0
"2020/05/15","Australia",6989,14,98,0,"Clusters of cases",0
"2020/05/15","Malaysia",6819,40,112,1,"Clusters of cases",0
"2020/05/15","New Zealand",1148,1,21,0,"Clusters of cases",0
"2020/05/15","Viet Nam",288,0,0,0,"Clusters of cases",7
"2020/05/15","Brunei Darussalam",141,0,1,0,"Clusters of cases",7
"2020/05/15","Cambodia",122,0,0,0,"Sporadic cases",33
"2020/05/15","Mongolia",98,56,0,0,"Sporadic cases",0
"2020/05/15","Lao People's Democratic Republic",19,0,0,0,"Sporadic cases",32
"2020/05/15","Fiji",18,0,0,0,"Sporadic cases",24
"2020/05/15","Papua New Guinea",8,0,0,0,"Sporadic cases",22
"2020/05/15","Guam",149,1,5,0,"Clusters of cases",0
"2020/05/15","French Polynesia",60,0,0,0,"Sporadic cases",9
"2020/05/15","Northern Mariana Islands  (Commonwealth of the)",19,0,2,0,"Pending",3
"2020/05/15","New Caledonia",18,0,0,0,"Sporadic cases",42
"2020/05/15","Subtotal for all regions",4337946,90269,297106,5073,"",NA
"2020/05/15","Other*",712,0,13,0,"-",60
"2020/05/15","Grand total",4338658,90269,297119,5073,"",NA
