"date","place","totconfirmed","totconfirmednew","totdeaths","totdeathsnew","transmissionclass","dayslastrep"
"2020/03/01","Republic of Korea",3736,586,18,1," Local transmission ",0
"2020/03/01","Japan",239,9,5,0," Local transmission ",0
"2020/03/01","Singapore",102,4,0,0," Local transmission ",0
"2020/03/01","Australia",25,1,0,0," Local transmission ",0
"2020/03/01","Malaysia",24,0,0,0," Local transmission ",2
"2020/03/01","Viet Nam",16,0,0,0," Local transmission ",17
"2020/03/01","Philippines",3,0,1,0," Imported cases only ",26
"2020/03/01","Cambodia",1,0,0,0," Imported cases only ",34
"2020/03/01","New Zealand",1,0,0,0," Imported cases only ",2
"2020/03/01","Italy",1128,240,29,8," Local transmission ",0
"2020/03/01","France",100,43,2,0," Local transmission ",0
"2020/03/01","Germany",57,0,0,0," Local transmission ",1
"2020/03/01","Spain",45,13,0,0," Local transmission ",0
"2020/03/01","The United Kingdom",23,3,0,0," Local transmission ",0
"2020/03/01","Switzerland",18,8,0,0," Imported cases only ",0
"2020/03/01","Norway",15,9,0,0," Local transmission ",0
"2020/03/01","Sweden",13,1,0,0," Imported cases only ",0
"2020/03/01","Austria",10,5,0,0," Imported cases only ",0
"2020/03/01","Croatia",7,2,0,0," Local transmission ",0
"2020/03/01","Israel",7,2,0,0," Imported cases only ",0
"2020/03/01","Netherlands",7,5,0,0," Local transmission ",0
"2020/03/01","Azerbaijan",3,3,0,0," Imported cases only ",0
"2020/03/01","Denmark",3,1,0,0," Imported cases only ",0
"2020/03/01","Georgia",3,1,0,0," Imported cases only ",0
"2020/03/01","Greece",3,0,0,0," Imported cases only ",2
"2020/03/01","Romania",3,0,0,0," Imported cases only ",1
"2020/03/01","Finland",2,0,0,0," Imported cases only ",4
"2020/03/01","Russian Federation",2,0,0,0," Imported cases only ",30
"2020/03/01","Belarus",1,0,0,0," Imported cases only ",2
"2020/03/01","Belgium",1,0,0,0," Imported cases only ",26
"2020/03/01","Estonia",1,0,0,0," Imported cases only ",3
"2020/03/01","Ireland",1,1,0,0," Imported cases only ",0
"2020/03/01","Lithuania",1,0,0,0," Imported cases only ",2
"2020/03/01","Monaco",1,1,0,0," Under investigation ",0
"2020/03/01","North Macedonia",1,0,0,0," Imported cases only ",4
"2020/03/01","San Marino",1,0,0,0," Local transmission ",1
"2020/03/01","Thailand",42,0,0,0," Local transmission ",1
"2020/03/01","India",3,0,0,0," Imported cases only ",27
"2020/03/01","Nepal",1,0,0,0," Imported cases only ",48
"2020/03/01","Sri Lanka",1,0,0,0," Imported cases only ",34
"2020/03/01","Iran (Islamic Republic of)",593,205,43,9," Local transmission ",0
"2020/03/01","Kuwait",45,0,0,0," Imported cases only ",1
"2020/03/01","Bahrain",40,2,0,0," Imported cases only ",0
"2020/03/01","United Arab Emirates",19,0,0,0," Local transmission ",1
"2020/03/01","Iraq",13,5,0,0," Imported cases only ",0
"2020/03/01","Oman",6,0,0,0," Imported cases only ",2
"2020/03/01","Pakistan",4,2,0,0," Imported cases only ",0
"2020/03/01","Lebanon",2,0,0,0," Imported cases only ",4
"2020/03/01","Afghanistan",1,0,0,0," Imported cases only ",6
"2020/03/01","Egypt",1,0,0,0," Imported cases only ",16
"2020/03/01","Qatar",1,1,0,0," Imported cases only ",0
"2020/03/01","United States of America",62,0,0,0," Local transmission ",1
"2020/03/01","Canada",19,5,0,0," Local transmission ",0
"2020/03/01","Brazil",2,1,0,0," Imported cases only ",0
"2020/03/01","Mexico",2,0,0,0," Imported cases only ",1
"2020/03/01","Ecuador",1,1,0,0," Imported cases only ",0
"2020/03/01","Algeria",1,0,0,0," Imported cases only ",5
"2020/03/01","Nigeria",1,0,0,0," Imported cases only ",2
"2020/03/01","Subtotal for all regions",6464,1160,98,18," ",NA
"2020/03/01","International conveyance (Diamond Princess)",705,0,6,0," Local transmission ",4
"2020/03/01","Grand total",7169,1160,104,18," ",NA
