"date","place","totconfirmed","totconfirmednew","totdeaths","totdeathsnew","transmissionclass","dayslastrep"
"2020/04/11","China",83369,64,3349,4," Clusters of cases ",0
"2020/04/11","Republic of Korea",10480,30,211,3," Clusters of cases ",0
"2020/04/11","Australia",6238,86,54,2," Clusters of cases ",0
"2020/04/11","Japan",6005,658,94,6," Clusters of cases ",0
"2020/04/11","Malaysia",4346,118,70,3," Clusters of cases ",0
"2020/04/11","Philippines",4195,119,221,18," Clusters of cases ",0
"2020/04/11","Singapore",2108,198,7,0," Clusters of cases ",0
"2020/04/11","New Zealand",1035,20,4,3," Sporadic cases ",0
"2020/04/11","Viet Nam",257,2,0,0," Clusters of cases ",0
"2020/04/11","Brunei Darussalam",136,1,1,0," Sporadic cases ",0
"2020/04/11","Cambodia",120,2,0,0," Sporadic cases ",0
"2020/04/11","Fiji",16,1,0,0," Sporadic cases ",0
"2020/04/11","Lao People's Democratic Republic",16,1,0,0," Sporadic cases ",0
"2020/04/11","Mongolia",16,0,0,0," Sporadic cases ",2
"2020/04/11","Papua New Guinea",2,0,0,0," Sporadic cases ",2
"2020/04/11","Guam",130,2,4,0," Clusters of cases ",0
"2020/04/11","French Polynesia",51,0,0,0," Sporadic cases ",2
"2020/04/11","New Caledonia",18,0,0,0," Sporadic cases ",8
"2020/04/11","Northern Mariana Islands (Commonwealth of the)",11,0,2,0," Pending ",2
"2020/04/11","Spain",157022,4576,15843,605," Pending ",0
"2020/04/11","Italy",147577,3951,18851,570," Pending ",0
"2020/04/11","Germany",117658,4133,2544,171," Pending ",0
"2020/04/11","France",89683,4332,13179,987," Pending ",0
"2020/04/11","The United Kingdom",70276,5195,8958,980," Pending ",0
"2020/04/11","Turkey",47029,4747,1006,98," Community transmission ",0
"2020/04/11","Belgium",26667,1684,3019,496," Pending ",0
"2020/04/11","Switzerland",24228,733,805,49," Community transmission ",0
"2020/04/11","Netherlands",23097,1335,2511,115," Pending ",0
"2020/04/11","Portugal",15472,1516,435,26," Pending ",0
"2020/04/11","Russian Federation",13584,1667,106,12," Clusters of cases ",0
"2020/04/11","Austria",13560,312,319,24," Pending ",0
"2020/04/11","Israel",10095,340,92,13," Pending ",0
"2020/04/11","Sweden",9685,544,870,77," Pending ",0
"2020/04/11","Ireland",8089,696,287,24," Pending ",0
"2020/04/11","Norway",6244,84,92,4," Pending ",0
"2020/04/11","Poland",5955,380,181,7," Pending ",0
"2020/04/11","Denmark",5819,184,247,10," Pending ",0
"2020/04/11","Czechia",5732,163,119,7," Pending ",0
"2020/04/11","Romania",5467,265,257,28," Pending ",0
"2020/04/11","Luxembourg",3223,108,54,2," Pending ",0
"2020/04/11","Serbia",3105,238,71,6," Pending ",0
"2020/04/11","Finland",2769,164,48,6," Pending ",0
"2020/04/11","Ukraine",2511,308,73,4," Clusters of cases ",0
"2020/04/11","Greece",2011,56,90,4," Pending ",0
"2020/04/11","Belarus",1981,915,19,6," Clusters of cases ",0
"2020/04/11","Iceland",1675,27,7,1," Pending ",0
"2020/04/11","Croatia",1495,88,21,1," Pending ",0
"2020/04/11","Republic of Moldova",1438,149,29,0," Pending ",0
"2020/04/11","Hungary",1310,120,85,8," Pending ",0
"2020/04/11","Estonia",1258,51,24,0," Pending ",0
"2020/04/11","Slovenia",1160,36,45,2," Pending ",0
"2020/04/11","Lithuania",999,44,17,2," Pending ",0
"2020/04/11","Azerbaijan",991,65,10,1," Clusters of cases ",0
"2020/04/11","Armenia",937,0,11,0," Clusters of cases ",1
"2020/04/11","Bosnia and Herzegovina",901,26,37,1," Community transmission ",0
"2020/04/11","Kazakhstan",859,57,10,1," Pending ",0
"2020/04/11","Slovakia",715,14,2,0," Pending ",0
"2020/04/11","North Macedonia",711,48,32,2," Clusters of cases ",0
"2020/04/11","Bulgaria",635,11,25,1," Pending ",0
"2020/04/11","Uzbekistan",624,0,3,0," Clusters of cases ",1
"2020/04/11","Latvia",612,23,2,0," Pending ",0
"2020/04/11","Andorra",602,13,26,0," Community transmission ",0
"2020/04/11","Cyprus",595,31,15,0," Pending ",0
"2020/04/11","Albania",416,0,23,0," Clusters of cases ",1
"2020/04/11","Malta",350,13,2,0," Pending ",0
"2020/04/11","San Marino",344,0,34,0," Community transmission ",1
"2020/04/11","Kyrgyzstan",339,41,5,0," Pending ",0
"2020/04/11","Montenegro",255,3,2,0," Clusters of cases ",0
"2020/04/11","Georgia",233,3,3,0," Clusters of cases ",0
"2020/04/11","Liechtenstein",80,1,1,0," Pending ",0
"2020/04/11","Monaco",54,0,0,0," Sporadic cases ",2
"2020/04/11","Holy See",8,0,0,0," Sporadic cases ",2
"2020/04/11","Kosovo",250,23,7,0," Community transmission ",0
"2020/04/11","Guernsey",191,10,5,0," Pending ",0
"2020/04/11","Isle of Man",190,25,1,0," Pending ",0
"2020/04/11","Faroe Islands",184,0,0,0," Pending ",3
"2020/04/11","Jersey",183,13,4,1," Pending ",0
"2020/04/11","Gibraltar",113,0,1,0," Pending ",3
"2020/04/11","Greenland",11,0,0,0," Pending ",5
"2020/04/11","India",7447,1035,239,40," Clusters of cases ",0
"2020/04/11","Indonesia",3512,0,306,0," Clusters of cases ",1
"2020/04/11","Thailand",2518,45,35,2," Clusters of cases ",0
"2020/04/11","Bangladesh",424,94,27,6," Clusters of cases ",0
"2020/04/11","Sri Lanka",197,7,7,0," Clusters of cases ",0
"2020/04/11","Myanmar",28,1,3,0," Clusters of cases ",0
"2020/04/11","Maldives",19,0,0,0," Clusters of cases ",8
"2020/04/11","Nepal",9,0,0,0," Sporadic cases ",6
"2020/04/11","Bhutan",5,0,0,0," Sporadic cases ",8
"2020/04/11","Timor-Leste",2,1,0,0," Sporadic cases ",0
"2020/04/11","Iran (Islamic Republic of)",68192,1972,4232,122," Community transmission ",0
"2020/04/11","Pakistan",4788,187,71,5," Clusters of cases ",0
"2020/04/11","Saudi Arabia",3651,364,47,3," Clusters of cases ",0
"2020/04/11","United Arab Emirates",3360,370,16,2," Pending ",0
"2020/04/11","Qatar",2512,136,6,0," Pending ",0
"2020/04/11","Egypt",1794,95,135,17," Clusters of cases ",0
"2020/04/11","Morocco",1448,71,107,10," Clusters of cases ",0
"2020/04/11","Iraq",1280,48,71,2," Clusters of cases ",0
"2020/04/11","Bahrain",998,111,6,1," Clusters of cases ",0
"2020/04/11","Kuwait",993,83,1,0," Clusters of cases ",0
"2020/04/11","Tunisia",671,28,25,0," Community transmission ",0
"2020/04/11","Lebanon",609,27,20,1," Clusters of cases ",0
"2020/04/11","Oman",546,62,3,0," Clusters of cases ",0
"2020/04/11","Afghanistan",521,0,15,0," Clusters of cases ",1
"2020/04/11","Jordan",372,0,7,0," Clusters of cases ",1
"2020/04/11","Djibouti",150,10,1,0," Clusters of cases ",0
"2020/04/11","Libya",24,0,1,0," Clusters of cases ",1
"2020/04/11","Syrian Arab Republic",19,0,2,0," Community transmission ",5
"2020/04/11","Sudan",17,2,2,0," Sporadic cases ",0
"2020/04/11","Somalia",12,0,1,0," Sporadic cases ",2
"2020/04/11","Yemen",1,1,0,0," Pending ",0
"2020/04/11","occupied Palestinian territory",268,2,2,1," Clusters of cases ",0
"2020/04/11","United States of America",461275,35386,16596,1931," Community transmission ",0
"2020/04/11","Canada",21226,1467,531,70," Community transmission ",0
"2020/04/11","Brazil",17857,1930,941,141," Community transmission ",0
"2020/04/11","Ecuador",7161,2196,297,25," Community transmission ",0
"2020/04/11","Chile",6501,529,65,8," Community transmission ",0
"2020/04/11","Peru",5256,914,138,17," Community transmission ",0
"2020/04/11","Mexico",3441,260,194,20," Community transmission ",0
"2020/04/11","Panama",2752,224,66,3," Community transmission ",0
"2020/04/11","Dominican Republic",2349,0,118,0," Community transmission ",1
"2020/04/11","Colombia",2223,169,69,14," Community transmission ",0
"2020/04/11","Argentina",1929,134,79,12," Community transmission ",0
"2020/04/11","Cuba",564,49,15,0," Clusters of cases ",0
"2020/04/11","Costa Rica",539,37,3,0," Clusters of cases ",0
"2020/04/11","Uruguay",473,17,7,0," Clusters of cases ",0
"2020/04/11","Honduras",382,39,23,0," Clusters of cases ",0
"2020/04/11","Bolivia (Plurinational State of)",268,4,19,1," Clusters of cases ",0
"2020/04/11","Venezuela (Bolivarian Republic of)",171,5,9,2," Clusters of cases ",0
"2020/04/11","Paraguay",129,5,6,1," Clusters of cases ",0
"2020/04/11","Guatemala",126,31,3,0," Clusters of cases ",0
"2020/04/11","El Salvador",117,14,6,1," Clusters of cases ",0
"2020/04/11","Trinidad and Tobago",109,0,8,0," Clusters of cases ",1
"2020/04/11","Barbados",66,3,4,1," Clusters of cases ",0
"2020/04/11","Jamaica",63,0,4,0," Clusters of cases ",2
"2020/04/11","Bahamas",41,1,8,1," Clusters of cases ",0
"2020/04/11","Guyana",37,0,6,0," Clusters of cases ",1
"2020/04/11","Haiti",30,0,2,0," Clusters of cases ",1
"2020/04/11","Antigua and Barbuda",19,0,2,0," Clusters of cases ",2
"2020/04/11","Dominica",16,1,0,0," Clusters of cases ",0
"2020/04/11","Saint Lucia",14,0,0,0," Sporadic cases ",5
"2020/04/11","Grenada",12,0,0,0," Clusters of cases ",6
"2020/04/11","Saint Vincent and the Grenadines",12,4,0,0," Sporadic cases ",0
"2020/04/11","Saint Kitts and Nevis",11,0,0,0," Sporadic cases ",2
"2020/04/11","Belize",10,1,1,0," Sporadic cases ",0
"2020/04/11","Suriname",10,0,1,0," Sporadic cases ",7
"2020/04/11","Nicaragua",7,1,1,0," Pending ",0
"2020/04/11","Puerto Rico",725,42,39,6," Clusters of cases ",0
"2020/04/11","Martinique",154,0,6,0," Clusters of cases ",1
"2020/04/11","Guadeloupe",143,2,8,0," Clusters of cases ",0
"2020/04/11","Aruba",86,4,0,0," Clusters of cases ",0
"2020/04/11","French Guiana",84,1,0,0," Clusters of cases ",0
"2020/04/11","Sint Maarten",50,7,9,1," Sporadic cases ",0
"2020/04/11","United States Virgin Islands",50,4,1,0," Clusters of cases ",0
"2020/04/11","Bermuda",48,9,4,1," Clusters of cases ",0
"2020/04/11","Cayman Islands",45,0,1,0," Clusters of cases ",2
"2020/04/11","Saint Martin",32,0,2,0," Sporadic cases ",1
"2020/04/11","Curaçao",14,0,1,0," Sporadic cases ",2
"2020/04/11","Montserrat",9,1,0,0," Sporadic cases ",0
"2020/04/11","Turks and Caicos Islands",8,0,1,0," Sporadic cases ",3
"2020/04/11","Saint Barthélemy",6,0,0,0," Sporadic cases ",11
"2020/04/11","Falkland Islands (Malvinas)",5,0,0,0," Sporadic cases ",2
"2020/04/11","Anguilla",3,0,0,0," Sporadic cases ",7
"2020/04/11","British Virgin Islands",3,0,0,0," Sporadic cases ",10
"2020/04/11","Bonaire, Sint Eustatius and Saba",2,0,0,0," Sporadic cases ",7
"2020/04/11","Saint Pierre and Miquelon",1,0,0,0," Sporadic cases ",3
"2020/04/11","South Africa",2003,69,24,6," Community transmission ",0
"2020/04/11","Algeria",1761,95,256,21," Community transmission ",0
"2020/04/11","Cameroon",803,73,10,0," Clusters of cases ",0
"2020/04/11","Côte d’Ivoire",480,96,3,0," Clusters of cases ",0
"2020/04/11","Burkina Faso",443,29,19,0," Clusters of cases ",0
"2020/04/11","Niger",438,28,11,0," Clusters of cases ",0
"2020/04/11","Ghana",378,65,6,0," Clusters of cases ",0
"2020/04/11","Mauritius",318,4,9,2," Clusters of cases ",0
"2020/04/11","Nigeria",305,17,7,0," Clusters of cases ",0
"2020/04/11","Senegal",265,15,2,0," Clusters of cases ",0
"2020/04/11","Democratic Republic of the Congo",215,0,20,0," Clusters of cases ",1
"2020/04/11","Guinea",194,0,0,0," Clusters of cases ",1
"2020/04/11","Kenya",189,5,7,0," Clusters of cases ",0
"2020/04/11","Rwanda",118,5,0,0," Sporadic cases ",0
"2020/04/11","Madagascar",95,0,0,0," Clusters of cases ",1
"2020/04/11","Mali",74,15,7,0," Sporadic cases ",0
"2020/04/11","Togo",73,0,3,0," Sporadic cases ",1
"2020/04/11","Ethiopia",65,9,2,0," Sporadic cases ",0
"2020/04/11","Congo",60,0,5,0," Clusters of cases ",2
"2020/04/11","Uganda",53,0,0,0," Sporadic cases ",2
"2020/04/11","Gabon",44,0,1,0," Sporadic cases ",1
"2020/04/11","Zambia",40,1,2,1," Sporadic cases ",0
"2020/04/11","Liberia",37,6,5,1," Sporadic cases ",0
"2020/04/11","Guinea-Bissau",35,0,0,0," Sporadic cases ",1
"2020/04/11","Eritrea",33,0,0,0," Sporadic cases ",2
"2020/04/11","United Republic of Tanzania",32,7,3,2," Sporadic cases ",0
"2020/04/11","Benin",30,0,1,0," Sporadic cases ",1
"2020/04/11","Mozambique",20,3,0,0," Sporadic cases ",0
"2020/04/11","Angola",19,0,2,0," Sporadic cases ",2
"2020/04/11","Equatorial Guinea",18,0,0,0," Sporadic cases ",1
"2020/04/11","Namibia",16,0,0,0," Sporadic cases ",5
"2020/04/11","Botswana",13,0,1,0," Sporadic cases ",1
"2020/04/11","Eswatini",12,0,0,0," Sporadic cases ",2
"2020/04/11","Central African Republic",11,1,0,0," Sporadic cases ",0
"2020/04/11","Chad",11,0,0,0," Sporadic cases ",1
"2020/04/11","Seychelles",11,0,0,0," Sporadic cases ",4
"2020/04/11","Zimbabwe",11,0,3,0," Sporadic cases ",3
"2020/04/11","Malawi",9,1,1,0," Sporadic cases ",0
"2020/04/11","Cabo Verde",7,0,1,0," Sporadic cases ",4
"2020/04/11","Mauritania",7,1,1,0," Sporadic cases ",0
"2020/04/11","Sierra Leone",7,0,0,0," Sporadic cases ",2
"2020/04/11","Gambia",4,0,1,0," Sporadic cases ",8
"2020/04/11","São Tomé and Príncipe",4,0,0,0," Pending ",4
"2020/04/11","Burundi",3,0,0,0," Sporadic cases ",7
"2020/04/11","South Sudan",3,0,0,0," Pending ",1
"2020/04/11","Réunion",382,6,0,0," Clusters of cases ",0
"2020/04/11","Mayotte",191,0,2,0," Clusters of cases ",1
"2020/04/11","Subtotal for all Regions",1610197,89657,99679,6892," ",NA
"2020/04/11","International conveyance (Diamond Princess)",712,0,11,0," Pending ",26
"2020/04/11","Grand total",1610909,89657,99690,6892," ",NA
