"date","place","totconfirmed","totconfirmednew","totdeaths","totdeathsnew","transmissionclass","dayslastrep"
"2020/05/21","South Africa",18003,803,339,27,"Community transmission",0
"2020/05/21","Algeria",7542,165,568,7,"Community transmission",0
"2020/05/21","Nigeria",6677,276,200,8,"Community transmission",0
"2020/05/21","Ghana",6096,0,31,0,"Community transmission",1
"2020/05/21","Cameroon",3733,204,146,6,"Community transmission",0
"2020/05/21","Guinea",2927,64,19,1,"Community transmission",0
"2020/05/21","Senegal",2714,97,30,0,"Community transmission",0
"2020/05/21","Côte d’Ivoire",2231,78,29,1,"Community transmission",0
"2020/05/21","Democratic Republic of the Congo",1834,104,60,0,"Community transmission",0
"2020/05/21","Gabon",1567,65,12,0,"Community transmission",0
"2020/05/21","Guinea-Bissau",1089,51,6,0,"Community transmission",0
"2020/05/21","Kenya",1029,66,50,0,"Community transmission",0
"2020/05/21","Mali",931,30,55,2,"Community transmission",0
"2020/05/21","Niger",920,6,58,3,"Community transmission",0
"2020/05/21","Equatorial Guinea",903,13,10,3,"Community transmission",0
"2020/05/21","Zambia",832,60,7,0,"Community transmission",0
"2020/05/21","Burkina Faso",809,3,52,0,"Community transmission",0
"2020/05/21","Sierra Leone",570,36,34,1,"Clusters of cases",0
"2020/05/21","Chad",565,20,57,1,"Community transmission",0
"2020/05/21","United Republic of Tanzania",509,0,21,0,"Community transmission",13
"2020/05/21","Congo",420,0,15,0,"Community transmission",1
"2020/05/21","Central African Republic",411,0,0,0,"Sporadic cases",1
"2020/05/21","Ethiopia",389,24,5,0,"Clusters of cases",0
"2020/05/21","Madagascar",371,45,2,0,"Clusters of cases",0
"2020/05/21","Cabo Verde",349,14,3,0,"Clusters of cases",0
"2020/05/21","South Sudan",339,57,6,2,"Clusters of cases",0
"2020/05/21","Togo",338,0,12,0,"Community transmission",1
"2020/05/21","Mauritius",332,0,10,0,"Clusters of cases",24
"2020/05/21","Rwanda",314,6,0,0,"Sporadic cases",0
"2020/05/21","Uganda",264,4,0,0,"Sporadic cases",0
"2020/05/21","Liberia",238,5,23,0,"Community transmission",0
"2020/05/21","Eswatini",217,9,2,0,"Clusters of cases",0
"2020/05/21","São Tomé and Príncipe",165,0,8,1,"Clusters of cases",2
"2020/05/21","Mozambique",156,10,0,0,"Clusters of cases",0
"2020/05/21","Mauritania",141,10,4,0,"Sporadic cases",0
"2020/05/21","Benin",130,0,2,0,"Community transmission",1
"2020/05/21","Malawi",72,1,3,0,"Clusters of cases",0
"2020/05/21","Angola",58,6,3,0,"Clusters of cases",0
"2020/05/21","Zimbabwe",48,2,4,0,"Sporadic cases",0
"2020/05/21","Burundi",42,0,1,0,"Clusters of cases",3
"2020/05/21","Eritrea",39,0,0,0,"Sporadic cases",32
"2020/05/21","Comoros",34,0,1,0,"Community transmission",1
"2020/05/21","Botswana",25,0,1,0,"Clusters of cases",4
"2020/05/21","Gambia",24,0,1,0,"Sporadic cases",3
"2020/05/21","Namibia",16,0,0,0,"Sporadic cases",45
"2020/05/21","Seychelles",11,0,0,0,"Clusters of cases",44
"2020/05/21","Lesotho",1,0,0,0,"Pending",7
"2020/05/21","Mayotte",1475,56,19,0,"Clusters of cases",0
"2020/05/21","Réunion",447,1,1,1,"Clusters of cases",0
"2020/05/21","United States of America",1501876,24417,90203,932,"Community transmission",0
"2020/05/21","Brazil",271628,17408,17971,1179,"Community transmission",0
"2020/05/21","Peru",99483,4550,2914,125,"Community transmission",0
"2020/05/21","Canada",79502,1003,5955,98,"Community transmission",0
"2020/05/21","Mexico",54346,2713,5666,334,"Community transmission",0
"2020/05/21","Chile",53617,7558,544,66,"Community transmission",0
"2020/05/21","Ecuador",34151,0,2839,0,"Community transmission",1
"2020/05/21","Colombia",16935,640,613,21,"Community transmission",0
"2020/05/21","Dominican Republic",13477,254,446,5,"Community transmission",0
"2020/05/21","Panama",9867,141,281,2,"Community transmission",0
"2020/05/21","Argentina",8809,438,393,11,"Community transmission",0
"2020/05/21","Bolivia (Plurinational State of)",4481,218,189,15,"Clusters of cases",0
"2020/05/21","Honduras",2955,157,147,1,"Community transmission",0
"2020/05/21","Guatemala",2133,132,43,5,"Clusters of cases",0
"2020/05/21","Cuba",1900,13,79,0,"Clusters of cases",0
"2020/05/21","El Salvador",1571,73,31,1,"Community transmission",0
"2020/05/21","Costa Rica",882,0,10,0,"Clusters of cases",1
"2020/05/21","Paraguay",833,4,11,0,"Community transmission",0
"2020/05/21","Venezuela (Bolivarian Republic of)",824,206,10,0,"Clusters of cases",0
"2020/05/21","Uruguay",738,1,20,0,"Clusters of cases",0
"2020/05/21","Haiti",596,63,22,1,"Clusters of cases",0
"2020/05/21","Jamaica",520,0,9,0,"Clusters of cases",2
"2020/05/21","Nicaragua",279,254,17,9,"Clusters of cases",0
"2020/05/21","Guyana",125,1,10,0,"Clusters of cases",0
"2020/05/21","Trinidad and Tobago",116,0,8,0,"Sporadic cases",23
"2020/05/21","Bahamas",96,0,11,0,"Clusters of cases",5
"2020/05/21","Barbados",90,2,7,0,"Clusters of cases",0
"2020/05/21","Antigua and Barbuda",25,0,3,0,"Clusters of cases",17
"2020/05/21","Grenada",22,0,0,0,"Clusters of cases",5
"2020/05/21","Belize",18,0,2,0,"Sporadic cases",36
"2020/05/21","Saint Lucia",18,0,0,0,"Sporadic cases",16
"2020/05/21","Saint Vincent and the Grenadines",18,1,0,0,"Sporadic cases",0
"2020/05/21","Dominica",16,0,0,0,"Clusters of cases",40
"2020/05/21","Saint Kitts and Nevis",15,0,0,0,"Sporadic cases",30
"2020/05/21","Suriname",11,0,1,0,"Sporadic cases",2
"2020/05/21","Puerto Rico",2866,61,125,1,"Community transmission",0
"2020/05/21","French Guiana",218,8,1,0,"Clusters of cases",0
"2020/05/21","Martinique",192,0,14,0,"Clusters of cases",4
"2020/05/21","Guadeloupe",155,0,13,0,"Clusters of cases",8
"2020/05/21","Bermuda",125,0,9,0,"Clusters of cases",1
"2020/05/21","Cayman Islands",111,17,1,0,"Clusters of cases",0
"2020/05/21","Aruba",101,0,3,0,"Sporadic cases",15
"2020/05/21","Sint Maarten",78,0,15,0,"Sporadic cases",7
"2020/05/21","United States Virgin Islands",69,0,6,0,"Clusters of cases",10
"2020/05/21","Saint Martin",39,0,3,0,"Sporadic cases",10
"2020/05/21","Curaçao",16,0,1,0,"Sporadic cases",23
"2020/05/21","Falkland Islands (Malvinas)",13,0,0,0,"Clusters of cases",25
"2020/05/21","Turks and Caicos Islands",12,0,1,0,"Sporadic cases",23
"2020/05/21","Montserrat",11,0,1,0,"Sporadic cases",37
"2020/05/21","British Virgin Islands",8,0,1,0,"Sporadic cases",5
"2020/05/21","Bonaire, Sint Eustatius and Saba",6,0,0,0,"No cases",23
"2020/05/21","Saint Barthélemy",6,0,0,0,"Sporadic cases",51
"2020/05/21","Anguilla",3,0,0,0,"Sporadic cases",47
"2020/05/21","Saint Pierre and Miquelon",1,0,0,0,"Sporadic cases",43
"2020/05/21","Iran (Islamic Republic of)",126949,2346,7183,64,"Community transmission",0
"2020/05/21","Saudi Arabia",62545,2691,339,10,"Clusters of cases",0
"2020/05/21","Pakistan",48091,2907,1017,32,"Clusters of cases",0
"2020/05/21","Qatar",37097,1491,16,1,"Community transmission",0
"2020/05/21","United Arab Emirates",26004,941,233,6,"Pending",0
"2020/05/21","Kuwait",17568,804,124,3,"Clusters of cases",0
"2020/05/21","Egypt",14229,745,680,21,"Clusters of cases",0
"2020/05/21","Afghanistan",8676,531,193,6,"Clusters of cases",0
"2020/05/21","Bahrain",7888,356,12,0,"Clusters of cases",0
"2020/05/21","Morocco",7133,110,194,1,"Clusters of cases",0
"2020/05/21","Oman",6370,699,30,3,"Clusters of cases",0
"2020/05/21","Iraq",3724,113,134,3,"Clusters of cases",0
"2020/05/21","Sudan",3138,410,121,10,"Community transmission",0
"2020/05/21","Djibouti",1828,210,9,2,"Clusters of cases",0
"2020/05/21","Somalia",1573,71,61,2,"Sporadic cases",0
"2020/05/21","Tunisia",1045,1,47,0,"Community transmission",0
"2020/05/21","Lebanon",961,7,26,0,"Clusters of cases",0
"2020/05/21","Jordan",672,23,9,0,"Clusters of cases",0
"2020/05/21","Yemen",184,13,30,1,"Pending",0
"2020/05/21","Libya",69,1,3,0,"Clusters of cases",0
"2020/05/21","Syrian Arab Republic",58,0,3,0,"Community transmission",3
"2020/05/21","occupied Palestinian territory",577,7,4,0,"Clusters of cases",0
"2020/05/21","Russian Federation",317554,8849,3099,127,"Clusters of cases",0
"2020/05/21","The United Kingdom",248297,-525,35704,363,"Community transmission",0
"2020/05/21","Spain",232555,518,27888,110,"Community transmission",0
"2020/05/21","Italy",227364,665,32330,161,"Community transmission",0
"2020/05/21","Germany",176752,745,8147,57,"Community transmission",0
"2020/05/21","Turkey",152587,972,4222,23,"Community transmission",0
"2020/05/21","France",141312,353,28081,109,"Community transmission",0
"2020/05/21","Belgium",55983,192,9150,42,"Community transmission",0
"2020/05/21","Netherlands",44447,198,5748,33,"Community transmission",0
"2020/05/21","Belarus",33371,1863,185,10,"Community transmission",0
"2020/05/21","Sweden",31523,724,3831,88,"Community transmission",0
"2020/05/21","Switzerland",30575,40,1629,16,"Community transmission",0
"2020/05/21","Portugal",29660,228,1263,16,"Community transmission",0
"2020/05/21","Ireland",24315,64,1571,10,"Community transmission",0
"2020/05/21","Poland",19739,471,962,14,"Community transmission",0
"2020/05/21","Ukraine",19706,476,579,15,"Community transmission",0
"2020/05/21","Romania",17387,196,1141,15,"Community transmission",0
"2020/05/21","Israel",16659,9,278,1,"Pending",0
"2020/05/21","Austria",16275,18,633,1,"Community transmission",0
"2020/05/21","Denmark",11117,73,554,3,"Community transmission",0
"2020/05/21","Serbia",10833,100,235,1,"Pending",0
"2020/05/21","Czechia",8721,74,304,2,"Clusters of cases",0
"2020/05/21","Norway",8268,11,234,1,"Clusters of cases",0
"2020/05/21","Kazakhstan",7234,265,35,0,"Pending",0
"2020/05/21","Republic of Moldova",6553,213,232,8,"Pending",0
"2020/05/21","Finland",6443,44,304,3,"Pending",0
"2020/05/21","Armenia",5606,335,70,3,"Clusters of cases",0
"2020/05/21","Luxembourg",3971,13,109,0,"Pending",0
"2020/05/21","Hungary",3641,43,473,3,"Community transmission",0
"2020/05/21","Azerbaijan",3631,113,43,2,"Clusters of cases",0
"2020/05/21","Uzbekistan",2950,70,13,0,"Clusters of cases",0
"2020/05/21","Greece",2850,10,166,1,"Clusters of cases",0
"2020/05/21","Bosnia and Herzegovina",2334,15,135,2,"Community transmission",0
"2020/05/21","Bulgaria",2331,39,120,4,"Clusters of cases",0
"2020/05/21","Croatia",2234,2,96,0,"Community transmission",0
"2020/05/21","Tajikistan",2140,204,44,0,"Pending",0
"2020/05/21","North Macedonia",1858,19,110,4,"Clusters of cases",0
"2020/05/21","Iceland",1803,1,10,0,"Community transmission",0
"2020/05/21","Estonia",1794,3,64,0,"Pending",0
"2020/05/21","Lithuania",1577,15,60,0,"Community transmission",0
"2020/05/21","Slovakia",1496,1,28,0,"Clusters of cases",0
"2020/05/21","Slovenia",1468,1,105,1,"Clusters of cases",0
"2020/05/21","Kyrgyzstan",1313,43,14,0,"Clusters of cases",0
"2020/05/21","Latvia",1016,4,21,0,"Clusters of cases",0
"2020/05/21","Albania",969,5,31,0,"Clusters of cases",0
"2020/05/21","Cyprus",922,4,17,0,"Clusters of cases",0
"2020/05/21","Andorra",762,1,51,0,"Community transmission",0
"2020/05/21","Georgia",721,8,12,0,"Community transmission",0
"2020/05/21","San Marino",670,2,41,0,"Community transmission",0
"2020/05/21","Malta",584,24,6,0,"Sporadic cases",0
"2020/05/21","Montenegro",324,0,9,0,"Clusters of cases",15
"2020/05/21","Monaco",96,0,1,0,"Sporadic cases",10
"2020/05/21","Liechtenstein",83,0,1,0,"Pending",25
"2020/05/21","Holy See",12,0,0,0,"Sporadic cases",14
"2020/05/21","Kosovo",989,0,29,0,"Community transmission",1
"2020/05/21","Isle of Man",335,0,24,0,"Pending",3
"2020/05/21","Jersey",303,0,28,1,"Community transmission",1
"2020/05/21","Guernsey",252,0,13,0,"Community transmission",18
"2020/05/21","Faroe Islands",187,0,0,0,"Pending",27
"2020/05/21","Gibraltar",147,0,0,0,"Clusters of cases",8
"2020/05/21","Greenland",11,0,0,0,"Pending",45
"2020/05/21","India",112359,5609,3435,132,"Clusters of cases",0
"2020/05/21","Bangladesh",26738,1617,386,16,"Clusters of cases",0
"2020/05/21","Indonesia",19189,693,1242,21,"Community transmission",0
"2020/05/21","Thailand",3037,3,56,0,"Clusters of cases",0
"2020/05/21","Maldives",1186,43,4,0,"Clusters of cases",0
"2020/05/21","Sri Lanka",1028,1,9,0,"Clusters of cases",0
"2020/05/21","Nepal",444,42,2,0,"Sporadic cases",0
"2020/05/21","Myanmar",199,6,6,0,"Clusters of cases",0
"2020/05/21","Timor-Leste",24,0,0,0,"Clusters of cases",27
"2020/05/21","Bhutan",21,0,0,0,"Sporadic cases",5
"2020/05/21","China",84507,2,4645,0,"Clusters of cases",0
"2020/05/21","Singapore",29364,570,22,0,"Clusters of cases",0
"2020/05/21","Japan",16424,39,777,6,"Clusters of cases",0
"2020/05/21","Philippines",13221,279,842,5,"Community transmission",0
"2020/05/21","Republic of Korea",11122,12,264,1,"Clusters of cases",0
"2020/05/21","Australia",7079,11,100,1,"Clusters of cases",0
"2020/05/21","Malaysia",7009,31,114,0,"Clusters of cases",0
"2020/05/21","New Zealand",1153,0,21,0,"Clusters of cases",2
"2020/05/21","Viet Nam",324,0,0,0,"Clusters of cases",2
"2020/05/21","Brunei Darussalam",141,0,1,0,"Clusters of cases",13
"2020/05/21","Mongolia",140,0,0,0,"Sporadic cases",2
"2020/05/21","Cambodia",122,0,0,0,"Sporadic cases",39
"2020/05/21","Lao People's Democratic Republic",19,0,0,0,"Sporadic cases",38
"2020/05/21","Fiji",18,0,0,0,"Sporadic cases",30
"2020/05/21","Papua New Guinea",8,0,0,0,"Sporadic cases",28
"2020/05/21","Guam",160,11,5,0,"Clusters of cases",0
"2020/05/21","French Polynesia",60,0,0,0,"Sporadic cases",15
"2020/05/21","Northern Mariana Islands  (Commonwealth of the)",21,0,2,0,"Pending",4
"2020/05/21","New Caledonia",18,0,0,0,"Sporadic cases",48
"2020/05/21","Subtotal for all regions",4892474,103981,323243,4467,"",NA
"2020/05/21","Other*",712,0,13,0,"-",66
"2020/05/21","Grand total",4893186,103981,323256,4467,"",NA
