"date","place","totconfirmed","totconfirmednew","totdeaths","totdeathsnew","transmissionclass","dayslastrep"
"2020/04/03","China",82802,78,3331,4," Local transmission ",0
"2020/04/03","Republic of Korea",10062,86,174,5," Local transmission ",0
"2020/04/03","Australia",5224,248,23,2," Local transmission ",0
"2020/04/03","Malaysia",3116,208,50,5," Local transmission ",0
"2020/04/03","Philippines",2633,322,107,11," Local transmission ",0
"2020/04/03","Japan",2617,233,65,8," Local transmission ",0
"2020/04/03","Singapore",1049,49,4,1," Local transmission ",0
"2020/04/03","New Zealand",774,51,1,0," Local transmission ",0
"2020/04/03","Viet Nam",233,15,0,0," Local transmission ",0
"2020/04/03","Brunei Darussalam",133,2,1,0," Local transmission ",0
"2020/04/03","Cambodia",110,1,0,0," Local transmission ",0
"2020/04/03","French Polynesia",37,0,0,0," Local transmission ",2
"2020/04/03","Mongolia",14,0,0,0," Imported cases only ",1
"2020/04/03","Lao People's Democratic Republic",10,0,0,0," Local transmission ",1
"2020/04/03","Fiji",7,2,0,0," Local transmission ",0
"2020/04/03","Papua New Guinea",1,0,0,0," Imported cases only ",13
"2020/04/03","Guam",82,5,3,0," Local transmission ",0
"2020/04/03","New Caledonia",18,2,0,0," Local transmission ",0
"2020/04/03","Northern Mariana Islands (Commonwealth of the)",8,2,1,1," Local transmission ",0
"2020/04/03","Italy",115242,4668,13917,760," Local transmission ",0
"2020/04/03","Spain",110238,8102,10003,950," Local transmission ",0
"2020/04/03","Germany",79696,6174,1017,145," Local transmission ",0
"2020/04/03","France",58327,2066,4490,471," Local transmission ",0
"2020/04/03","The United Kingdom",33722,4244,2921,389," Local transmission ",0
"2020/04/03","Switzerland",18844,1774,536,158," Local transmission ",0
"2020/04/03","Turkey",18135,2456,356,79," Local transmission ",0
"2020/04/03","Belgium",15348,1384,1011,183," Local transmission ",0
"2020/04/03","Netherlands",14697,1083,1339,166," Local transmission ",0
"2020/04/03","Austria",11129,418,158,12," Local transmission ",0
"2020/04/03","Portugal",9034,783,209,22," Local transmission ",0
"2020/04/03","Israel",6211,620,29,8," Local transmission ",0
"2020/04/03","Sweden",5466,519,282,43," Local transmission ",0
"2020/04/03","Norway",4935,270,42,10," Local transmission ",0
"2020/04/03","Czechia",3858,269,44,5," Local transmission ",0
"2020/04/03","Ireland",3849,402,98,13," Local transmission ",0
"2020/04/03","Russian Federation",3548,771,30,6," Local transmission ",0
"2020/04/03","Denmark",3386,279,123,19," Local transmission ",0
"2020/04/03","Poland",2946,392,57,14," Local transmission ",0
"2020/04/03","Romania",2738,278,94,9," Local transmission ",0
"2020/04/03","Luxembourg",2487,168,30,1," Local transmission ",0
"2020/04/03","Finland",1518,72,19,2," Local transmission ",0
"2020/04/03","Greece",1514,139,53,3," Local transmission ",0
"2020/04/03","Iceland",1319,99,4,2," Local transmission ",0
"2020/04/03","Serbia",1171,111,13,0," Local transmission ",0
"2020/04/03","Croatia",1011,48,7,1," Local transmission ",0
"2020/04/03","Ukraine",987,183,23,3," Local transmission ",0
"2020/04/03","Republic of Moldova",591,168,8,3," Local transmission ",0
"2020/04/03","Slovenia",897,56,16,1," Local transmission ",0
"2020/04/03","Estonia",858,79,11,6," Local transmission ",0
"2020/04/03","Lithuania",649,68,9,1," Local transmission ",0
"2020/04/03","Armenia",640,69,4,1," Local transmission ",0
"2020/04/03","Hungary",585,60,21,1," Local transmission ",0
"2020/04/03","Bosnia and Herzegovina",521,57,16,3," Local transmission ",0
"2020/04/03","Latvia",458,12,0,0," Local transmission ",0
"2020/04/03","Bulgaria",457,35,10,0," Local transmission ",0
"2020/04/03","Kazakhstan",435,49,3,0," Local transmission ",0
"2020/04/03","Andorra",429,33,15,2," Local transmission ",0
"2020/04/03","Slovakia",426,26,0,0," Local transmission ",0
"2020/04/03","Azerbaijan",400,41,5,0," Local transmission ",0
"2020/04/03","North Macedonia",384,30,11,0," Local transmission ",0
"2020/04/03","Cyprus",356,36,9,0," Local transmission ",0
"2020/04/03","Albania",277,0,16,1," Local transmission ",1
"2020/04/03","Belarus",254,62,4,2," Local transmission ",0
"2020/04/03","San Marino",245,9,30,2," Local transmission ",0
"2020/04/03","Uzbekistan",221,31,2,0," Local transmission ",0
"2020/04/03","Malta",195,7,0,0," Local transmission ",0
"2020/04/03","Georgia",148,27,0,0," Local transmission ",0
"2020/04/03","Montenegro",140,20,2,0," Local transmission ",0
"2020/04/03","Kyrgyzstan",130,15,1,1," Local transmission ",0
"2020/04/03","Liechtenstein",75,3,0,0," Under investigation ",0
"2020/04/03","Monaco",37,0,0,0," Local transmission ",2
"2020/04/03","Holy See",7,1,0,0," Under investigation ",0
"2020/04/03","Faroe Islands",177,4,0,0," Local transmission ",0
"2020/04/03","Kosovo",126,1,1,0," Local transmission ",0
"2020/04/03","Gibraltar",81,12,0,0," Local transmission ",0
"2020/04/03","Jersey",81,0,2,0," Local transmission ",1
"2020/04/03","Guernsey",91,13,1,0," Local transmission ",0
"2020/04/03","Isle of Man",71,6,1,1," Local transmission ",0
"2020/04/03","Greenland",10,0,0,0," Under investigation ",5
"2020/04/03","India",1965,329,50,12," Local transmission ",0
"2020/04/03","Thailand",1875,104,15,3," Local transmission ",0
"2020/04/03","Indonesia",1790,113,170,13," Local transmission ",0
"2020/04/03","Sri Lanka",148,5,3,1," Local transmission ",0
"2020/04/03","Bangladesh",56,2,6,0," Local transmission ",0
"2020/04/03","Maldives",19,1,0,0," Local transmission ",0
"2020/04/03","Myanmar",16,1,1,0," Local transmission ",0
"2020/04/03","Nepal",6,1,0,0," Imported cases only ",0
"2020/04/03","Bhutan",5,1,0,0," Imported cases only ",0
"2020/04/03","Timor-Leste",1,0,0,0," Imported cases only ",13
"2020/04/03","Iran (Islamic Republic of)",50468,2875,3160,124," Local transmission ",0
"2020/04/03","Pakistan",2450,159,35,4," Local transmission ",0
"2020/04/03","Saudi Arabia",1885,165,21,5," Local transmission ",0
"2020/04/03","United Arab Emirates",1024,210,8,0," Local transmission ",0
"2020/04/03","Qatar",949,114,3,1," Local transmission ",0
"2020/04/03","Egypt",865,86,58,6," Local transmission ",0
"2020/04/03","Iraq",772,44,54,2," Local transmission ",0
"2020/04/03","Morocco",735,59,47,8," Local transmission ",0
"2020/04/03","Bahrain",643,74,4,0," Local transmission ",0
"2020/04/03","Lebanon",508,29,17,5," Local transmission ",0
"2020/04/03","Tunisia",455,32,14,2," Local transmission ",0
"2020/04/03","Kuwait",417,100,0,0," Local transmission ",0
"2020/04/03","Jordan",299,21,5,0," Local transmission ",0
"2020/04/03","Afghanistan",269,34,5,1," Local transmission ",0
"2020/04/03","Oman",252,21,1,0," Local transmission ",0
"2020/04/03","Djibouti",41,7,0,0," Local transmission ",0
"2020/04/03","Syrian Arab Republic",16,6,2,0," Imported cases only ",0
"2020/04/03","Libya",10,0,1,1," Local transmission ",2
"2020/04/03","Sudan",8,1,2,0," Local transmission ",0
"2020/04/03","Somalia",5,0,0,0," Imported cases only ",2
"2020/04/03","occupied Palestinian territory",165,31,1,0," Local transmission ",0
"2020/04/03","United States of America",213600,26298,4793,947," Local transmission ",0
"2020/04/03","Canada",10114,1109,127,22," Local transmission ",0
"2020/04/03","Brazil",6836,1119,241,40," Local transmission ",0
"2020/04/03","Chile",3404,373,18,2," Local transmission ",0
"2020/04/03","Ecuador",3163,791,120,0," Local transmission ",0
"2020/04/03","Dominican Republic",1380,96,60,3," Local transmission ",0
"2020/04/03","Mexico",1378,163,37,8," Local transmission ",0
"2020/04/03","Peru",1323,0,41,17," Local transmission ",1
"2020/04/03","Panama",1317,136,32,2," Local transmission ",0
"2020/04/03","Argentina",1133,79,31,4," Local transmission ",0
"2020/04/03","Colombia",1065,159,17,1," Local transmission ",0
"2020/04/03","Costa Rica",375,28,2,0," Local transmission ",0
"2020/04/03","Uruguay",350,12,4,2," Local transmission ",0
"2020/04/03","Cuba",233,21,6,0," Local transmission ",0
"2020/04/03","Honduras",219,47,14,4," Local transmission ",0
"2020/04/03","Venezuela (Bolivarian Republic of)",144,1,3,0," Local transmission ",0
"2020/04/03","Bolivia (Plurinational State of)",123,8,8,1," Local transmission ",0
"2020/04/03","Trinidad and Tobago",90,1,5,0," Local transmission ",0
"2020/04/03","Paraguay",77,8,3,0," Local transmission ",0
"2020/04/03","Guatemala",47,8,1,0," Local transmission ",0
"2020/04/03","Barbados",45,12,0,0," Local transmission ",0
"2020/04/03","Jamaica",44,6,3,2," Local transmission ",0
"2020/04/03","El Salvador",41,9,2,1," Local transmission ",0
"2020/04/03","Bahamas",21,6,1,1," Local transmission ",0
"2020/04/03","Guyana",19,0,4,2," Local transmission ",1
"2020/04/03","Haiti",16,0,0,0," Imported cases only ",1
"2020/04/03","Saint Lucia",13,0,0,0," Local transmission ",1
"2020/04/03","Dominica",11,0,0,0," Local transmission ",7
"2020/04/03","Grenada",10,1,0,0," Local transmission ",0
"2020/04/03","Saint Kitts and Nevis",8,0,0,0," Imported cases only ",2
"2020/04/03","Suriname",8,0,0,0," Imported cases only ",6
"2020/04/03","Antigua and Barbuda",7,0,0,0," Imported cases only ",6
"2020/04/03","Nicaragua",5,0,1,0," Imported cases only ",1
"2020/04/03","Belize",3,0,0,0," Local transmission ",3
"2020/04/03","Saint Vincent and the Grenadines",2,1,0,0," Imported cases only ",0
"2020/04/03","Puerto Rico",316,30,12,1," Local transmission ",0
"2020/04/03","Martinique",131,3,3,0," Local transmission ",0
"2020/04/03","Guadeloupe",128,3,6,0," Local transmission ",0
"2020/04/03","Aruba",60,5,0,0," Local transmission ",0
"2020/04/03","French Guiana",55,4,0,0," Local transmission ",0
"2020/04/03","United States Virgin Islands",33,3,0,0," Local transmission ",0
"2020/04/03","Bermuda",32,0,0,0," Local transmission ",1
"2020/04/03","Cayman Islands",22,8,1,0," Local transmission ",0
"2020/04/03","Saint Martin",22,1,2,0," Under investigation ",0
"2020/04/03","Sint Maarten",18,12,1,1," Imported cases only ",0
"2020/04/03","Curaçao",11,0,1,0," Imported cases only ",3
"2020/04/03","Saint Barthélemy",6,0,0,0," Under investigation ",3
"2020/04/03","Montserrat",5,0,0,0," Imported cases only ",6
"2020/04/03","Turks and Caicos Islands",5,0,0,0," Local transmission ",3
"2020/04/03","British Virgin Islands",3,0,0,0," Imported cases only ",2
"2020/04/03","Anguilla",2,0,0,0," Local transmission ",7
"2020/04/03","South Africa",1462,82,5,0," Local transmission ",0
"2020/04/03","Algeria",986,139,83,25," Local transmission ",0
"2020/04/03","Burkina Faso",261,0,14,0," Local transmission ",2
"2020/04/03","Cameroon",246,107,7,1," Local transmission ",0
"2020/04/03","Ghana",204,9,5,0," Local transmission ",0
"2020/04/03","Senegal",195,5,1,0," Local transmission ",0
"2020/04/03","Côte d’Ivoire",190,0,1,1," Local transmission ",1
"2020/04/03","Nigeria",174,35,2,0," Local transmission ",0
"2020/04/03","Mauritius",169,15,7,2," Local transmission ",0
"2020/04/03","Democratic Republic of the Congo",134,11,13,2," Local transmission ",0
"2020/04/03","Kenya",110,29,3,2," Local transmission ",0
"2020/04/03","Rwanda",84,2,0,0," Local transmission ",0
"2020/04/03","Niger",74,0,5,0," Local transmission ",1
"2020/04/03","Madagascar",65,12,0,0," Local transmission ",0
"2020/04/03","Guinea",52,22,0,0," Local transmission ",0
"2020/04/03","Uganda",44,0,0,0," Local transmission ",1
"2020/04/03","Congo",41,19,2,0," Local transmission ",0
"2020/04/03","Togo",39,3,2,0," Local transmission ",0
"2020/04/03","Zambia",39,3,1,1," Local transmission ",0
"2020/04/03","Ethiopia",31,5,0,0," Local transmission ",0
"2020/04/03","Mali",28,0,3,3," Local transmission ",1
"2020/04/03","Eritrea",20,5,0,0," Imported cases only ",0
"2020/04/03","United Republic of Tanzania",20,0,1,0," Local transmission ",1
"2020/04/03","Gabon",18,11,1,0," Imported cases only ",0
"2020/04/03","Equatorial Guinea",15,1,0,0," Local transmission ",0
"2020/04/03","Benin",13,0,0,0," Imported cases only ",1
"2020/04/03","Namibia",13,2,0,0," Local transmission ",0
"2020/04/03","Mozambique",10,0,0,0," Local transmission ",1
"2020/04/03","Seychelles",10,0,0,0," Imported cases only ",1
"2020/04/03","Eswatini",9,0,0,0," Imported cases only ",6
"2020/04/03","Guinea-Bissau",9,0,0,0," Imported cases only ",2
"2020/04/03","Angola",8,0,2,0," Imported cases only ",1
"2020/04/03","Central African Republic",8,0,0,0," Imported cases only ",1
"2020/04/03","Zimbabwe",8,0,1,0," Local transmission ",2
"2020/04/03","Chad",7,0,0,0," Imported cases only ",2
"2020/04/03","Liberia",6,0,0,0," Local transmission ",1
"2020/04/03","Cabo Verde",5,0,1,0," Imported cases only ",6
"2020/04/03","Mauritania",5,0,0,0," Imported cases only ",5
"2020/04/03","Botswana",4,1,1,0," Imported cases only ",0
"2020/04/03","Gambia",4,1,1,0," Imported cases only ",0
"2020/04/03","Malawi",3,3,0,0," Local transmission ",0
"2020/04/03","Burundi",2,0,0,0," Imported cases only ",2
"2020/04/03","Sierra Leone",2,0,0,0," Imported cases only ",1
"2020/04/03","Réunion",308,27,0,0," Local transmission ",0
"2020/04/03","Mayotte",128,12,2,0," Local transmission ",0
"2020/04/03","Subtotal for all regions",971591,75853,50310,4822," ",NA
"2020/04/03","International conveyance (Diamond Princess)",712,0,11,0," Local transmission ",18
"2020/04/03","Grand total",972303,75853,50321,4822," ",NA
