"date","place","totconfirmed","totconfirmednew","totdeaths","totdeathsnew","transmissionclass","dayslastrep"
"2020/03/26","China",81961,113,3293,6," Local transmission ",0
"2020/03/26","Republic of Korea",9241,104,131,5," Local transmission ",0
"2020/03/26","Australia",2799,547,11,3," Local transmission ",0
"2020/03/26","Malaysia",1796,172,19,3," Local transmission ",0
"2020/03/26","Japan",1291,98,45,2," Local transmission ",0
"2020/03/26","Philippines",636,84,38,3," Local transmission ",0
"2020/03/26","Singapore",631,73,2,0," Local transmission ",0
"2020/03/26","New Zealand",262,73,0,0," Local transmission ",0
"2020/03/26","Viet Nam",141,7,0,0," Local transmission ",0
"2020/03/26","Brunei Darussalam",109,5,0,0," Local transmission ",0
"2020/03/26","Cambodia",96,5,0,0," Local transmission ",0
"2020/03/26","Mongolia",10,0,0,0," Imported cases only ",4
"2020/03/26","Fiji",5,1,0,0," Local transmission ",0
"2020/03/26","Lao People's Democratic Republic",3,1,0,0," Under investigation ",0
"2020/03/26","Papua New Guinea",1,0,0,0," Imported cases only ",5
"2020/03/26","Guam",37,5,1,0," Local transmission ",0
"2020/03/26","French Polynesia",25,0,0,0," Local transmission ",1
"2020/03/26","New Caledonia",14,4,0,0," Local transmission ",0
"2020/03/26","Italy",74386,5210,7505,685," Local transmission ",0
"2020/03/26","Spain",47610,7937,3434,738," Local transmission ",0
"2020/03/26","Germany",36508,4954,198,49," Local transmission ",0
"2020/03/26","France",24920,2895,1331,231," Local transmission ",0
"2020/03/26","Switzerland",9714,925,103,17," Local transmission ",0
"2020/03/26","The United Kingdom",9533,1452,463,41," Local transmission ",0
"2020/03/26","Netherlands",6412,852,356,80," Local transmission ",0
"2020/03/26","Austria",5888,606,34,4," Local transmission ",0
"2020/03/26","Belgium",4937,668,178,56," Local transmission ",0
"2020/03/26","Portugal",2995,633,43,10," Local transmission ",0
"2020/03/26","Norway",2916,350,12,2," Local transmission ",0
"2020/03/26","Sweden",2510,238,42,6," Local transmission ",0
"2020/03/26","Turkey",2433,561,59,15," Local transmission ",0
"2020/03/26","Israel",2369,199,5,0," Local transmission ",0
"2020/03/26","Denmark",1724,133,34,2," Local transmission ",0
"2020/03/26","Czechia",1654,260,6,3," Local transmission ",0
"2020/03/26","Ireland",1564,235,9,2," Local transmission ",0
"2020/03/26","Luxembourg",1333,234,8,0," Local transmission ",0
"2020/03/26","Poland",1051,150,14,4," Local transmission ",0
"2020/03/26","Romania",906,144,13,2," Local transmission ",0
"2020/03/26","Finland",880,88,3,2," Local transmission ",0
"2020/03/26","Russian Federation",840,182,2,2," Local transmission ",0
"2020/03/26","Greece",821,78,22,2," Local transmission ",0
"2020/03/26","Iceland",737,89,2,0," Local transmission ",0
"2020/03/26","Slovenia",528,48,4,1," Local transmission ",0
"2020/03/26","Croatia",418,36,1,0," Local transmission ",0
"2020/03/26","Estonia",404,35,1,1," Local transmission ",0
"2020/03/26","Serbia",384,81,4,1," Local transmission ",0
"2020/03/26","Armenia",290,25,0,0," Local transmission ",0
"2020/03/26","Lithuania",274,65,4,2," Local transmission ",0
"2020/03/26","Hungary",261,35,10,0," Local transmission ",0
"2020/03/26","Bulgaria",242,22,3,0," Local transmission ",0
"2020/03/26","Latvia",221,24,0,0," Local transmission ",0
"2020/03/26","Slovakia",216,12,0,0," Local transmission ",0
"2020/03/26","Andorra",213,25,3,2," Local transmission ",0
"2020/03/26","San Marino",208,21,21,0," Local transmission ",0
"2020/03/26","North Macedonia",177,29,2,0," Local transmission ",0
"2020/03/26","Albania",174,28,5,0," Local transmission ",0
"2020/03/26","Bosnia and Herzegovina",173,9,3,1," Local transmission ",0
"2020/03/26","Ukraine",156,43,5,1," Local transmission ",0
"2020/03/26","Republic of Moldova",149,24,1,0," Local transmission ",0
"2020/03/26","Cyprus",132,8,3,0," Local transmission ",0
"2020/03/26","Malta",129,9,0,0," Local transmission ",0
"2020/03/26","Kazakhstan",97,18,0,0," Imported cases only ",0
"2020/03/26","Azerbaijan",93,6,2,1," Local transmission ",0
"2020/03/26","Belarus",86,5,0,0," Local transmission ",0
"2020/03/26","Georgia",77,4,0,0," Local transmission ",0
"2020/03/26","Uzbekistan",65,15,0,0," Local transmission ",0
"2020/03/26","Montenegro",52,23,1,1," Imported cases only ",0
"2020/03/26","Liechtenstein",51,4,0,0," Imported cases only ",0
"2020/03/26","Kyrgyzstan",44,2,0,0," Local transmission ",0
"2020/03/26","Monaco",23,0,0,0," Local transmission ",3
"2020/03/26","Holy See",4,3,0,0," Under investigation ",0
"2020/03/26","Faroe Islands",132,10,0,0," Local transmission ",0
"2020/03/26","Kosovo",71,8,1,0," Local transmission ",0
"2020/03/26","Guernsey",30,7,0,0," Local transmission ",0
"2020/03/26","Gibraltar",26,11,0,0," Local transmission ",0
"2020/03/26","Isle of Man",23,0,0,0," Imported cases only ",1
"2020/03/26","Jersey",18,2,0,0," Local transmission ",0
"2020/03/26","Greenland",5,1,0,0," Under investigation ",0
"2020/03/26","Thailand",934,0,4,0," Local transmission ",1
"2020/03/26","Indonesia",790,104,58,3," Local transmission ",0
"2020/03/26","India",649,87,13,4," Local transmission ",0
"2020/03/26","Sri Lanka",102,0,0,0," Local transmission ",1
"2020/03/26","Bangladesh",39,0,4,0," Local transmission ",1
"2020/03/26","Maldives",13,0,0,0," Local transmission ",10
"2020/03/26","Myanmar",3,0,0,0," Imported cases only ",1
"2020/03/26","Nepal",3,1,0,0," Imported cases only ",0
"2020/03/26","Bhutan",2,0,0,0," Imported cases only ",6
"2020/03/26","Timor-Leste",1,0,0,0," Imported cases only ",5
"2020/03/26","Iran (Islamic Republic of)",27017,2206,2077,143," Local transmission ",0
"2020/03/26","Pakistan",1057,66,8,1," Local transmission ",0
"2020/03/26","Saudi Arabia",900,133,2,1," Local transmission ",0
"2020/03/26","Qatar",537,11,0,0," Local transmission ",0
"2020/03/26","Egypt",456,54,21,1," Local transmission ",0
"2020/03/26","Bahrain",419,27,4,1," Local transmission ",0
"2020/03/26","Iraq",346,30,29,2," Local transmission ",0
"2020/03/26","Lebanon",333,29,4,0," Local transmission ",0
"2020/03/26","United Arab Emirates",333,85,2,0," Local transmission ",0
"2020/03/26","Morocco",225,55,6,1," Local transmission ",0
"2020/03/26","Kuwait",208,13,0,0," Local transmission ",0
"2020/03/26","Tunisia",173,59,5,2," Local transmission ",0
"2020/03/26","Jordan",172,19,0,0," Local transmission ",0
"2020/03/26","Oman",99,0,0,0," Local transmission ",1
"2020/03/26","Afghanistan",80,6,2,1," Local transmission ",0
"2020/03/26","Djibouti",12,9,0,0," Local transmission ",0
"2020/03/26","Syrian Arab Republic",5,4,0,0," Imported cases only ",0
"2020/03/26","Sudan",3,0,1,0," Imported cases only ",1
"2020/03/26","Somalia",2,1,0,0," Imported cases only ",0
"2020/03/26","Libya",1,0,0,0," Imported cases only ",1
"2020/03/26","occupied Palestinian territory",64,4,1,1," Local transmission ",0
"2020/03/26","United States of America",63570,11656,884,211," Local transmission ",0
"2020/03/26","Canada",3409,1670,35,10," Local transmission ",0
"2020/03/26","Brazil",2433,232,57,11," Local transmission ",0
"2020/03/26","Ecuador",1211,162,29,2," Local transmission ",0
"2020/03/26","Chile",1142,220,3,1," Local transmission ",0
"2020/03/26","Panama",558,213,8,2," Local transmission ",0
"2020/03/26","Peru",480,64,9,4," Local transmission ",0
"2020/03/26","Mexico",478,108,5,1," Local transmission ",0
"2020/03/26","Colombia",470,164,4,1," Local transmission ",0
"2020/03/26","Dominican Republic",392,80,10,4," Local transmission ",0
"2020/03/26","Argentina",387,86,6,2," Local transmission ",0
"2020/03/26","Uruguay",217,55,0,0," Imported cases only ",0
"2020/03/26","Costa Rica",201,24,2,0," Local transmission ",0
"2020/03/26","Venezuela (Bolivarian Republic of)",91,14,0,0," Local transmission ",0
"2020/03/26","Trinidad and Tobago",60,3,1,1," Local transmission ",0
"2020/03/26","Cuba",57,9,1,0," Local transmission ",0
"2020/03/26","Honduras",52,22,0,0," Local transmission ",0
"2020/03/26","Paraguay",41,14,3,1," Local transmission ",0
"2020/03/26","Bolivia (Plurinational State of)",39,11,0,0," Local transmission ",0
"2020/03/26","Jamaica",26,5,1,0," Local transmission ",0
"2020/03/26","Guatemala",24,3,1,0," Local transmission ",0
"2020/03/26","Barbados",18,0,0,0," Local transmission ",1
"2020/03/26","El Salvador",13,8,0,0," Imported cases only ",0
"2020/03/26","Haiti",8,1,0,0," Imported cases only ",0
"2020/03/26","Dominica",7,5,0,0," Local transmission ",0
"2020/03/26","Suriname",7,1,0,0," Imported cases only ",0
"2020/03/26","Bahamas",5,1,0,0," Local transmission ",0
"2020/03/26","Guyana",5,0,1,0," Local transmission ",7
"2020/03/26","Antigua and Barbuda",3,0,0,0," Imported cases only ",1
"2020/03/26","Saint Lucia",3,0,0,0," Imported cases only ",2
"2020/03/26","Belize",2,1,0,0," Local transmission ",0
"2020/03/26","Nicaragua",2,0,0,0," Imported cases only ",4
"2020/03/26","Saint Kitts and Nevis",2,2,0,0," Imported cases only ",0
"2020/03/26","Grenada",1,0,0,0," Imported cases only ",3
"2020/03/26","Saint Vincent and the Grenadines",1,0,0,0," Imported cases only ",13
"2020/03/26","Guadeloupe",76,3,0,0," Imported cases only ",0
"2020/03/26","Martinique",66,9,1,1," Imported cases only ",0
"2020/03/26","Puerto Rico",51,12,2,0," Imported cases only ",0
"2020/03/26","French Guiana",28,5,0,0," Local transmission ",0
"2020/03/26","Aruba",19,7,0,0," Local transmission ",0
"2020/03/26","United States Virgin Islands",17,0,0,0," Imported cases only ",2
"2020/03/26","Saint Martin",11,3,0,0," Under investigation ",0
"2020/03/26","Cayman Islands",8,3,1,0," Imported cases only ",0
"2020/03/26","Bermuda",7,1,0,0," Local transmission ",0
"2020/03/26","Curaçao",6,0,1,0," Imported cases only ",1
"2020/03/26","Saint Barthélemy",3,0,0,0," Under investigation ",10
"2020/03/26","Montserrat",2,1,0,0," Imported cases only ",0
"2020/03/26","Sint Maarten",2,0,0,0," Imported cases only ",2
"2020/03/26","Turks and Caicos Islands",1,0,0,0," Imported cases only ",2
"2020/03/26","South Africa",709,155,0,0," Local transmission ",0
"2020/03/26","Algeria",264,0,17,0," Local transmission ",1
"2020/03/26","Burkina Faso",146,32,3,0," Local transmission ",0
"2020/03/26","Senegal",99,13,0,0," Local transmission ",0
"2020/03/26","Côte d’Ivoire",80,8,0,0," Imported cases only ",0
"2020/03/26","Cameroon",70,0,1,0," Local transmission ",2
"2020/03/26","Ghana",68,15,2,0," Local transmission ",0
"2020/03/26","Democratic Republic of the Congo",51,6,3,1," Local transmission ",0
"2020/03/26","Mauritius",47,5,2,0," Imported cases only ",0
"2020/03/26","Nigeria",46,4,1,1," Local transmission ",0
"2020/03/26","Rwanda",41,1,0,0," Local transmission ",0
"2020/03/26","Kenya",25,0,0,0," Local transmission ",1
"2020/03/26","Togo",23,3,0,0," Imported cases only ",0
"2020/03/26","Madagascar",19,0,0,0," Imported cases only ",1
"2020/03/26","Uganda",14,5,0,0," Imported cases only ",0
"2020/03/26","United Republic of Tanzania",13,1,0,0," Imported cases only ",0
"2020/03/26","Ethiopia",12,0,0,0," Imported cases only ",1
"2020/03/26","Seychelles",7,0,0,0," Imported cases only ",4
"2020/03/26","Equatorial Guinea",6,0,0,0," Imported cases only ",4
"2020/03/26","Gabon",6,0,1,0," Imported cases only ",3
"2020/03/26","Benin",5,0,0,0," Imported cases only ",2
"2020/03/26","Central African Republic",5,1,0,0," Imported cases only ",0
"2020/03/26","Mozambique",5,2,0,0," Local transmission ",0
"2020/03/26","Namibia",5,1,0,0," Imported cases only ",0
"2020/03/26","Congo",4,0,0,0," Imported cases only ",4
"2020/03/26","Eritrea",4,3,0,0," Imported cases only ",0
"2020/03/26","Eswatini",4,0,0,0," Imported cases only ",3
"2020/03/26","Guinea",4,0,0,0," Imported cases only ",2
"2020/03/26","Cabo Verde",3,0,0,0," Imported cases only ",4
"2020/03/26","Chad",3,0,0,0," Imported cases only ",2
"2020/03/26","Liberia",3,0,0,0," Local transmission ",4
"2020/03/26","Zambia",3,0,0,0," Imported cases only ",3
"2020/03/26","Angola",2,0,0,0," Imported cases only ",4
"2020/03/26","Gambia",2,0,0,0," Imported cases only ",1
"2020/03/26","Guinea-Bissau",2,2,0,0," Imported cases only ",0
"2020/03/26","Mali",2,2,0,0," Imported cases only ",0
"2020/03/26","Mauritania",2,0,0,0," Imported cases only ",7
"2020/03/26","Niger",2,0,0,0," Imported cases only ",2
"2020/03/26","Zimbabwe",2,0,1,0," Imported cases only ",4
"2020/03/26","Réunion",94,11,0,0," Local transmission ",0
"2020/03/26","Mayotte",35,5,0,0," Local transmission ",0
"2020/03/26","Subtotal for all regions",461972,49219,20827,2401," ",NA
"2020/03/26","International conveyance (Diamond Princess)",712,0,7,0," Local transmission ",10
"2020/03/26","Grand total",462684,49219,20834,2401," ",NA
