"date","place","totconfirmed","totconfirmednew","totdeaths","totdeathsnew","transmissionclass","dayslastrep"
"2020/05/14","South Africa",12074,724,219,13,"Community transmission",0
"2020/05/14","Algeria",6253,186,522,7,"Community transmission",0
"2020/05/14","Ghana",5408,281,24,2,"Community transmission",0
"2020/05/14","Nigeria",4971,184,164,6,"Community transmission",0
"2020/05/14","Cameroon",2800,111,136,11,"Community transmission",0
"2020/05/14","Guinea",2372,74,14,3,"Community transmission",0
"2020/05/14","Senegal",2105,110,22,3,"Community transmission",0
"2020/05/14","Côte d’Ivoire",1912,55,24,3,"Community transmission",0
"2020/05/14","Democratic Republic of the Congo",1242,73,50,0,"Community transmission",0
"2020/05/14","Gabon",1004,141,9,0,"Community transmission",0
"2020/05/14","Niger",860,6,49,2,"Community transmission",0
"2020/05/14","Guinea-Bissau",836,16,3,0,"Community transmission",0
"2020/05/14","Burkina Faso",773,7,51,0,"Community transmission",0
"2020/05/14","Mali",758,28,44,4,"Community transmission",0
"2020/05/14","Kenya",737,22,40,4,"Community transmission",0
"2020/05/14","Equatorial Guinea",583,61,7,1,"Community transmission",0
"2020/05/14","United Republic of Tanzania",509,0,21,0,"Community transmission",6
"2020/05/14","Zambia",446,5,7,0,"Community transmission",0
"2020/05/14","Sierra Leone",387,49,21,1,"Clusters of cases",0
"2020/05/14","Chad",372,15,42,2,"Community transmission",0
"2020/05/14","Congo",341,8,11,0,"Community transmission",0
"2020/05/14","Mauritius",332,0,10,0,"Clusters of cases",17
"2020/05/14","Benin",327,0,2,0,"Community transmission",1
"2020/05/14","Cabo Verde",289,19,2,0,"Clusters of cases",0
"2020/05/14","Rwanda",287,1,0,0,"Sporadic cases",0
"2020/05/14","Ethiopia",263,2,5,0,"Clusters of cases",0
"2020/05/14","Togo",219,20,11,0,"Community transmission",0
"2020/05/14","Liberia",213,1,20,0,"Community transmission",0
"2020/05/14","Madagascar",212,20,0,0,"Clusters of cases",0
"2020/05/14","South Sudan",194,20,0,0,"Clusters of cases",0
"2020/05/14","Central African Republic",187,8,0,0,"Sporadic cases",0
"2020/05/14","Eswatini",187,3,2,0,"Clusters of cases",0
"2020/05/14","São Tomé and Príncipe",165,0,7,3,"Clusters of cases",4
"2020/05/14","Uganda",139,13,0,0,"Sporadic cases",0
"2020/05/14","Mozambique",107,3,0,0,"Clusters of cases",0
"2020/05/14","Malawi",63,5,3,0,"Clusters of cases",0
"2020/05/14","Angola",45,0,2,0,"Clusters of cases",3
"2020/05/14","Eritrea",39,0,0,0,"Sporadic cases",25
"2020/05/14","Zimbabwe",37,0,4,0,"Sporadic cases",1
"2020/05/14","Burundi",27,0,1,0,"Clusters of cases",1
"2020/05/14","Botswana",24,0,1,0,"Clusters of cases",2
"2020/05/14","Gambia",23,0,1,0,"Sporadic cases",1
"2020/05/14","Namibia",16,0,0,0,"Sporadic cases",38
"2020/05/14","Comoros",11,0,1,0,"Community transmission",4
"2020/05/14","Seychelles",11,0,0,0,"Clusters of cases",37
"2020/05/14","Mauritania",9,1,1,0,"Sporadic cases",0
"2020/05/14","Lesotho",1,1,0,0,"Pending",0
"2020/05/14","ii Mayotte",1143,48,14,2,"Clusters of cases",0
"2020/05/14","Réunion",439,2,0,0,"Clusters of cases",0
"2020/05/14","United States of America",1340098,18044,80695,1061,"Community transmission",0
"2020/05/14","Brazil",177589,9258,12400,881,"Community transmission",0
"2020/05/14","Peru",72059,3237,2057,96,"Community transmission",0
"2020/05/14","Canada",71486,1144,5209,160,"Community transmission",0
"2020/05/14","Mexico",38324,1997,3926,353,"Community transmission",0
"2020/05/14","Chile",34381,2660,346,11,"Community transmission",0
"2020/05/14","Ecuador",30486,67,2334,7,"Community transmission",0
"2020/05/14","Colombia",12272,659,493,14,"Community transmission",0
"2020/05/14","Dominican Republic",11196,296,409,7,"Community transmission",0
"2020/05/14","Panama",8616,0,249,0,"Community transmission",1
"2020/05/14","Argentina",6563,285,321,4,"Community transmission",0
"2020/05/14","Bolivia (Plurinational State of)",2964,133,128,6,"Clusters of cases",0
"2020/05/14","Honduras",2080,-20,121,5," Community transmission",0
"2020/05/14","Cuba",1810,6,79,1,"Clusters of cases",0
"2020/05/14","Guatemala",1199,85,27,1,"Clusters of cases",0
"2020/05/14","El Salvador",1037,39,20,2,"Clusters of cases",0
"2020/05/14","Costa Rica",804,3,7,0,"Clusters of cases",0
"2020/05/14","Paraguay",740,3,11,1,"Community transmission",0
"2020/05/14","Uruguay",717,6,19,0,"Clusters of cases",0
"2020/05/14","Jamaica",507,2,9,0,"Clusters of cases",0
"2020/05/14","Venezuela (Bolivarian Republic of)",440,18,10,0,"Clusters of cases",0
"2020/05/14","Haiti",219,10,18,2,"Clusters of cases",0
"2020/05/14","Trinidad and Tobago",116,0,8,0,"Sporadic cases",16
"2020/05/14","Guyana",113,4,10,0,"Clusters of cases",0
"2020/05/14","Bahamas",93,0,11,0,"Clusters of cases",1
"2020/05/14","Barbados",85,1,7,0,"Clusters of cases",0
"2020/05/14","Antigua and Barbuda",25,0,3,0,"Clusters of cases",10
"2020/05/14","Nicaragua",25,9,8,3,"Pending",0
"2020/05/14","Grenada",21,0,0,0,"Clusters of cases",10
"2020/05/14","Belize",18,0,2,0,"Sporadic cases",29
"2020/05/14","Saint Lucia",18,0,0,0,"Sporadic cases",9
"2020/05/14","Saint Vincent and the Grenadines",17,0,0,0,"Sporadic cases",9
"2020/05/14","Dominica",16,0,0,0,"Clusters of cases",33
"2020/05/14","Saint Kitts and Nevis",15,0,0,0,"Sporadic cases",23
"2020/05/14","Suriname",10,0,1,0,"Sporadic cases",40
"2020/05/14","Puerto Rico",2329,30,115,1,"Clusters of cases",0
"2020/05/14","Martinique",189,2,14,0,"Clusters of cases",0
"2020/05/14","Guadeloupe",155,0,13,0,"Clusters of cases",1
"2020/05/14","French Guiana",153,7,1,0,"Clusters of cases",0
"2020/05/14","Bermuda",121,2,8,0,"Clusters of cases",0
"2020/05/14","Aruba",101,0,3,0,"Sporadic cases",8
"2020/05/14","Cayman Islands",85,1,1,0,"Clusters of cases",0
"2020/05/14","Sint Maarten",78,1,15,0,"Sporadic cases",0
"2020/05/14","United States Virgin Islands",69,0,6,1,"Clusters of cases",3
"2020/05/14","Saint Martin",39,0,3,0,"Sporadic cases",3
"2020/05/14","Curaçao",16,0,1,0,"Sporadic cases",16
"2020/05/14","Falkland Islands (Malvinas)",13,0,0,0,"Clusters of cases",18
"2020/05/14","Turks and Caicos Islands",12,0,1,0,"Sporadic cases",16
"2020/05/14","Montserrat",11,0,1,0,"Sporadic cases",30
"2020/05/14","British Virgin Islands",7,0,1,0,"Sporadic cases",8
"2020/05/14","Bonaire, Sint Eustatius and Saba",6,0,0,0,"Sporadic cases",16
"2020/05/14","Saint Barthélemy",6,0,0,0,"Sporadic cases",44
"2020/05/14","Anguilla",3,0,0,0,"Sporadic cases",40
"2020/05/14","Saint Pierre and Miquelon",1,0,0,0,"Sporadic cases",36
"2020/05/14","Iran (Islamic Republic of)",112725,1958,6783,50,"Community transmission",0
"2020/05/14","Saudi Arabia",44830,1905,273,9,"Clusters of cases",0
"2020/05/14","Pakistan",35298,1037,761,24,"Clusters of cases",0
"2020/05/14","Qatar",26539,1390,14,0,"Community transmission",0
"2020/05/14","United Arab Emirates",20386,725,206,3,"Pending",0
"2020/05/14","Kuwait",11028,751,82,7,"Clusters of cases",0
"2020/05/14","Egypt",10431,338,556,12,"Clusters of cases",0
"2020/05/14","Morocco",6512,94,188,0,"Clusters of cases",0
"2020/05/14","Bahrain",5816,285,10,1,"Clusters of cases",0
"2020/05/14","Afghanistan",5339,372,136,9,"Clusters of cases",0
"2020/05/14","Oman",4341,322,17,0,"Clusters of cases",0
"2020/05/14","Iraq",3032,119,115,3,"Clusters of cases",0
"2020/05/14","Sudan",1817,157,90,10,"Sporadic cases",0
"2020/05/14","Djibouti",1268,12,3,0,"Clusters of cases",0
"2020/05/14","Somalia",1219,49,52,0,"Sporadic cases",0
"2020/05/14","Tunisia",1032,0,45,0,"Community transmission",4
"2020/05/14","Lebanon",878,8,26,0,"Clusters of cases",0
"2020/05/14","Jordan",582,6,9,0,"Clusters of cases",0
"2020/05/14","Yemen",72,5,13,2,"Pending",0
"2020/05/14","Libya",64,0,3,0,"Clusters of cases",7
"2020/05/14","Syrian Arab Republic",48,1,3,0,"Community transmission",0
"2020/05/14","occupied Palestinian territory",548,1,4,0,"Clusters of cases",0
"2020/05/14","Russian Federation",252245,9974,2305,93,"Clusters of cases",0
"2020/05/14","The United Kingdom",229709,3242,33186,494,"Community transmission",0
"2020/05/14","Spain",228691,661,27104,184,"Community transmission",0
"2020/05/14","Italy",222104,888,31106,195,"Community transmission",0
"2020/05/14","Germany",172239,933,7723,89,"Community transmission",0
"2020/05/14","Turkey",143114,1639,3952,58,"Community transmission",0
"2020/05/14","France",138609,448,27029,81,"Community transmission",0
"2020/05/14","Belgium",53981,202,8843,82,"Community transmission",0
"2020/05/14","Netherlands",43211,227,5562,52,"Community transmission",0
"2020/05/14","Switzerland",30330,33,1563,3,"Community transmission",0
"2020/05/14","Portugal",28132,219,1175,12,"Community transmission",0
"2020/05/14","Sweden",27909,637,3460,147,"Community transmission",0
"2020/05/14","Belarus",25840,0,149,0,"Clusters of cases",1
"2020/05/14","Ireland",23401,159,1497,9,"Community transmission",0
"2020/05/14","Poland",17204,283,861,22,"Community transmission",0
"2020/05/14","Ukraine",16847,422,456,17,"Community transmission",0
"2020/05/14","Israel",16539,0,262,0,"Pending",1
"2020/05/14","Romania",16002,224,1016,14,"Community transmission",0
"2020/05/14","Austria",15964,54,624,1,"Community transmission",0
"2020/05/14","Denmark",10667,76,533,6,"Community transmission",0
"2020/05/14","Serbia",10295,52,222,2,"Pending",0
"2020/05/14","Czechia",8269,48,290,7,"Community transmission",0
"2020/05/14","Norway",8158,23,229,1,"Pending",0
"2020/05/14","Finland",6054,51,284,9,"Pending",0
"2020/05/14","Kazakhstan",5571,154,33,1,"Pending",0
"2020/05/14","Republic of Moldova",5406,252,190,8,"Pending",0
"2020/05/14","Luxembourg",3904,10,103,1,"Pending",0
"2020/05/14","Armenia",3836,118,49,1,"Clusters of cases",0
"2020/05/14","Hungary",3380,39,436,6,"Clusters of cases",0
"2020/05/14","Greece",2760,16,155,3,"Community transmission",0
"2020/05/14","Azerbaijan",2758,65,35,2,"Clusters of cases",0
"2020/05/14","Uzbekistan",2620,22,11,1,"Clusters of cases",0
"2020/05/14","Croatia",2213,6,94,3,"Community transmission",0
"2020/05/14","Bosnia and Herzegovina",2181,19,119,3,"Community transmission",0
"2020/05/14","Bulgaria",2069,46,96,1,"Clusters of cases",0
"2020/05/14","Iceland",1802,1,10,0,"Community transmission",0
"2020/05/14","Estonia",1751,5,61,0,"Pending",0
"2020/05/14","North Macedonia",1694,20,95,3,"Clusters of cases",0
"2020/05/14","Lithuania",1505,14,54,4,"Community transmission",0
"2020/05/14","Slovakia",1469,4,27,0,"Clusters of cases",0
"2020/05/14","Slovenia",1463,2,103,1,"Community transmission",0
"2020/05/14","Kyrgyzstan",1082,38,12,0,"Clusters of cases",0
"2020/05/14","Latvia",951,1,19,1,"Community transmission",0
"2020/05/14","Cyprus",905,2,17,-6,"Clusters of cases",0
"2020/05/14","Albania",880,4,31,0,"Clusters of cases",0
"2020/05/14","Andorra",761,2,49,1,"Community transmission",0
"2020/05/14","Tajikistan",729,0,23,0,"Pending",1
"2020/05/14","Georgia",652,10,11,0,"Community transmission",0
"2020/05/14","San Marino",647,0,41,0,"Community transmission",2
"2020/05/14","Malta",508,5,6,1,"Pending",0
"2020/05/14","Montenegro",324,0,9,0,"Clusters of cases",8
"2020/05/14","Monaco",96,0,1,0,"Sporadic cases",3
"2020/05/14","Liechtenstein",83,0,1,0,"Pending",18
"2020/05/14","Holy See",12,0,0,0,"Sporadic cases",7
"2020/05/14","Kosovo",919,0,29,0,"Community transmission",1
"2020/05/14","Isle of Man",331,1,23,0,"Pending",0
"2020/05/14","Jersey",295,1,26,1,"Pending",0
"2020/05/14","Guernsey",252,0,13,0,"Community transmission",11
"2020/05/14","Faroe Islands",187,0,0,0,"Pending",20
"2020/05/14","Gibraltar",147,0,0,0,"Clusters of cases",1
"2020/05/14","Greenland",11,0,0,0,"Pending",38
"2020/05/14","India",78003,3722,2549,134,"Clusters of cases",0
"2020/05/14","Bangladesh",17822,1162,269,19,"Clusters of cases",0
"2020/05/14","Indonesia",15438,689,1028,21,"Community transmission",0
"2020/05/14","Thailand",3018,1,56,0,"Clusters of cases",0
"2020/05/14","Maldives",955,51,4,1,"Clusters of cases",0
"2020/05/14","Sri Lanka",915,26,9,0,"Clusters of cases",0
"2020/05/14","Nepal",246,29,0,0,"Sporadic cases",0
"2020/05/14","Myanmar",181,1,6,0,"Clusters of cases",0
"2020/05/14","Timor-Leste",24,0,0,0,"Clusters of cases",20
"2020/05/14","Bhutan",15,4,0,0,"Sporadic cases",0
"2020/05/14","China",84464,6,4644,0,"Clusters of cases",0
"2020/05/14","Singapore",25346,675,21,0,"Clusters of cases",0
"2020/05/14","Japan",16079,55,687,19,"Clusters of cases",0
"2020/05/14","Philippines",11618,268,772,21,"Community transmission",0
"2020/05/14","Republic of Korea",10991,29,260,1,"Clusters of cases",0
"2020/05/14","Australia",6975,11,98,1,"Clusters of cases",0
"2020/05/14","Malaysia",6779,37,111,2,"Clusters of cases",0
"2020/05/14","New Zealand",1147,0,21,0,"Clusters of cases",3
"2020/05/14","Viet Nam",288,0,0,0,"Clusters of cases",6
"2020/05/14","Brunei Darussalam",141,0,1,0,"Clusters of cases",6
"2020/05/14","Cambodia",122,0,0,0,"Sporadic cases",32
"2020/05/14","Mongolia",42,0,0,0,"Sporadic cases",5
"2020/05/14","Lao People's Democratic Republic",19,0,0,0,"Sporadic cases",31
"2020/05/14","Fiji",18,0,0,0,"Sporadic cases",23
"2020/05/14","Papua New Guinea",8,0,0,0,"Sporadic cases",21
"2020/05/14","Guam",148,0,5,0,"Clusters of cases",1
"2020/05/14","French Polynesia",60,0,0,0,"Sporadic cases",8
"2020/05/14","Northern Mariana Islands  (Commonwealth of the)",19,0,2,0,"Pending",2
"2020/05/14","New Caledonia",18,0,0,0,"Sporadic cases",41
"2020/05/14","Subtotal for all regions",4247677,77965,292033,4647,"",NA
"2020/05/14","Other*",712,0,13,0,"-",59
"2020/05/14","Grand total",4248389,77965,292046,4647,"",NA
