"date","place","totconfirmed","totconfirmednew","totdeaths","totdeathsnew","transmissionclass","dayslastrep"
"2020/05/08","South Africa",8232,424,161,8,"Community transmission",0
"2020/05/08","Algeria",5182,185,483,7,"Community transmission",0
"2020/05/08","Nigeria",3526,381,107,4,"Community transmission",0
"2020/05/08","Ghana",3091,372,18,0,"Clusters of cases",0
"2020/05/08","Cameroon",2265,0,108,0,"Clusters of cases",2
"2020/05/08","Guinea",1927,71,11,0,"Community transmission",0
"2020/05/08","Côte d’Ivoire",1571,55,20,2,"Clusters of cases",0
"2020/05/08","Senegal",1492,59,13,1,"Clusters of cases",0
"2020/05/08","Democratic Republic of the  Congo",897,100,36,1,"Clusters of cases",0
"2020/05/08","Niger",781,11,42,4,"Clusters of cases",0
"2020/05/08","Burkina Faso",736,7,48,0,"Community transmission",0
"2020/05/08","Mali",650,19,32,0,"Clusters of cases",0
"2020/05/08","Kenya",607,25,29,3,"Clusters of cases",0
"2020/05/08","United Republic of Tanzania",509,29,21,3,"Clusters of cases",0
"2020/05/08","Guinea-Bissau",508,0,2,0,"Sporadic cases",1
"2020/05/08","Gabon",504,107,8,2,"Clusters of cases",0
"2020/05/08","Equatorial Guinea",439,0,4,0,"Clusters of cases",2
"2020/05/08","Mauritius",332,0,10,0,"Community transmission",11
"2020/05/08","Congo",274,10,10,0,"Clusters of cases",0
"2020/05/08","Rwanda",271,3,0,0,"Clusters of cases",0
"2020/05/08","Chad",253,83,27,10,"Sporadic cases",0
"2020/05/08","Sierra Leone",231,6,14,0,"Clusters of cases",0
"2020/05/08","Cabo Verde",218,27,2,0,"Sporadic cases",0
"2020/05/08","Madagascar",193,0,0,0,"Clusters of cases",1
"2020/05/08","Ethiopia",191,29,4,0,"Clusters of cases",0
"2020/05/08","Liberia",189,11,20,0,"Clusters of cases",0
"2020/05/08","São Tomé and Príncipe",165,-9,4,1," Sporadic cases",0
"2020/05/08","Eswatini",153,30,2,0,"Sporadic cases",0
"2020/05/08","Zambia",153,14,4,0,"Sporadic cases",0
"2020/05/08","Benin",140,38,2,0,"Sporadic cases",0
"2020/05/08","Togo",135,7,9,0,"Clusters of cases",0
"2020/05/08","Uganda",101,3,0,0,"Sporadic cases",0
"2020/05/08","Central African Republic",94,0,0,0,"Sporadic cases",3
"2020/05/08","South Sudan",90,32,0,0,"Sporadic cases",0
"2020/05/08","Mozambique",81,0,0,0,"Sporadic cases",1
"2020/05/08","Malawi",43,0,3,0,"Sporadic cases",1
"2020/05/08","Eritrea",39,0,0,0,"Sporadic cases",19
"2020/05/08","Angola",36,0,2,0,"Sporadic cases",2
"2020/05/08","Zimbabwe",34,0,4,0,"Sporadic cases",6
"2020/05/08","Botswana",23,0,1,0,"Sporadic cases",9
"2020/05/08","Burundi",19,0,1,0,"Sporadic cases",5
"2020/05/08","Gambia",18,1,1,0,"Sporadic cases",0
"2020/05/08","Namibia",16,0,0,0,"Sporadic cases",32
"2020/05/08","Seychelles",11,0,0,0,"Sporadic cases",31
"2020/05/08","Comoros",8,0,1,0,"Pending",1
"2020/05/08","Mauritania",8,0,1,0,"Sporadic cases",7
"2020/05/08","ii Mayotte",854,115,10,1,"Clusters of cases",0
"2020/05/08","Réunion",427,2,0,0,"Clusters of cases",0
"2020/05/08","United States of America",1215571,22119,67146,1949,"Community transmission",0
"2020/05/08","Brazil",125218,10503,8536,615,"Community transmission",0
"2020/05/08","Canada",63895,1437,4280,169,"Community transmission",0
"2020/05/08","Peru",54817,3628,1533,89,"Community transmission",0
"2020/05/08","Ecuador",30298,878,1654,36,"Community transmission",0
"2020/05/08","Mexico",27634,1609,2704,197,"Community transmission",0
"2020/05/08","Chile",24581,1533,285,4,"Community transmission",0
"2020/05/08","Dominican Republic",9095,288,373,11,"Community transmission",0
"2020/05/08","Colombia",8959,346,397,19,"Community transmission",0
"2020/05/08","Panama",7731,208,218,8,"Community transmission",0
"2020/05/08","Argentina",5305,229,275,11,"Community transmission",0
"2020/05/08","Bolivia (Plurinational State of)",1886,84,91,5,"Clusters of cases",0
"2020/05/08","Cuba",1729,26,73,4,"Clusters of cases",0
"2020/05/08","Honduras",1461,191,99,6,"Community transmission",0
"2020/05/08","Guatemala",798,35,21,2,"Clusters of cases",0
"2020/05/08","Costa Rica",761,6,6,0,"Clusters of cases",0
"2020/05/08","El Salvador",695,62,15,1,"Clusters of cases",0
"2020/05/08","Uruguay",673,3,17,0,"Clusters of cases",0
"2020/05/08","Jamaica",478,5,9,0,"Clusters of cases",0
"2020/05/08","Paraguay",462,22,10,0,"Community transmission",0
"2020/05/08","Venezuela (Bolivarian Republic of)",379,12,10,0,"Clusters of cases",0
"2020/05/08","Trinidad and Tobago",116,0,8,0,"Sporadic cases",10
"2020/05/08","Haiti",108,7,12,0,"Clusters of cases",0
"2020/05/08","Guyana",93,0,10,0,"Clusters of cases",1
"2020/05/08","Bahamas",92,3,11,0,"Clusters of cases",0
"2020/05/08","Barbados",82,0,7,0,"Clusters of cases",3
"2020/05/08","Antigua and Barbuda",25,0,3,0,"Clusters of cases",4
"2020/05/08","Grenada",21,0,0,0,"Clusters of cases",4
"2020/05/08","Belize",18,0,2,0,"Sporadic cases",23
"2020/05/08","Saint Lucia",18,0,0,0,"Sporadic cases",3
"2020/05/08","Saint Vincent and the Grenadines",17,0,0,0,"Sporadic cases",3
"2020/05/08","Dominica",16,0,0,0,"Clusters of cases",27
"2020/05/08","Nicaragua",16,0,5,0,"Pending",1
"2020/05/08","Saint Kitts and Nevis",15,0,0,0,"Sporadic cases",17
"2020/05/08","Suriname",10,0,1,0,"Sporadic cases",34
"2020/05/08","Puerto Rico",2031,63,56,0,"Clusters of cases",0
"2020/05/08","Martinique",182,0,14,0,"Clusters of cases",1
"2020/05/08","Guadeloupe",153,0,13,0,"Clusters of cases",1
"2020/05/08","French Guiana",138,0,1,0,"Clusters of cases",1
"2020/05/08","Bermuda",118,3,7,0,"Clusters of cases",0
"2020/05/08","Aruba",101,0,2,0,"Clusters of cases",2
"2020/05/08","Cayman Islands",78,0,1,0,"Clusters of cases",1
"2020/05/08","Sint Maarten",76,0,14,0,"Clusters of cases",7
"2020/05/08","United States Virgin Islands",66,0,4,0,"Clusters of cases",7
"2020/05/08","Saint Martin",38,0,3,0,"Sporadic cases",15
"2020/05/08","Curaçao",16,0,1,0,"Sporadic cases",10
"2020/05/08","Falkland Islands (Malvinas)",13,0,0,0,"Clusters of cases",12
"2020/05/08","Turks and Caicos Islands",12,0,1,0,"Sporadic cases",10
"2020/05/08","Montserrat",11,0,1,0,"Sporadic cases",24
"2020/05/08","British Virgin Islands",7,0,1,0,"Sporadic cases",2
"2020/05/08","Bonaire Sint Eustatius and Saba",6,0,0,0,"Sporadic cases",10
"2020/05/08","Saint Barthélemy",6,0,0,0,"Sporadic cases",38
"2020/05/08","Anguilla",3,0,0,0,"Sporadic cases",34
"2020/05/08","Saint Pierre and Miquelon",1,0,0,0,"Sporadic cases",30
"2020/05/08","Iran (Islamic Republic of)",103135,1485,6486,68,"Community transmission",0
"2020/05/08","Saudi Arabia",33731,1793,219,10,"Clusters of cases",0
"2020/05/08","Pakistan",25837,1764,594,30,"Clusters of cases",0
"2020/05/08","Qatar",18890,918,12,0,"Community transmission",0
"2020/05/08","United Arab Emirates",16240,502,165,8,"Pending",0
"2020/05/08","Egypt",7981,393,482,13,"Clusters of cases",0
"2020/05/08","Kuwait",6567,278,44,2,"Clusters of cases",0
"2020/05/08","Morocco",5548,140,183,0,"Clusters of cases",0
"2020/05/08","Bahrain",4199,265,8,0,"Clusters of cases",0
"2020/05/08","Afghanistan",3563,171,105,1,"Clusters of cases",0
"2020/05/08","Oman",3112,154,15,2,"Clusters of cases",0
"2020/05/08","Iraq",2543,63,102,0,"Clusters of cases",0
"2020/05/08","Djibouti",1133,9,3,0,"Clusters of cases",0
"2020/05/08","Tunisia",1026,1,44,1,"Community transmission",0
"2020/05/08","Sudan",930,78,52,3,"Sporadic cases",0
"2020/05/08","Somalia",928,55,44,5,"Sporadic cases",0
"2020/05/08","Lebanon",784,34,25,0,"Clusters of cases",0
"2020/05/08","Jordan",494,21,9,0,"Clusters of cases",0
"2020/05/08","Libya",64,0,3,0,"Clusters of cases",1
"2020/05/08","Syrian Arab Republic",45,0,3,0,"Community transmission",1
"2020/05/08","Yemen",26,0,6,0,"Pending",1
"2020/05/08","occupied Palestinian territory",547,1,4,0,"Clusters of cases",0
"2020/05/08","Spain",221447,1122,26070,213,"Community transmission",0
"2020/05/08","Italy",215858,1401,29958,274,"Community transmission",0
"2020/05/08","The United Kingdom",206719,5514,30615,539,"Community transmission",0
"2020/05/08","Russian Federation",187859,10699,1723,98,"Clusters of cases",0
"2020/05/08","Germany",167300,1209,7266,147,"Community transmission",0
"2020/05/08","France",135980,512,25946,177,"Community transmission",0
"2020/05/08","Turkey",133721,1977,3641,57,"Community transmission",0
"2020/05/08","Belgium",51420,639,8415,76,"Community transmission",0
"2020/05/08","Netherlands",41774,455,5288,84,"Community transmission",0
"2020/05/08","Switzerland",30043,66,1517,13,"Community transmission",0
"2020/05/08","Portugal",26715,533,1105,16,"Community transmission",0
"2020/05/08","Sweden",24623,705,3040,99,"Community transmission",0
"2020/05/08","Ireland",22385,137,1403,28,"Community transmission",0
"2020/05/08","Belarus",20168,913,116,4,"Clusters of cases",0
"2020/05/08","Israel",16346,32,239,1,"Pending",0
"2020/05/08","Austria",15673,22,609,1,"Community transmission",0
"2020/05/08","Poland",15047,307,755,22,"Community transmission",0
"2020/05/08","Romania",14499,392,876,18,"Community transmission",0
"2020/05/08","Ukraine",14195,504,361,21,"Community transmission",0
"2020/05/08","Denmark",10083,100,514,8,"Pending",0
"2020/05/08","Serbia",9848,57,206,3,"Pending",0
"2020/05/08","Czechia",8031,57,270,8,"Community transmission",0
"2020/05/08","Norway",7995,42,209,0,"Pending",0
"2020/05/08","Finland",5673,100,255,3,"Pending",0
"2020/05/08","Republic of Moldova",4605,129,145,2,"Pending",0
"2020/05/08","Kazakhstan",4578,69,30,0,"Pending",0
"2020/05/08","Luxembourg",3859,8,100,2,"Pending",0
"2020/05/08","Hungary",3178,28,392,9,"Clusters of cases",0
"2020/05/08","Armenia",3029,145,43,1,"Clusters of cases",0
"2020/05/08","Greece",2678,15,148,1,"Community transmission",0
"2020/05/08","Uzbekistan",2314,48,10,0,"Clusters of cases",0
"2020/05/08","Azerbaijan",2204,77,28,0,"Clusters of cases",0
"2020/05/08","Croatia",2125,6,86,1,"Community transmission",0
"2020/05/08","Bosnia and Herzegovina",2027,10,89,2,"Community transmission",0
"2020/05/08","Bulgaria",1829,51,84,0,"Clusters of cases",0
"2020/05/08","Iceland",1801,2,10,0,"Community transmission",0
"2020/05/08","Estonia",1720,7,56,1,"Pending",0
"2020/05/08","North Macedonia",1572,33,89,1,"Clusters of cases",0
"2020/05/08","Slovenia",1449,1,99,0,"Community transmission",0
"2020/05/08","Slovakia",1445,16,26,1,"Clusters of cases",0
"2020/05/08","Lithuania",1433,5,49,1,"Community transmission",0
"2020/05/08","Latvia",909,9,18,1,"Community transmission",0
"2020/05/08","Kyrgyzstan",906,11,12,0,"Clusters of cases",0
"2020/05/08","Cyprus",889,6,21,0,"Clusters of cases",0
"2020/05/08","Albania",850,18,31,0,"Clusters of cases",0
"2020/05/08","Andorra",752,0,47,0,"Community transmission",1
"2020/05/08","San Marino",632,24,41,0,"Community transmission",0
"2020/05/08","Georgia",623,9,9,0,"Community transmission",0
"2020/05/08","Malta",486,2,5,0,"Pending",0
"2020/05/08","Tajikistan",461,82,16,7,"Pending",0
"2020/05/08","Montenegro",324,0,8,0,"Clusters of cases",2
"2020/05/08","Monaco",95,0,1,0,"Sporadic cases",4
"2020/05/08","Liechtenstein",83,0,1,0,"Pending",12
"2020/05/08","Holy See",12,0,0,0,"Sporadic cases",1
"2020/05/08","Kosovo",861,1,27,0,"Community transmission",0
"2020/05/08","Isle of Man",327,1,23,0,"Pending",0
"2020/05/08","Jersey",293,0,25,1,"Pending",2
"2020/05/08","Guernsey",252,0,13,0,"Community transmission",5
"2020/05/08","Faroe Islands",187,0,0,0,"Pending",14
"2020/05/08","Gibraltar",144,0,0,0,"Clusters of cases",6
"2020/05/08","Greenland",11,0,0,0,"Pending",32
"2020/05/08","India",56342,3390,1886,103,"Clusters of cases",0
"2020/05/08","Indonesia",12776,338,930,35,"Community transmission",0
"2020/05/08","Bangladesh",12425,706,186,0,"Clusters of cases",0
"2020/05/08","Thailand",3000,8,55,0,"Clusters of cases",0
"2020/05/08","Sri Lanka",797,0,9,0,"Clusters of cases",1
"2020/05/08","Maldives",648,30,3,1,"Clusters of cases",0
"2020/05/08","Myanmar",176,14,6,0,"Clusters of cases",0
"2020/05/08","Nepal",99,0,0,0,"Sporadic cases",1
"2020/05/08","Timor-Leste",24,0,0,0,"Clusters of cases",14
"2020/05/08","Bhutan",7,0,0,0,"Sporadic cases",15
"2020/05/08","China",84415,6,4643,0,"Clusters of cases",0
"2020/05/08","Singapore",20939,741,20,0,"Clusters of cases",0
"2020/05/08","Japan",15547,84,557,6,"Clusters of cases",0
"2020/05/08","Republic of Korea",10822,12,256,0,"Clusters of cases",0
"2020/05/08","Philippines",10343,339,685,27,"Clusters of cases",0
"2020/05/08","Australia",6896,21,97,0,"Clusters of cases",0
"2020/05/08","Malaysia",6467,39,107,0,"Clusters of cases",0
"2020/05/08","New Zealand",1141,2,21,0,"Clusters of cases",0
"2020/05/08","Viet Nam",288,17,0,0,"Clusters of cases",0
"2020/05/08","Brunei Darussalam",141,2,1,0,"Sporadic cases",0
"2020/05/08","Cambodia",122,0,0,0,"Sporadic cases",26
"2020/05/08","Mongolia",41,0,0,0,"Sporadic cases",2
"2020/05/08","Lao People's Democratic  Republic",19,0,0,0,"Sporadic cases",25
"2020/05/08","Fiji",18,0,0,0,"Sporadic cases",17
"2020/05/08","Papua New Guinea",8,0,0,0,"Sporadic cases",15
"2020/05/08","Guam",147,0,5,0,"Clusters of cases",1
"2020/05/08","French Polynesia",60,0,0,0,"Sporadic cases",2
"2020/05/08","New Caledonia",18,0,0,0,"Sporadic cases",35
"2020/05/08","Northern Mariana Islands  (Commonwealth of the)",15,0,2,0,"Pending",1
"2020/05/08","Subtotal for all regions",3759255,87729,259461,5429," ",NA
"2020/05/08","Other*",712,0,13,0,"-",53
"2020/05/08","Grand total",3759967,87729,259474,5429," ",NA
