"date","place","totconfirmed","totconfirmednew","totdeaths","totdeathsnew","transmissionclass","dayslastrep"
"2020/05/04","South Africa",6783,447,131,8,"Community transmission",0
"2020/05/04","Algeria",4474,179,463,4,"Community transmission",0
"2020/05/04","Nigeria",2388,0,85,0,"Community transmission",1
"2020/05/04","Ghana",2169,0,18,0,"Clusters of cases",1
"2020/05/04","Cameroon",2077,0,64,0,"Clusters of cases",1
"2020/05/04","Guinea",1650,64,7,0,"Community transmission",0
"2020/05/04","Côte d’Ivoire",1398,36,17,2,"Clusters of cases",0
"2020/05/04","Senegal",1273,158,9,0,"Clusters of cases",0
"2020/05/04","Niger",750,14,36,1,"Clusters of cases",0
"2020/05/04","Democratic Republic of the  Congo",682,8,34,1,"Clusters of cases",0
"2020/05/04","Burkina Faso",662,10,45,1,"Community transmission",0
"2020/05/04","Mali",563,19,27,1,"Clusters of cases",0
"2020/05/04","United Republic of Tanzania",480,0,18,0,"Clusters of cases",4
"2020/05/04","Kenya",466,31,24,2,"Clusters of cases",0
"2020/05/04","Gabon",335,0,5,0,"Clusters of cases",1
"2020/05/04","Mauritius",332,0,10,0,"Community transmission",7
"2020/05/04","Equatorial Guinea",315,0,2,0,"Clusters of cases",5
"2020/05/04","Guinea-Bissau",292,32,2,1,"Sporadic cases",0
"2020/05/04","Rwanda",259,4,0,0,"Clusters of cases",0
"2020/05/04","Congo",229,0,10,0,"Clusters of cases",2
"2020/05/04","Cabo Verde",165,13,2,0,"Sporadic cases",0
"2020/05/04","Liberia",158,4,18,0,"Clusters of cases",0
"2020/05/04","Sierra Leone",157,2,8,0,"Clusters of cases",0
"2020/05/04","Madagascar",151,2,0,0,"Clusters of cases",0
"2020/05/04","Ethiopia",135,2,3,0,"Clusters of cases",0
"2020/05/04","Togo",124,1,9,0,"Clusters of cases",0
"2020/05/04","Zambia",124,5,3,0,"Sporadic cases",0
"2020/05/04","Chad",117,0,10,0,"Sporadic cases",1
"2020/05/04","Eswatini",112,4,1,0,"Sporadic cases",0
"2020/05/04","Benin",90,0,2,0,"Sporadic cases",2
"2020/05/04","Uganda",88,3,0,0,"Sporadic cases",0
"2020/05/04","Mozambique",80,1,0,0,"Sporadic cases",0
"2020/05/04","Central African Republic",72,0,0,0,"Sporadic cases",1
"2020/05/04","South Sudan",46,1,0,0,"Sporadic cases",0
"2020/05/04","Eritrea",39,0,0,0,"Sporadic cases",15
"2020/05/04","Malawi",39,1,3,0,"Sporadic cases",0
"2020/05/04","Angola",35,0,2,0,"Sporadic cases",1
"2020/05/04","Zimbabwe",34,0,4,0,"Sporadic cases",2
"2020/05/04","Botswana",23,0,1,0,"Sporadic cases",5
"2020/05/04","São Tomé and Príncipe",23,0,3,0,"Sporadic cases",1
"2020/05/04","Burundi",19,0,1,0,"Sporadic cases",1
"2020/05/04","Gambia",17,0,1,0,"Sporadic cases",1
"2020/05/04","Namibia",16,0,0,0,"Sporadic cases",28
"2020/05/04","Seychelles",11,0,0,0,"Sporadic cases",27
"2020/05/04","Mauritania",8,0,1,0,"Sporadic cases",3
"2020/05/04","Comoros",3,0,0,0,"Pending",1
"2020/05/04","Mayotte",650,54,6,0,"Clusters of cases",0
"2020/05/04","Réunion",423,3,0,0,"Clusters of cases",0
"2020/05/04","United States of America",1125719,31839,60710,-1696," Community transmission ",0
"2020/05/04","Brazil",96559,4970,6750,421,"Community transmission",0
"2020/05/04","Canada",59365,3793,3681,235,"Community transmission",0
"2020/05/04","Peru",42534,2075,1200,76,"Community transmission",0
"2020/05/04","Ecuador",29538,2074,1564,193,"Community transmission",0
"2020/05/04","Mexico",22088,1349,2061,89,"Community transmission",0
"2020/05/04","Chile",19663,1228,260,13,"Community transmission",0
"2020/05/04","Dominican Republic",7954,376,333,7,"Community transmission",0
"2020/05/04","Colombia",7285,279,324,10,"Community transmission",0
"2020/05/04","Panama",7090,370,197,5,"Community transmission",0
"2020/05/04","Argentina",4681,149,241,12,"Community transmission",0
"2020/05/04","Cuba",1649,38,67,1,"Clusters of cases",0
"2020/05/04","Bolivia (Plurinational State of)",1470,241,71,5,"Clusters of cases",0
"2020/05/04","Honduras",1010,111,76,1,"Clusters of cases",0
"2020/05/04","Costa Rica",733,8,6,0,"Clusters of cases",0
"2020/05/04","Guatemala",688,44,19,1,"Clusters of cases",0
"2020/05/04","Uruguay",652,4,17,0,"Clusters of cases",0
"2020/05/04","El Salvador",490,44,11,1,"Clusters of cases",0
"2020/05/04","Jamaica",463,31,8,0,"Clusters of cases",0
"2020/05/04","Paraguay",370,37,10,0,"Community transmission",0
"2020/05/04","Venezuela (Bolivarian Republic of)",345,0,10,0,"Clusters of cases",1
"2020/05/04","Trinidad and Tobago",116,0,8,0,"Sporadic cases",6
"2020/05/04","Haiti",85,0,8,0,"Clusters of cases",1
"2020/05/04","Bahamas",82,0,11,0,"Clusters of cases",1
"2020/05/04","Guyana",82,0,9,0,"Clusters of cases",2
"2020/05/04","Barbados",81,0,7,0,"Clusters of cases",2
"2020/05/04","Antigua and Barbuda",25,1,3,0,"Clusters of cases",0
"2020/05/04","Grenada",21,1,0,0,"Clusters of cases",0
"2020/05/04","Belize",18,0,2,0,"Sporadic cases",19
"2020/05/04","Saint Lucia",17,0,0,0,"Sporadic cases",4
"2020/05/04","Dominica",16,0,0,0,"Clusters of cases",23
"2020/05/04","Saint Vincent and the Grenadines",16,0,0,0,"Sporadic cases",4
"2020/05/04","Saint Kitts and Nevis",15,0,0,0,"Sporadic cases",13
"2020/05/04","Nicaragua",14,0,4,0,"Pending",3
"2020/05/04","Suriname",10,0,1,0,"Sporadic cases",30
"2020/05/04","Puerto Rico",1808,51,97,43,"Clusters of cases",0
"2020/05/04","Martinique",181,1,14,0,"Clusters of cases",0
"2020/05/04","Guadeloupe",152,0,12,0,"Clusters of cases",3
"2020/05/04","French Guiana",128,0,1,0,"Clusters of cases",2
"2020/05/04","Bermuda",115,1,7,1,"Clusters of cases",0
"2020/05/04","Aruba",100,0,2,0,"Clusters of cases",11
"2020/05/04","Sint Maarten",76,0,13,0,"Clusters of cases",3
"2020/05/04","Cayman Islands",74,0,1,0,"Clusters of cases",1
"2020/05/04","United States Virgin Islands",66,0,4,0,"Clusters of cases",3
"2020/05/04","Saint Martin",38,0,3,0,"Sporadic cases",11
"2020/05/04","Curaçao",16,0,1,0,"Sporadic cases",6
"2020/05/04","Falkland Islands (Malvinas)",13,0,0,0,"Clusters of cases",8
"2020/05/04","Turks and Caicos Islands",12,0,1,0,"Sporadic cases",6
"2020/05/04","Montserrat",11,0,1,0,"Sporadic cases",20
"2020/05/04","Bonaire, Sint Eustatius and Saba",6,0,0,0,"Sporadic cases",6
"2020/05/04","British Virgin Islands",6,0,1,0,"Sporadic cases",8
"2020/05/04","Saint Barthélemy",6,0,0,0,"Sporadic cases",34
"2020/05/04","Anguilla",3,0,0,0,"Sporadic cases",30
"2020/05/04","Saint Pierre and Miquelon",1,0,0,0,"Sporadic cases",26
"2020/05/04","Iran (Islamic Republic of)",97424,976,6203,47,"Community transmission",0
"2020/05/04","Saudi Arabia",27011,1552,184,8,"Clusters of cases",0
"2020/05/04","Pakistan",20084,981,457,17,"Clusters of cases",0
"2020/05/04","Qatar",15551,679,12,0,"Community transmission",0
"2020/05/04","United Arab Emirates",14163,564,126,7,"Pending",0
"2020/05/04","Egypt",6465,272,429,14,"Clusters of cases",0
"2020/05/04","Kuwait",4983,364,38,5,"Clusters of cases",0
"2020/05/04","Morocco",4903,174,174,1,"Clusters of cases",0
"2020/05/04","Bahrain",3356,72,8,0,"Clusters of cases",0
"2020/05/04","Oman",2568,0,12,0,"Clusters of cases",1
"2020/05/04","Afghanistan",2469,0,72,0,"Clusters of cases",2
"2020/05/04","Iraq",2219,0,95,0,"Clusters of cases",1
"2020/05/04","Djibouti",1112,0,2,0,"Clusters of cases",1
"2020/05/04","Tunisia",1009,0,42,0,"Community transmission",1
"2020/05/04","Lebanon",737,4,25,0,"Clusters of cases",0
"2020/05/04","Somalia",722,51,32,1,"Sporadic cases",0
"2020/05/04","Sudan",592,0,41,0,"Sporadic cases",1
"2020/05/04","Jordan",461,1,9,0,"Clusters of cases",0
"2020/05/04","Libya",63,0,3,0,"Clusters of cases",2
"2020/05/04","Syrian Arab Republic",44,0,3,0,"Community transmission",2
"2020/05/04","Yemen",10,0,2,0,"Pending",1
"2020/05/04","occupied Palestinian territory",353,0,2,0,"Clusters of cases",2
"2020/05/04","Spain",217466,884,25264,164,"Community transmission",0
"2020/05/04","Italy",210717,1389,28884,174,"Community transmission",0
"2020/05/04","The United Kingdom",186603,4339,28446,315,"Community transmission",0
"2020/05/04","Germany",163175,679,6692,43,"Community transmission",0
"2020/05/04","Russian Federation",145268,10581,1356,76,"Clusters of cases",0
"2020/05/04","France",129708,250,24859,135,"Community transmission",0
"2020/05/04","Turkey",126045,1670,3397,61,"Community transmission",0
"2020/05/04","Belgium",49906,389,7844,79,"Community transmission",0
"2020/05/04","Netherlands",40571,335,5056,69,"Community transmission",0
"2020/05/04","Switzerland",29822,88,1472,6,"Community transmission",0
"2020/05/04","Portugal",25282,92,1043,20,"Community transmission",0
"2020/05/04","Sweden",22317,235,2679,10,"Community transmission",0
"2020/05/04","Ireland",21506,330,1303,38,"Community transmission",0
"2020/05/04","Belarus",17489,1661,103,6,"Clusters of cases",0
"2020/05/04","Israel",16152,0,227,0,"Pending",2
"2020/05/04","Austria",15597,39,598,2,"Community transmission",0
"2020/05/04","Poland",13693,318,678,14,"Community transmission",0
"2020/05/04","Romania",13163,431,780,9,"Community transmission",0
"2020/05/04","Ukraine",12331,418,303,15,"Community transmission",0
"2020/05/04","Denmark",9523,116,484,9,"Pending",0
"2020/05/04","Serbia",9464,102,193,4,"Pending",0
"2020/05/04","Norway",7809,50,208,4,"Pending",0
"2020/05/04","Czechia",7781,26,248,3,"Community transmission",0
"2020/05/04","Finland",5254,75,230,10,"Pending",0
"2020/05/04","Republic of Moldova",4121,69,128,4,"Pending",0
"2020/05/04","Kazakhstan",3988,111,27,1,"Pending",0
"2020/05/04","Luxembourg",3824,12,96,4,"Pending",0
"2020/05/04","Hungary",3035,37,351,11,"Clusters of cases",0
"2020/05/04","Greece",2626,6,144,1,"Community transmission",0
"2020/05/04","Armenia",2507,121,39,4,"Clusters of cases",0
"2020/05/04","Uzbekistan",2160,33,10,1,"Clusters of cases",0
"2020/05/04","Croatia",2096,8,79,2,"Community transmission",0
"2020/05/04","Azerbaijan",1932,38,25,0,"Clusters of cases",0
"2020/05/04","Bosnia and Herzegovina",1857,100,76,8,"Community transmission",0
"2020/05/04","Iceland",1799,1,10,0,"Community transmission",0
"2020/05/04","Estonia",1700,1,55,2,"Pending",0
"2020/05/04","Bulgaria",1618,24,73,1,"Clusters of cases",0
"2020/05/04","North Macedonia",1511,5,84,2,"Clusters of cases",0
"2020/05/04","Slovenia",1439,0,96,2,"Community transmission",1
"2020/05/04","Lithuania",1410,4,46,0,"Community transmission",0
"2020/05/04","Slovakia",1408,1,24,0,"Clusters of cases",0
"2020/05/04","Latvia",879,8,16,0,"Community transmission",0
"2020/05/04","Cyprus",872,8,20,0,"Clusters of cases",0
"2020/05/04","Kyrgyzstan",830,35,10,0,"Clusters of cases",0
"2020/05/04","Albania",795,0,31,0,"Clusters of cases",1
"2020/05/04","Andorra",749,2,45,1,"Community transmission",0
"2020/05/04","Georgia",593,4,9,1,"Community transmission",0
"2020/05/04","San Marino",582,2,41,0,"Community transmission",0
"2020/05/04","Malta",477,10,4,0,"Pending",0
"2020/05/04","Montenegro",322,0,8,1,"Clusters of cases",4
"2020/05/04","Tajikistan",128,52,4,2,"Pending",0
"2020/05/04","Monaco",95,27,1,0,"Sporadic cases",0
"2020/05/04","Liechtenstein",83,0,1,0,"Pending",8
"2020/05/04","Holy See",11,0,0,0,"Sporadic cases",3
"2020/05/04","Kosovo",851,28,27,5,"Community transmission",0
"2020/05/04","Isle of Man",320,5,23,0,"Pending",0
"2020/05/04","Jersey",291,1,24,1,"Pending",0
"2020/05/04","Guernsey",252,0,13,0,"Community transmission",1
"2020/05/04","Faroe Islands",187,0,0,0,"Pending",10
"2020/05/04","Gibraltar",144,0,0,0,"Clusters of cases",2
"2020/05/04","Greenland",11,0,0,0,"Pending",28
"2020/05/04","India",42533,2553,1373,72,"Clusters of cases",0
"2020/05/04","Indonesia",11192,349,845,14,"Community transmission",0
"2020/05/04","Bangladesh",9455,665,177,2,"Clusters of cases",0
"2020/05/04","Thailand",2987,18,54,0,"Clusters of cases",0
"2020/05/04","Sri Lanka",718,13,7,0,"Clusters of cases",0
"2020/05/04","Maldives",527,8,1,0,"Clusters of cases",0
"2020/05/04","Myanmar",155,4,6,0,"Clusters of cases",0
"2020/05/04","Nepal",75,16,0,0,"Sporadic cases",0
"2020/05/04","Timor-Leste",24,0,0,0,"Clusters of cases",10
"2020/05/04","Bhutan",7,0,0,0,"Sporadic cases",11
"2020/05/04","China",84400,7,4643,0,"Clusters of cases",0
"2020/05/04","Singapore",18205,657,18,1,"Clusters of cases",0
"2020/05/04","Japan",15057,218,510,18,"Clusters of cases",0
"2020/05/04","Republic of Korea",10801,8,252,2,"Clusters of cases",0
"2020/05/04","Philippines",9223,295,607,4,"Clusters of cases",0
"2020/05/04","Australia",6801,18,95,2,"Clusters of cases",0
"2020/05/04","Malaysia",6298,122,105,2,"Clusters of cases",0
"2020/05/04","New Zealand",1137,1,20,0,"Clusters of cases",0
"2020/05/04","Viet Nam",271,1,0,0,"Clusters of cases",0
"2020/05/04","Brunei Darussalam",138,0,1,0,"Sporadic cases",14
"2020/05/04","Cambodia",122,0,0,0,"Sporadic cases",22
"2020/05/04","Mongolia",39,0,0,0,"Sporadic cases",1
"2020/05/04","Lao People's Democratic  Republic",19,0,0,0,"Sporadic cases",21
"2020/05/04","Fiji",18,0,0,0,"Sporadic cases",13
"2020/05/04","Papua New Guinea",8,0,0,0,"Sporadic cases",11
"2020/05/04","Guam",146,2,5,0,"Clusters of cases",0
"2020/05/04","French Polynesia",58,0,0,0,"Sporadic cases",6
"2020/05/04","New Caledonia",18,0,0,0,"Sporadic cases",31
"2020/05/04","Northern Mariana Islands  (Commonwealth of the)",14,0,2,0,"Pending",16
"2020/05/04","Subtotal for all regions",3435182,86108,239591,976," ",NA
"2020/05/04","Other*",712,0,13,0,"-",49
"2020/05/04","Grand total",3435894,86108,239604,976," ",NA
