"date","place","totconfirmed","totconfirmednew","totdeaths","totdeathsnew","transmissionclass","dayslastrep"
"2020/04/15","China",83745,49,3352,1," Clusters of cases ",0
"2020/04/15","Republic of Korea",10591,27,225,3," Clusters of cases ",0
"2020/04/15","Japan",8100,455,119,10," Clusters of cases ",0
"2020/04/15","Australia",6416,50,61,0," Clusters of cases ",0
"2020/04/15","Philippines",5223,291,335,20," Clusters of cases ",0
"2020/04/15","Malaysia",4987,170,82,5," Clusters of cases ",0
"2020/04/15","Singapore",3252,334,10,1," Clusters of cases ",0
"2020/04/15","New Zealand",1078,6,9,0," Clusters of cases ",0
"2020/04/15","Viet Nam",266,1,0,0," Clusters of cases ",0
"2020/04/15","Brunei Darussalam",136,0,1,0," Sporadic cases ",4
"2020/04/15","Cambodia",122,0,0,0," Sporadic cases ",3
"2020/04/15","Mongolia",30,13,0,0," Sporadic cases ",0
"2020/04/15","Lao People's Democratic Republic",19,0,0,0," Sporadic cases ",2
"2020/04/15","Fiji",16,0,0,0," Sporadic cases ",4
"2020/04/15","Papua New Guinea",2,0,0,0," Sporadic cases ",6
"2020/04/15","Guam",135,1,5,0," Clusters of cases ",0
"2020/04/15","French Polynesia",55,0,0,0," Sporadic cases ",1
"2020/04/15","New Caledonia",18,0,0,0," Sporadic cases ",12
"2020/04/15","Northern Mariana Islands (Commonwealth of the)",13,2,2,0," Pending ",0
"2020/04/15","Spain",172541,3045,18056,567," Pending ",0
"2020/04/15","Italy",162488,2972,21069,604," Pending ",0
"2020/04/15","Germany",127584,2486,3254,285," Pending ",0
"2020/04/15","France",102533,5483,15708,762," Pending ",0
"2020/04/15","The United Kingdom",93877,5252,12107,778," Pending ",0
"2020/04/15","Turkey",65111,4062,1403,107," Community transmission ",0
"2020/04/15","Belgium",31119,530,4157,254," Pending ",0
"2020/04/15","Netherlands",27419,868,2945,122," Pending ",0
"2020/04/15","Switzerland",25753,254,900,15," Community transmission ",0
"2020/04/15","Russian Federation",24490,3388,198,28," Clusters of cases ",0
"2020/04/15","Portugal",17448,514,567,32," Pending ",0
"2020/04/15","Austria",14234,191,384,16," Pending ",0
"2020/04/15","Israel",11868,633,117,7," Pending ",0
"2020/04/15","Ireland",11479,832,406,41," Pending ",0
"2020/04/15","Sweden",11445,497,1033,114," Pending ",0
"2020/04/15","Poland",7202,268,263,18," Pending ",0
"2020/04/15","Romania",6879,246,344,26," Pending ",0
"2020/04/15","Norway",6566,78,127,13," Pending ",0
"2020/04/15","Denmark",6511,193,299,14," Pending ",0
"2020/04/15","Czechia",6141,82,161,18," Pending ",0
"2020/04/15","Serbia",4465,411,94,9," Pending ",0
"2020/04/15","Ukraine",3764,392,108,10," Clusters of cases ",0
"2020/04/15","Luxembourg",3307,15,69,0," Pending ",0
"2020/04/15","Belarus",3281,362,33,4," Clusters of cases ",0
"2020/04/15","Finland",3161,97,64,5," Pending ",0
"2020/04/15","Greece",2170,25,101,2," Pending ",0
"2020/04/15","Republic of Moldova",1934,222,41,5," Pending ",0
"2020/04/15","Iceland",1720,9,8,0," Pending ",0
"2020/04/15","Croatia",1704,54,31,6," Pending ",0
"2020/04/15","Hungary",1579,67,134,12," Pending ",0
"2020/04/15","Estonia",1373,41,31,3," Pending ",0
"2020/04/15","Kazakhstan",1275,184,12,0," Pending ",0
"2020/04/15","Slovenia",1220,8,56,1," Pending ",0
"2020/04/15","Uzbekistan",1214,160,4,0," Clusters of cases ",0
"2020/04/15","Azerbaijan",1197,49,13,1," Clusters of cases ",0
"2020/04/15","Bosnia and Herzegovina",1086,52,40,2," Community transmission ",0
"2020/04/15","Lithuania",1070,0,24,0," Pending ",1
"2020/04/15","Armenia",1067,28,16,2," Clusters of cases ",0
"2020/04/15","North Macedonia",908,54,44,6," Clusters of cases ",0
"2020/04/15","Slovakia",835,66,2,0," Pending ",0
"2020/04/15","Bulgaria",713,28,35,3," Pending ",0
"2020/04/15","Cyprus",695,33,17,0," Pending ",0
"2020/04/15","Andorra",659,8,31,2," Community transmission ",0
"2020/04/15","Latvia",657,2,5,0," Pending ",0
"2020/04/15","Albania",475,0,24,1," Clusters of cases ",1
"2020/04/15","Kyrgyzstan",449,19,5,0," Pending ",0
"2020/04/15","Malta",393,9,3,0," Pending ",0
"2020/04/15","San Marino",372,1,36,0," Community transmission ",0
"2020/04/15","Georgia",306,10,3,0," Clusters of cases ",0
"2020/04/15","Montenegro",288,14,4,0," Clusters of cases ",0
"2020/04/15","Monaco",93,0,0,0," Sporadic cases ",1
"2020/04/15","Liechtenstein",81,1,1,0," Pending ",0
"2020/04/15","Holy See",8,0,0,0," Sporadic cases ",6
"2020/04/15","Kosovo",387,10,8,0," Community transmission ",0
"2020/04/15","Isle of Man",242,14,2,0," Pending ",0
"2020/04/15","Guernsey",219,1,6,0," Pending ",0
"2020/04/15","Jersey",217,4,4,0," Pending ",0
"2020/04/15","Faroe Islands",184,0,0,0," Pending ",7
"2020/04/15","Gibraltar",129,0,0,0," Pending ",2
"2020/04/15","Greenland",11,0,0,0," Pending ",9
"2020/04/15","India",11439,1076,377,38," Clusters of cases ",0
"2020/04/15","Indonesia",4839,282,459,60," Community transmission ",0
"2020/04/15","Thailand",2643,30,43,2," Pending ",0
"2020/04/15","Bangladesh",1012,209,46,7," Pending ",0
"2020/04/15","Sri Lanka",233,15,7,0," Clusters of cases ",0
"2020/04/15","Myanmar",74,12,4,0," Clusters of cases ",0
"2020/04/15","Maldives",20,0,0,0," Sporadic cases ",2
"2020/04/15","Nepal",16,0,0,0," Sporadic cases ",1
"2020/04/15","Timor-Leste",6,0,0,0," Sporadic cases ",1
"2020/04/15","Bhutan",5,0,0,0," Sporadic cases ",12
"2020/04/15","Iran (Islamic Republic of)",74877,1574,4683,98," Community transmission ",0
"2020/04/15","Pakistan",5988,272,107,11," Clusters of cases ",0
"2020/04/15","Saudi Arabia",5369,435,73,8," Clusters of cases ",0
"2020/04/15","United Arab Emirates",4933,412,28,3," Pending ",0
"2020/04/15","Qatar",3428,197,7,0," Pending ",0
"2020/04/15","Egypt",2350,160,178,14," Clusters of cases ",0
"2020/04/15","Morocco",1888,125,126,0," Clusters of cases ",0
"2020/04/15","Bahrain",1528,166,7,0," Clusters of cases ",0
"2020/04/15","Iraq",1400,22,78,0," Clusters of cases ",0
"2020/04/15","Kuwait",1355,55,3,1," Clusters of cases ",0
"2020/04/15","Oman",910,97,4,0," Clusters of cases ",0
"2020/04/15","Afghanistan",770,105,25,3," Clusters of cases ",0
"2020/04/15","Tunisia",747,21,34,0," Community transmission ",0
"2020/04/15","Lebanon",641,9,21,1," Clusters of cases ",0
"2020/04/15","Jordan",397,6,7,0," Clusters of cases ",0
"2020/04/15","Djibouti",363,65,2,0," Clusters of cases ",0
"2020/04/15","Somalia",60,0,2,0," Sporadic cases ",1
"2020/04/15","Libya",35,9,1,0," Clusters of cases ",0
"2020/04/15","Sudan",32,3,5,1," Sporadic cases ",0
"2020/04/15","Syrian Arab Republic",29,4,2,0," Community transmission ",0
"2020/04/15","Yemen",1,0,0,0," Pending ",4
"2020/04/15","occupied Palestinian territory",288,14,2,0," Clusters of cases ",0
"2020/04/15","United States of America",578268,24446,23476,1504," Community transmission ",0
"2020/04/15","Canada",26146,1360,823,89," Community transmission ",0
"2020/04/15","Brazil",23430,1261,1328,105," Community transmission ",0
"2020/04/15","Chile",7917,392,92,10," Community transmission ",0
"2020/04/15","Ecuador",7603,74,369,14," Community transmission ",0
"2020/04/15","Peru",7519,0,193,0," Community transmission ",1
"2020/04/15","Mexico",5014,353,332,36," Community transmission ",0
"2020/04/15","Panama",3472,72,94,7," Community transmission ",0
"2020/04/15","Dominican Republic",3286,119,183,6," Community transmission ",0
"2020/04/15","Colombia",2852,76,112,3," Community transmission ",0
"2020/04/15","Argentina",2336,84,101,6," Community transmission ",0
"2020/04/15","Cuba",766,40,21,0," Clusters of cases ",0
"2020/04/15","Costa Rica",612,17,3,0," Clusters of cases ",0
"2020/04/15","Uruguay",483,0,8,1," Clusters of cases ",1
"2020/04/15","Honduras",407,10,26,1," Clusters of cases ",0
"2020/04/15","Bolivia (Plurinational State of)",354,24,28,1," Clusters of cases ",0
"2020/04/15","Venezuela (Bolivarian Republic of)",181,0,9,0," Clusters of cases ",1
"2020/04/15","Guatemala",167,11,5,0," Clusters of cases ",0
"2020/04/15","Paraguay",159,12,7,1," Community transmission ",0
"2020/04/15","El Salvador",149,12,6,0," Clusters of cases ",0
"2020/04/15","Trinidad and Tobago",113,0,8,0," Sporadic cases ",1
"2020/04/15","Jamaica",73,1,4,0," Clusters of cases ",0
"2020/04/15","Barbados",72,1,4,0," Clusters of cases ",0
"2020/04/15","Bahamas",49,2,8,0," Clusters of cases ",0
"2020/04/15","Guyana",47,0,6,0," Clusters of cases ",1
"2020/04/15","Haiti",40,0,3,0," Clusters of cases ",1
"2020/04/15","Antigua and Barbuda",23,0,2,0," Clusters of cases ",1
"2020/04/15","Belize",18,4,2,0," Sporadic cases ",0
"2020/04/15","Dominica",16,0,0,0," Clusters of cases ",4
"2020/04/15","Saint Lucia",15,0,0,0," Sporadic cases ",3
"2020/04/15","Grenada",14,0,0,0," Clusters of cases ",3
"2020/04/15","Saint Kitts and Nevis",12,0,0,0," Sporadic cases ",3
"2020/04/15","Saint Vincent and the Grenadines",12,0,0,0," Sporadic cases ",4
"2020/04/15","Suriname",10,0,1,0," Sporadic cases ",11
"2020/04/15","Nicaragua",9,0,1,0," Pending ",2
"2020/04/15","Puerto Rico",923,20,45,0," Clusters of cases ",0
"2020/04/15","Martinique",157,0,8,0," Clusters of cases ",1
"2020/04/15","Guadeloupe",145,2,8,0," Clusters of cases ",0
"2020/04/15","Aruba",92,0,0,0," Clusters of cases ",3
"2020/04/15","French Guiana",88,0,0,0," Clusters of cases ",1
"2020/04/15","Bermuda",57,0,5,1," Clusters of cases ",1
"2020/04/15","Cayman Islands",54,1,1,0," Clusters of cases ",0
"2020/04/15","Sint Maarten",52,0,9,0," Clusters of cases ",1
"2020/04/15","United States Virgin Islands",51,0,1,0," Clusters of cases ",4
"2020/04/15","Saint Martin",35,2,2,0," Sporadic cases ",0
"2020/04/15","Curaçao",14,0,1,0," Sporadic cases ",6
"2020/04/15","Falkland Islands (Malvinas)",11,6,0,0," Clusters of cases ",0
"2020/04/15","Montserrat",11,0,0,0," Sporadic cases ",1
"2020/04/15","Turks and Caicos Islands",10,1,1,0," Sporadic cases ",0
"2020/04/15","Saint Barthelemy",6,0,0,0," Sporadic cases ",15
"2020/04/15","Bonaire, Sint Eustatius and Saba",4,1,0,0," Sporadic cases ",0
"2020/04/15","Anguilla",3,0,0,0," Sporadic cases ",11
"2020/04/15","British Virgin Islands",3,0,0,0," Sporadic cases ",14
"2020/04/15","Saint Pierre and Miquelon",1,0,0,0," Sporadic cases ",7
"2020/04/15","South Africa",2415,143,27,0," Community transmission ",0
"2020/04/15","Algeria",2070,87,326,13," Community transmission ",0
"2020/04/15","Cameroon",855,52,15,5," Clusters of cases ",0
"2020/04/15","Côte d’Ivoire",638,12,6,0," Clusters of cases ",0
"2020/04/15","Ghana",636,70,8,0," Clusters of cases ",0
"2020/04/15","Niger",570,22,14,1," Clusters of cases ",0
"2020/04/15","Burkina Faso",515,18,28,1," Clusters of cases ",0
"2020/04/15","Guinea",363,44,0,0," Clusters of cases ",0
"2020/04/15","Nigeria",343,0,10,0," Clusters of cases ",1
"2020/04/15","Mauritius",324,0,9,0," Clusters of cases ",2
"2020/04/15","Senegal",299,8,2,0," Clusters of cases ",0
"2020/04/15","Democratic Republic of the Congo",254,13,21,1," Clusters of cases ",0
"2020/04/15","Kenya",216,8,9,0," Clusters of cases ",0
"2020/04/15","Rwanda",134,7,0,0," Sporadic cases ",0
"2020/04/15","Mali",123,7,10,1," Sporadic cases ",0
"2020/04/15","Madagascar",110,4,0,0," Clusters of cases ",0
"2020/04/15","Ethiopia",82,8,3,0," Sporadic cases ",0
"2020/04/15","Gabon",80,23,1,0," Sporadic cases ",0
"2020/04/15","Togo",77,1,3,0," Sporadic cases ",0
"2020/04/15","Congo",74,0,5,0," Clusters of cases ",1
"2020/04/15","Liberia",59,8,6,0," Sporadic cases ",0
"2020/04/15","Uganda",54,0,0,0," Sporadic cases ",2
"2020/04/15","United Republic of Tanzania",53,4,3,0," Sporadic cases ",0
"2020/04/15","Zambia",45,0,2,0," Sporadic cases ",1
"2020/04/15","Equatorial Guinea",41,20,0,0," Sporadic cases ",0
"2020/04/15","Guinea-Bissau",40,1,0,0," Sporadic cases ",0
"2020/04/15","Benin",35,0,1,0," Sporadic cases ",3
"2020/04/15","Eritrea",34,0,0,0," Sporadic cases ",2
"2020/04/15","Mozambique",28,7,0,0," Sporadic cases ",0
"2020/04/15","Chad",23,0,0,0," Sporadic cases ",1
"2020/04/15","Angola",19,0,2,0," Sporadic cases ",6
"2020/04/15","Zimbabwe",18,1,3,0," Sporadic cases ",0
"2020/04/15","Malawi",16,0,2,0," Sporadic cases ",1
"2020/04/15","Namibia",16,0,0,0," Sporadic cases ",9
"2020/04/15","Eswatini",15,1,0,0," Sporadic cases ",0
"2020/04/15","Botswana",13,0,1,0," Sporadic cases ",5
"2020/04/15","Central African Republic",11,0,0,0," Sporadic cases ",4
"2020/04/15","Seychelles",11,0,0,0," Sporadic cases ",8
"2020/04/15","Sierra Leone",11,1,0,0," Sporadic cases ",0
"2020/04/15","Cabo Verde",10,0,1,0," Sporadic cases ",1
"2020/04/15","Gambia",9,0,1,0," Sporadic cases ",3
"2020/04/15","Mauritania",7,0,1,0," Sporadic cases ",4
"2020/04/15","Burundi",5,0,0,0," Sporadic cases ",2
"2020/04/15","São Tomé and Príncipe",4,0,0,0," Pending ",8
"2020/04/15","South Sudan",4,0,0,0," Pending ",3
"2020/04/15","Réunion",391,0,0,0," Clusters of cases ",1
"2020/04/15","Mayotte",217,10,3,0," Clusters of cases ",0
"2020/04/15","Subtotal for all Regions",1914204,70082,122998,5989," ",NA
"2020/04/15","International conveyance (Diamond Princess)",712,0,12,0," Not Applicable ",30
"2020/04/15","Grand total",1914916,70082,123010,5989," ",NA
