"date","place","totconfirmed","totconfirmednew","totdeaths","totdeathsnew","transmissionclass","dayslastrep"
"2020/04/30","China",84373,4,4643,0," Clusters of cases ",0
"2020/04/30","Singapore",15641,690,14,0," Clusters of cases ",0
"2020/04/30","Japan",14088,236,415,26," Clusters of cases ",0
"2020/04/30","Republic of Korea",10765,4,247,1," Clusters of cases ",0
"2020/04/30","Philippines",8212,254,558,28," Clusters of cases ",0
"2020/04/30","Australia",6746,8,90,2," Clusters of cases ",0
"2020/04/30","Malaysia",5945,94,100,0," Clusters of cases ",0
"2020/04/30","New Zealand",1129,3,19,0," Clusters of cases ",0
"2020/04/30","Viet Nam",270,0,0,0," Clusters of cases ",5
"2020/04/30","Brunei Darussalam",138,0,1,0," Sporadic cases ",10
"2020/04/30","Cambodia",122,0,0,0," Sporadic cases ",18
"2020/04/30","Mongolia",38,0,0,0," Sporadic cases ",3
"2020/04/30","Lao People's DemocraticRepublic",19,0,0,0," Sporadic cases ",17
"2020/04/30","Fiji",18,0,0,0," Sporadic cases ",9
"2020/04/30","Papua NewGuinea",8,0,0,0," Sporadic cases ",7
"2020/04/30","Guam",141,1,5,0," Clusters of cases ",0
"2020/04/30","French Polynesia",58,0,0,0," Sporadic cases ",2
"2020/04/30","New Caledonia",18,0,0,0," Sporadic cases ",27
"2020/04/30","Northern Mariana Islands (Commonwealth of the)",14,0,2,0," Pending ",12
"2020/04/30","Spain",212917,2144,24275,453," Community transmission ",0
"2020/04/30","Italy",203591,2086,27682,323," Community transmission ",0
"2020/04/30","The United Kingdom",165225,4076,26097,4419," Community transmission ",0
"2020/04/30","Germany",159119,1478,6288,173," Community transmission ",0
"2020/04/30","France",127066,1602,24054,427," Community transmission ",0
"2020/04/30","Turkey",117589,2936,3081,89," Community transmission ",0
"2020/04/30","Russian Federation",106498,7099,1073,101," Clusters of cases ",0
"2020/04/30","Belgium",47859,525,7501,170," Community transmission ",0
"2020/04/30","Netherlands",38802,386,4711,145," Community transmission ",0
"2020/04/30","Switzerland",29324,143,1407,28," Community transmission ",0
"2020/04/30","Portugal",24505,183,973,25," Community transmission ",0
"2020/04/30","Sweden",20302,681,2462,107," Community transmission ",0
"2020/04/30","Ireland",20253,376,1190,31," Community transmission ",0
"2020/04/30","Israel",15782,0,212,0," Pending ",1
"2020/04/30","Austria",15364,50,580,11," Community transmission ",0
"2020/04/30","Belarus",13181,973,84,5," Clusters of cases ",0
"2020/04/30","Poland",12640,422,624,28," Community transmission ",0
"2020/04/30","Romania",11978,362,675,25," Community transmission ",0
"2020/04/30","Ukraine",10406,540,261,11," Community transmission ",0
"2020/04/30","Denmark",9008,157,443,9," Pending ",0
"2020/04/30","Serbia",8724,227,173,5," Pending ",0
"2020/04/30","Norway",7667,62,202,7," Pending ",0
"2020/04/30","Czechia",7579,75,227,0," Community transmission ",0
"2020/04/30","Finland",4906,166,206,7," Pending ",0
"2020/04/30","Republic of Moldova",3771,133,116,7," Pending ",0
"2020/04/30","Luxembourg",3769,28,89,0," Pending ",0
"2020/04/30","Kazakhstan",3333,255,25,0," Pending ",0
"2020/04/30","Hungary",2775,48,312,12," Clusters of cases ",0
"2020/04/30","Greece",2576,42,139,3," Community transmission ",0
"2020/04/30","Armenia",2066,134,32,2," Clusters of cases ",0
"2020/04/30","Croatia",2062,15,67,4," Community transmission ",0
"2020/04/30","Uzbekistan",2031,76,9,1," Clusters of cases ",0
"2020/04/30","Iceland",1797,2,10,0," Community transmission ",0
"2020/04/30","Azerbaijan",1766,49,23,1," Clusters of cases ",0
"2020/04/30","Bosnia and Herzegovina",1689,101,64,2," Community transmission ",0
"2020/04/30","Estonia",1666,6,50,0," Pending ",0
"2020/04/30","Bulgaria",1447,48,64,6," Pending ",0
"2020/04/30","North Macedonia",1442,21,73,2," Clusters of cases ",0
"2020/04/30","Slovenia",1418,10,89,3," Community transmission ",0
"2020/04/30","Slovakia",1391,7,22,2," Clusters of cases ",0
"2020/04/30","Lithuania",1375,0,45,1," Community transmission ",0
"2020/04/30","Latvia",849,13,15,2," Community transmission ",0
"2020/04/30","Cyprus",843,6,20,0," Clusters of cases ",0
"2020/04/30","Albania",773,7,31,1," Clusters of cases ",0
"2020/04/30","Andorra",753,0,41,0," Community transmission ",1
"2020/04/30","Kyrgyzstan",746,17,8,0," Clusters of cases ",0
"2020/04/30","San Marino",563,10,41,0," Community transmission ",0
"2020/04/30","Georgia",539,22,6,0," Community transmission ",0
"2020/04/30","Malta",463,13,4,0," Pending ",0
"2020/04/30","Montenegro",322,1,7,0," Clusters of cases ",0
"2020/04/30","Liechtenstein",83,0,1,0," Pending ",4
"2020/04/30","Monaco",68,0,1,0," Sporadic cases ",16
"2020/04/30","Holy See",10,0,0,0," Sporadic cases ",1
"2020/04/30","Kosovo",799,9,22,0," Community transmission ",0
"2020/04/30","Isle of Man",309,1,21,1," Pending ",0
"2020/04/30","Jersey",284,1,20,1," Pending ",0
"2020/04/30","Guernsey",247,0,13,0," Community transmission ",2
"2020/04/30","Faroe Islands",187,0,0,0," Pending ",6
"2020/04/30","Gibraltar",141,0,0,0," Clusters of cases ",3
"2020/04/30","Greenland",11,0,0,0," Pending ",24
"2020/04/30","South-EastAsiaRegion India",33050,1718,1074,67," Clusters of cases ",0
"2020/04/30","Indonesia",9771,260,784,11," Community transmission ",0
"2020/04/30","Bangladesh",7103,641,163,8," Pending ",0
"2020/04/30","Thailand",2954,7,54,0," Clusters of cases ",0
"2020/04/30","Sri Lanka",649,30,7,0," Clusters of cases ",0
"2020/04/30","Maldives",256,11,0,0," Clusters of cases ",0
"2020/04/30","Myanmar",150,0,6,1," Clusters of cases ",1
"2020/04/30","Nepal",57,3,0,0," Sporadic cases ",0
"2020/04/30","Timor-Leste",24,0,0,0," Clusters of cases ",6
"2020/04/30","Bhutan",7,0,0,0," Sporadic cases ",7
"2020/04/30","Iran(Islamic Republic of)",93657,1073,5957,80," Community transmission ",0
"2020/04/30","Saudi Arabia",21402,1325,157,5," Clusters of cases ",0
"2020/04/30","Pakistan",15759,874,346,19," Clusters of cases ",0
"2020/04/30","Qatar",12564,643,10,0," Pending ",0
"2020/04/30","United Arab Emirates",11929,549,98,9," Pending ",0
"2020/04/30","Egypt",5268,226,380,21," Clusters of cases ",0
"2020/04/30","Morocco",4359,107,168,3," Clusters of cases ",0
"2020/04/30","Kuwait",3740,300,24,1," Clusters of cases ",0
"2020/04/30","Bahrain",2921,110,8,0," Clusters of cases ",0
"2020/04/30","Oman",2348,74,10,0," Clusters of cases ",0
"2020/04/30","Iraq",2003,75,92,2," Clusters of cases ",0
"2020/04/30","Afghanistan",1827,0,60,0," Clusters of cases ",1
"2020/04/30","Djibouti",1077,5,2,0," Clusters of cases ",0
"2020/04/30","Tunisia",980,5,40,0," Community transmission ",0
"2020/04/30","Lebanon",721,4,24,0," Clusters of cases ",0
"2020/04/30","Somalia",582,54,28,0," Sporadic cases ",0
"2020/04/30","Jordan",451,2,8,0," Clusters of cases ",0
"2020/04/30","Sudan",375,57,28,3," Sporadic cases ",0
"2020/04/30","Libya",61,0,2,0," Clusters of cases ",5
"2020/04/30","Syrian Arab Republic",43,0,3,0," Community transmission ",2
"2020/04/30","Yemen",6,5,0,0," Pending ",0
"2020/04/30","occupied Palestinian territory",344,1,2,0," Clusters of cases ",0
"2020/04/30","United States of America",1003974,20517,52428,1936," Community transmission ",0
"2020/04/30","Brazil",71886,5385,5017,474," Community transmission ",0
"2020/04/30","Canada",50363,1349,2904,138," Community transmission ",0
"2020/04/30","Peru",31190,2491,854,72," Community transmission ",0
"2020/04/30","Ecuador",24675,417,883,12," Community transmission ",0
"2020/04/30","Mexico",16752,1223,1569,135," Community transmission ",0
"2020/04/30","Chile",14885,520,216,9," Community transmission ",0
"2020/04/30","Dominican Republic",6652,236,293,7," Community transmission ",0
"2020/04/30","Panama",6200,179,176,9," Community transmission ",0
"2020/04/30","Colombia",5949,352,269,16," Community transmission ",0
"2020/04/30","Argentina",4201,182,207,10," Community transmission ",0
"2020/04/30","Cuba",1467,30,58,0," Clusters of cases ",0
"2020/04/30","Bolivia (Plurinational State of)",1053,39,55,2," Clusters of cases ",0
"2020/04/30","Honduras",738,36,66,2," Clusters of cases ",0
"2020/04/30","Costa Rica",705,8,6,0," Clusters of cases ",0
"2020/04/30","Uruguay",625,5,15,0," Clusters of cases ",0
"2020/04/30","Guatemala",557,27,16,1," Clusters of cases ",0
"2020/04/30","Jamaica",381,17,7,0," Clusters of cases ",0
"2020/04/30","El Salvador",377,32,9,1," Clusters of cases ",0
"2020/04/30","Venezuela (Bolivarian Republic of)",329,0,10,0," Clusters of cases ",1
"2020/04/30","Paraguay",239,9,9,0," Community transmission ",0
"2020/04/30","Trinidad and Tobago",116,0,8,0," Sporadic cases ",2
"2020/04/30","Bahamas",80,0,11,0," Clusters of cases ",2
"2020/04/30","Barbados",80,0,6,0," Clusters of cases ",1
"2020/04/30","Haiti",76,0,6,0," Clusters of cases ",1
"2020/04/30","Guyana",75,1,8,0," Clusters of cases ",0
"2020/04/30","Antigua and Barbuda",24,0,3,0," Clusters of cases ",7
"2020/04/30","Grenada",19,1,0,0," Clusters of cases ",0
"2020/04/30","Belize",18,0,2,0," Sporadic cases ",15
"2020/04/30","Saint Lucia",17,2,0,0," Sporadic cases ",0
"2020/04/30","Dominica",16,0,0,0," Clusters of cases ",19
"2020/04/30","Saint Vincent and the Grenadines",16,1,0,0," Sporadic cases ",0
"2020/04/30","Saint Kitts and Nevis",15,0,0,0," Sporadic cases ",9
"2020/04/30","Nicaragua",13,0,3,0," Pending ",3
"2020/04/30","Suriname",10,0,1,0," Sporadic cases ",26
"2020/04/30","Puerto Rico",1433,33,54,0," Clusters of cases ",0
"2020/04/30","Martinique",175,0,14,0," Clusters of cases ",3
"2020/04/30","Guadeloupe",151,2,11,0," Clusters of cases ",0
"2020/04/30","French Guiana",125,1,1,0," Clusters of cases ",0
"2020/04/30","Bermuda",111,1,6,0," Clusters of cases ",0
"2020/04/30","Aruba",100,0,2,0," Clusters of cases ",7
"2020/04/30","Sint Maarten",75,0,13,0," Clusters of cases ",1
"2020/04/30","Cayman Islands",73,3,1,0," Clusters of cases ",0
"2020/04/30","United StatesVirgin Islands",62,3,4,0," Clusters of cases ",0
"2020/04/30","Saint Martin",38,0,3,0," Sporadic cases ",7
"2020/04/30","Curaçao",16,0,1,0," Sporadic cases ",2
"2020/04/30","Falkland Islands (Malvinas)",13,0,0,0," Clusters of cases ",4
"2020/04/30","Turks and Caicos Islands",12,0,1,0," Sporadic cases ",2
"2020/04/30","Montserrat",11,0,1,0," Sporadic cases ",16
"2020/04/30","Bonaire, Sint Eustatius and Saba",6,0,0,0," Sporadic cases ",2
"2020/04/30","British Virgin Islands",6,0,1,0," Sporadic cases ",4
"2020/04/30","Saint Barthélemy",6,0,0,0," Sporadic cases ",30
"2020/04/30","Anguilla",3,0,0,0," Sporadic cases ",26
"2020/04/30","Saint Pierre and Miquelon",1,0,0,0," Sporadic cases ",22
"2020/04/30","South Africa",5350,354,103,10," Community transmission ",0
"2020/04/30","Algeria",3848,199,444,7," Community transmission ",0
"2020/04/30","Cameroon",1806,101,59,1," Clusters of cases ",0
"2020/04/30","Ghana",1671,0,16,0," Clusters of cases ",1
"2020/04/30","Nigeria",1532,195,44,4," Community transmission ",0
"2020/04/30","Guinea",1351,111,7,0," Community transmission ",0
"2020/04/30","Côte d’Ivoire",1238,55,14,0," Clusters of cases ",0
"2020/04/30","Senegal",882,59,9,0," Clusters of cases ",0
"2020/04/30","Niger",713,4,32,1," Clusters of cases ",0
"2020/04/30","Burkina Faso",638,0,42,0," Community transmission ",1
"2020/04/30","DemocraticRepublic of theCongo",500,9,31,1," Clusters of cases ",0
"2020/04/30","Mali",482,58,25,1," Clusters of cases ",0
"2020/04/30","United Republic of Tanzania",480,180,16,6," Clusters of cases ",0
"2020/04/30","Kenya",384,10,15,1," Clusters of cases ",0
"2020/04/30","Mauritius",332,0,10,0," Community transmission ",3
"2020/04/30","EquatorialGuinea",315,0,1,0," Clusters of cases ",1
"2020/04/30","Gabon",276,38,3,0," Clusters of cases ",0
"2020/04/30","Rwanda",225,13,0,0," Clusters of cases ",0
"2020/04/30","Congo",220,13,9,1," Clusters of cases ",0
"2020/04/30","Liberia",141,0,16,0," Clusters of cases ",1
"2020/04/30","Ethiopia",130,4,3,0," Clusters of cases ",0
"2020/04/30","Madagascar",128,0,0,0," Clusters of cases ",3
"2020/04/30","Sierra Leone",116,12,5,1," Clusters of cases ",0
"2020/04/30","Cabo Verde",113,0,1,0," Sporadic cases ",1
"2020/04/30","Togo",109,10,7,1," Clusters of cases ",0
"2020/04/30","Zambia",97,2,3,0," Sporadic cases ",0
"2020/04/30","Eswatini",91,20,1,0," Sporadic cases ",0
"2020/04/30","Uganda",79,0,0,0," Sporadic cases ",2
"2020/04/30","Guinea-Bissau",77,4,1,0," Sporadic cases ",0
"2020/04/30","Mozambique",76,0,0,0," Sporadic cases ",3
"2020/04/30","Benin",69,5,2,1," Sporadic cases ",0
"2020/04/30","Chad",52,0,2,0," Sporadic cases ",1
"2020/04/30","Central African Republic",50,0,0,0," Sporadic cases ",1
"2020/04/30","Eritrea",39,0,0,0," Sporadic cases ",11
"2020/04/30","Malawi",36,0,3,0," Sporadic cases ",2
"2020/04/30","South Sudan",34,0,0,0," Sporadic cases ",1
"2020/04/30","Zimbabwe",32,0,4,0," Sporadic cases ",1
"2020/04/30","Angola",27,0,2,0," Sporadic cases ",2
"2020/04/30","Botswana",23,0,1,0," Sporadic cases ",1
"2020/04/30","Namibia",16,0,0,0," Sporadic cases ",24
"2020/04/30","Burundi",15,0,1,0," Sporadic cases ",3
"2020/04/30","Gambia",11,1,1,0," Sporadic cases ",0
"2020/04/30","São Tomé and Príncipe",11,0,0,0," Sporadic cases ",1
"2020/04/30","Seychelles",11,0,0,0," Sporadic cases ",23
"2020/04/30","Mauritania",7,0,1,0," Sporadic cases ",19
"2020/04/30","Mayotte",460,0,4,0," Clusters of cases ",1
"2020/04/30","Réunion",420,3,0,0," Clusters of cases ",0
"2020/04/30","Subtotal for all Regions",3089733,71839,217756,9797," ",NA
"2020/04/30","International conveyance (Diamond Princess)",712,0,13,0," Not Applicable ",45
"2020/04/30","Grand total",3090445,71839,217769,9797," ",NA
