"date","place","pop10k","conf24h","susp24h","deaths24h","confirmedagg","deathsagg"
"2020/03/06","Hubei",5917,126,43,29,67592,2931
"2020/03/06","Guangdong",11346,1,0,0,1351,7
"2020/03/06","Henan",9605,0,0,0,1272,22
"2020/03/06","Zhejiang",5737,0,1,0,1215,1
"2020/03/06","Hunan",6899,0,0,0,1018,4
"2020/03/06","Anhui",6324,0,0,0,990,6
"2020/03/06","Jiangxi",4648,0,0,0,935,1
"2020/03/06","Shandong",10047,0,0,0,758,6
"2020/03/06","Jiangsu",8051,0,0,0,631,0
"2020/03/06","Chongqing",3102,0,2,0,576,6
"2020/03/06","Sichuan",8341,0,2,0,539,3
"2020/03/06","Heilongjiang",3773,0,0,0,481,13
"2020/03/06","Beijing",2154,4,3,0,422,8
"2020/03/06","Shanghai",2424,1,22,0,339,3
"2020/03/06","Hebei",7556,0,0,0,318,6
"2020/03/06","Fujian",3941,0,0,0,296,1
"2020/03/06","Guangxi",4926,0,0,0,252,2
"2020/03/06","Shaanxi",3864,0,0,0,245,1
"2020/03/06","Yunnan",4830,0,2,0,174,2
"2020/03/06","Hainan",934,0,0,1,168,6
"2020/03/06","Guizhou",3600,0,2,0,146,2
"2020/03/06","Tianjin",1560,0,9,0,136,3
"2020/03/06","Shanxi",3718,0,0,0,133,0
"2020/03/06","Liaoning",4359,0,13,0,125,1
"2020/03/06","Hong Kong SAR",745,0,0,0,104,2
"2020/03/06","Gansu",2637,11,0,0,102,2
"2020/03/06","Jilin",2704,0,3,0,93,1
"2020/03/06","Xinjiang",2487,0,0,0,76,3
"2020/03/06","Inner Mongolia",2534,0,0,0,75,1
"2020/03/06","Ningxia",688,0,0,0,75,0
"2020/03/06","Taipei and environs",2359,3,0,0,45,1
"2020/03/06","Qinghai",603,0,0,0,18,0
"2020/03/06","Macao SAR",66,0,0,0,10,0
"2020/03/06","Xizang",344,0,0,0,1,0
"2020/03/06","Total",142823,146,102,30,80711,3045
