"date","place","totconfirmed","totconfirmednew","totdeaths","totdeathsnew","transmissionclass","dayslastrep"
"2020/03/17","China",81116,39,3231,13," Local transmission ",0
"2020/03/17","Republic of Korea",8320,84,81,6," Local transmission ",0
"2020/03/17","Japan",829,15,28,4," Local transmission ",0
"2020/03/17","Malaysia",553,0,0,0," Local transmission ",1
"2020/03/17","Australia",375,77,5,0," Local transmission ",0
"2020/03/17","Singapore",243,0,0,0," Local transmission ",1
"2020/03/17","Philippines",187,47,12,0," Local transmission ",0
"2020/03/17","Viet Nam",61,4,0,0," Local transmission ",0
"2020/03/17","Brunei Darussalam",50,0,0,0," Local transmission ",1
"2020/03/17","Cambodia",24,12,0,0," Local transmission ",0
"2020/03/17","New Zealand",11,5,0,0," Local transmission ",0
"2020/03/17","Mongolia",4,3,0,0," Imported cases only ",0
"2020/03/17","French Polynesia",3,0,0,0," Imported cases only ",2
"2020/03/17","Guam",3,3,0,0," Local transmission ",0
"2020/03/17","Italy",27980,3233,2503,349," Local transmission ",0
"2020/03/17","Spain",9191,1438,309,21," Local transmission ",0
"2020/03/17","France",6573,1193,148,21," Local transmission ",0
"2020/03/17","Germany",6012,1174,13,1," Local transmission ",0
"2020/03/17","Switzerland",2200,0,14,1," Local transmission ",1
"2020/03/17","The United Kingdom",1547,152,55,20," Local transmission ",0
"2020/03/17","Netherlands",1413,278,24,4," Local transmission ",0
"2020/03/17","Norway",1169,92,3,2," Local transmission ",0
"2020/03/17","Austria",1132,173,3,2," Local transmission ",0
"2020/03/17","Belgium",1085,0,5,0," Local transmission ",1
"2020/03/17","Sweden",1059,67,3,0," Local transmission ",0
"2020/03/17","Denmark",960,62,4,3," Local transmission ",0
"2020/03/17","Czechia",383,85,0,0," Local transmission ",0
"2020/03/17","Greece",331,0,4,0," Local transmission ",1
"2020/03/17","Portugal",331,86,0,0," Local transmission ",0
"2020/03/17","Israel",250,50,0,0," Local transmission ",0
"2020/03/17","Finland",272,5,0,0," Local transmission ",0
"2020/03/17","Slovenia",253,34,0,0," Local transmission ",0
"2020/03/17","Ireland",223,54,2,0," Local transmission ",0
"2020/03/17","Estonia",205,0,0,0," Local transmission ",1
"2020/03/17","Iceland",199,19,0,0," Local transmission ",0
"2020/03/17","Romania",158,0,0,0," Local transmission ",1
"2020/03/17","Poland",150,0,3,0," Local transmission ",1
"2020/03/17","San Marino",102,10,9,4," Local transmission ",0
"2020/03/17","Russian Federation",93,30,0,0," Imported cases only ",0
"2020/03/17","Luxembourg",81,43,1,0," Local transmission ",0
"2020/03/17","Slovakia",72,11,0,0," Local transmission ",0
"2020/03/17","Bulgaria",67,16,2,0," Local transmission ",0
"2020/03/17","Serbia††",70,24,0,0," Local transmission ",0
"2020/03/17","Croatia",56,7,0,0," Local transmission ",0
"2020/03/17","Armenia",52,26,0,0," Local transmission ",0
"2020/03/17","Albania",51,9,1,0," Local transmission ",0
"2020/03/17","Hungary",50,11,1,0," Local transmission ",0
"2020/03/17","Turkey",47,42,0,0," Imported cases only ",0
"2020/03/17","Belarus",36,0,0,0," Local transmission ",1
"2020/03/17","Latvia",36,5,0,0," Imported cases only ",0
"2020/03/17","Cyprus",33,0,0,0," Imported cases only ",1
"2020/03/17","Georgia",33,0,0,0," Imported cases only ",1
"2020/03/17","Malta",30,9,0,0," Imported cases only ",0
"2020/03/17","Republic of Moldova",29,6,0,0," Local transmission ",0
"2020/03/17","Azerbaijan",19,0,0,0," Imported cases only ",2
"2020/03/17","Bosnia and Herzegovina",19,0,0,0," Local transmission ",1
"2020/03/17","North Macedonia",19,6,0,0," Local transmission ",0
"2020/03/17","Lithuania",17,3,0,0," Imported cases only ",0
"2020/03/17","Andorra",14,12,0,0," Imported cases only ",0
"2020/03/17","Monaco",9,0,0,0," Under investigation ",1
"2020/03/17","Liechtenstein",7,0,0,0," Imported cases only ",1
"2020/03/17","Ukraine",7,4,1,0," Local transmission ",0
"2020/03/17","Kazakhstan",6,0,0,0," Imported cases only ",2
"2020/03/17","Uzbekistan",4,0,0,0," Under investigation ",1
"2020/03/17","Holy See",1,0,0,0," Under investigation ",11
"2020/03/17","Faroe Islands",47,36,0,0," Imported cases only ",0
"2020/03/17","Gibraltar",3,2,0,0," Under investigation ",0
"2020/03/17","Jersey",2,0,0,0," Imported cases only ",4
"2020/03/17","Guernsey",1,0,0,0," Imported cases only ",7
"2020/03/17","Indonesia",172,55,5,1," Local transmission ",0
"2020/03/17","Thailand",147,33,1,0," Local transmission ",0
"2020/03/17","India",137,23,3,1," Local transmission ",0
"2020/03/17","Sri Lanka",29,10,0,0," Local transmission ",0
"2020/03/17","Maldives",13,0,0,0," Local transmission ",1
"2020/03/17","Bangladesh",8,3,0,0," Local transmission ",0
"2020/03/17","Bhutan",1,0,0,0," Imported cases only ",11
"2020/03/17","Nepal",1,0,0,0," Imported cases only ",53
"2020/03/17","Iran (Islamic Republic of)",14991,0,853,0," Local transmission ",1
"2020/03/17","Qatar",439,38,0,0," Local transmission ",0
"2020/03/17","Bahrain",229,8,1,0," Local transmission ",0
"2020/03/17","Pakistan",187,135,0,0," Imported cases only ",0
"2020/03/17","Egypt",166,40,4,2," Local transmission ",0
"2020/03/17","Saudi Arabia",133,30,0,0," Local transmission ",0
"2020/03/17","Kuwait",130,18,0,0," Local transmission ",0
"2020/03/17","Iraq",124,0,9,0," Local transmission ",1
"2020/03/17","Lebanon",109,10,3,0," Local transmission ",0
"2020/03/17","United Arab Emirates",98,0,0,0," Local transmission ",1
"2020/03/17","Morocco",38,10,2,1," Local transmission ",0
"2020/03/17","Jordan",35,29,0,0," Imported cases only ",0
"2020/03/17","Oman",24,2,0,0," Imported cases only ",0
"2020/03/17","Afghanistan",21,5,0,0," Imported cases only ",0
"2020/03/17","Tunisia",20,2,0,0," Local transmission ",0
"2020/03/17","Sudan",2,1,1,0," Imported cases only ",0
"2020/03/17","Somalia",1,1,0,0," Imported cases only ",0
"2020/03/17","occupied Palestinian Territory",39,1,0,0," Local transmission ",0
"2020/03/17","United States of America",3503,1825,58,17," Local transmission ",0
"2020/03/17","Canada",424,120,1,0," Local transmission ",0
"2020/03/17","Brazil",234,34,0,0," Local transmission ",0
"2020/03/17","Chile",156,81,0,0," Local transmission ",0
"2020/03/17","Peru",86,15,0,0," Local transmission ",0
"2020/03/17","Panama",69,26,1,0," Local transmission ",0
"2020/03/17","Argentina",65,9,2,0," Local transmission ",0
"2020/03/17","Ecuador",58,21,2,0," Local transmission ",0
"2020/03/17","Mexico",53,0,0,0," Imported cases only ",1
"2020/03/17","Colombia",45,21,0,0," Local transmission ",0
"2020/03/17","Costa Rica",41,18,0,0," Local transmission ",0
"2020/03/17","Venezuela (Bolivarian Republic of)",33,16,0,0," Imported cases only ",0
"2020/03/17","Dominican Republic",21,16,1,1," Local transmission ",0
"2020/03/17","Bolivia (Plurinational State of)",11,0,0,0," Imported cases only ",1
"2020/03/17","Jamaica",10,0,0,0," Local transmission ",1
"2020/03/17","Paraguay",9,1,0,0," Local transmission ",0
"2020/03/17","Honduras",8,6,0,0," Imported cases only ",0
"2020/03/17","Uruguay",6,2,0,0," Imported cases only ",0
"2020/03/17","Cuba",5,1,0,0," Imported cases only ",0
"2020/03/17","Trinidad and Tobago",5,3,0,0," Imported cases only ",0
"2020/03/17","Guyana",4,0,1,0," Local transmission ",1
"2020/03/17","Saint Lucia",2,0,0,0," Imported cases only ",1
"2020/03/17","Antigua and Barbuda",1,0,0,0," Imported cases only ",3
"2020/03/17","Bahamas",1,1,0,0," Local transmission ",0
"2020/03/17","Guatemala",1,0,1,0," Imported cases only ",2
"2020/03/17","Saint Vincent and the Grenadines",1,0,0,0," Imported cases only ",4
"2020/03/17","Suriname",1,0,0,0," Imported cases only ",1
"2020/03/17","Guadeloupe",18,12,0,0," Imported cases only ",0
"2020/03/17","Martinique",16,1,0,0," Imported cases only ",0
"2020/03/17","French Guiana",7,0,0,0," Imported cases only ",3
"2020/03/17","Curaçao",3,1,0,0," Imported cases only ",0
"2020/03/17","Puerto Rico",3,0,0,0," Imported cases only ",3
"2020/03/17","Saint Barthelemy",3,0,0,0," Under investigation ",1
"2020/03/17","Aruba",2,2,0,0," Imported cases only ",0
"2020/03/17","Saint Martin",2,0,0,0," Under investigation ",14
"2020/03/17","United States Virgin Islands",2,2,0,0," Imported cases only ",0
"2020/03/17","Cayman Islands",1,0,1,0," Imported cases only ",3
"2020/03/17","South Africa",62,11,0,0," Local transmission ",0
"2020/03/17","Algeria",60,11,4,1," Local transmission ",0
"2020/03/17","Senegal",27,1,0,0," Local transmission ",0
"2020/03/17","Burkina Faso",15,0,0,0," Imported cases only ",1
"2020/03/17","Rwanda",7,2,0,0," Local transmission ",0
"2020/03/17","Cote d’Ivoire",6,3,0,0," Imported cases only ",0
"2020/03/17","Ghana",6,0,0,0," Imported cases only ",1
"2020/03/17","Cameroon",5,2,0,0," Local transmission ",0
"2020/03/17","Ethiopia",5,4,0,0," Imported cases only ",0
"2020/03/17","Seychelles",4,2,0,0," Imported cases only ",0
"2020/03/17","Democratic Republic of the Congo",3,1,0,0," Imported cases only ",0
"2020/03/17","Kenya",3,2,0,0," Local transmission ",0
"2020/03/17","Namibia",2,0,0,0," Imported cases only ",2
"2020/03/17","Nigeria",2,0,0,0," Imported cases only ",8
"2020/03/17","Benin",1,1,0,0," Imported cases only ",0
"2020/03/17","Central African Republic",1,0,0,0," Imported cases only ",2
"2020/03/17","Congo",1,0,0,0," Imported cases only ",2
"2020/03/17","Equatorial Guinea",1,0,0,0," Imported cases only ",2
"2020/03/17","Eswatini",1,0,0,0," Imported cases only ",2
"2020/03/17","Gabon",1,0,0,0," Imported cases only ",3
"2020/03/17","Guinea",1,0,0,0," Imported cases only ",3
"2020/03/17","Liberia",1,1,0,0," Imported cases only ",0
"2020/03/17","Mauritania",1,0,0,0," Imported cases only ",2
"2020/03/17","Togo",1,0,0,0," Imported cases only ",10
"2020/03/17","United Republic of Tanzania",1,1,0,0," Imported cases only ",0
"2020/03/17","Réunion",9,0,0,0," Imported cases only ",1
"2020/03/17","Mayotte",1,0,0,0," Imported cases only ",2
"2020/03/17","Subtotal for all regions",178400,11526,7419,475," ",NA
"2020/03/17","International conveyance (Diamond Princess)",712,0,7,0," Local transmission ",1
"2020/03/17","Grand total",179112,11526,7426,475," ",NA
