"date","place","pop10k","conf24h","susp24h","deaths24h","confirmedagg","deathsagg"
"2020/03/03","Hubei",5917,114,64,31,67217,2834
"2020/03/03","Guangdong",11346,0,0,0,1350,7
"2020/03/03","Henan",9605,0,0,0,1272,22
"2020/03/03","Zhejiang",5737,7,0,0,1213,1
"2020/03/03","Hunan",6899,0,0,0,1018,4
"2020/03/03","Anhui",6324,0,0,0,990,6
"2020/03/03","Jiangxi",4648,0,1,0,935,1
"2020/03/03","Shandong",10047,0,0,0,758,6
"2020/03/03","Jiangsu",8051,0,0,0,631,0
"2020/03/03","Chongqing",3102,0,2,0,576,6
"2020/03/03","Sichuan",8341,0,0,0,538,3
"2020/03/03","Heilongjiang",3773,0,0,0,480,13
"2020/03/03","Beijing",2154,0,14,0,414,8
"2020/03/03","Shanghai",2424,1,9,0,338,3
"2020/03/03","Hebei",7556,0,0,0,318,6
"2020/03/03","Fujian",3941,0,0,0,296,1
"2020/03/03","Guangxi",4926,0,0,0,252,2
"2020/03/03","Shaanxi",3864,0,0,0,245,1
"2020/03/03","Yunnan",4830,0,1,0,174,2
"2020/03/03","Hainan",934,0,0,0,168,5
"2020/03/03","Guizhou",3600,0,1,0,146,2
"2020/03/03","Tianjin",1560,0,17,0,136,3
"2020/03/03","Shanxi",3718,0,0,0,133,0
"2020/03/03","Liaoning",4359,3,18,0,125,1
"2020/03/03","Hong Kong SAR",745,3,0,0,101,2
"2020/03/03","Jilin",2704,0,2,0,93,1
"2020/03/03","Gansu",2637,0,0,0,91,2
"2020/03/03","Xinjiang",2487,0,0,0,76,3
"2020/03/03","Inner Mongolia",2534,0,0,0,75,0
"2020/03/03","Ningxia",688,0,0,0,74,0
"2020/03/03","Taipei and environs",2359,2,0,0,42,1
"2020/03/03","Qinghai",603,0,0,0,18,0
"2020/03/03","Macao SAR",66,0,0,0,10,0
"2020/03/03","Xizang",344,0,0,0,1,0
"2020/03/03","Total",142823,130,129,31,80304,2946
