"date","place","totconfirmed","totconfirmednew","totdeaths","totdeathsnew","transmissionclass","dayslastrep"
"2020/02/29","Republic of Korea",3150,813,17,4," Local transmission ",0
"2020/02/29","Japan",230,20,5,1," Local transmission ",0
"2020/02/29","Singapore",98,2,0,0," Local transmission ",0
"2020/02/29","Australia",24,1,0,0," Local transmission ",0
"2020/02/29","Malaysia",24,0,0,0," Local transmission ",1
"2020/02/29","Viet Nam",16,0,0,0," Local transmission ",16
"2020/02/29","Philippines",3,0,1,0," Imported cases only ",25
"2020/02/29","Cambodia",1,0,0,0," Imported cases only ",33
"2020/02/29","New Zealand",1,0,0,0," Imported cases only ",1
"2020/02/29","Italy",888,238,21,4," Local transmission ",0
"2020/02/29","Germany",57,31,0,0," Local transmission ",0
"2020/02/29","France",57,19,2,0," Local transmission ",0
"2020/02/29","Spain",32,7,0,0," Local transmission ",0
"2020/02/29","The United Kingdom",20,4,0,0," Local transmission ",0
"2020/02/29","Sweden",12,5,0,0," Imported cases only ",0
"2020/02/29","Switzerland",10,4,0,0," Imported cases only ",0
"2020/02/29","Norway",6,2,0,0," Imported cases only ",0
"2020/02/29","Croatia",5,2,0,0," Local transmission ",0
"2020/02/29","Israel",5,2,0,0," Imported cases only ",0
"2020/02/29","Austria",5,1,0,0," Imported cases only ",0
"2020/02/29","Romania",3,2,0,0," Imported cases only ",0
"2020/02/29","Greece",3,0,0,0," Imported cases only ",1
"2020/02/29","Denmark",2,1,0,0," Imported cases only ",0
"2020/02/29","Georgia",2,1,0,0," Imported cases only ",0
"2020/02/29","Netherlands",2,1,0,0," Imported cases only ",0
"2020/02/29","Finland",2,0,0,0," Imported cases only ",3
"2020/02/29","Russian Federation",2,0,0,0," Imported cases only ",29
"2020/02/29","San Marino",1,1,0,0," Local transmission ",0
"2020/02/29","North Macedonia",1,0,0,0," Imported cases only ",3
"2020/02/29","Estonia",1,0,0,0," Imported cases only ",2
"2020/02/29","Lithuania",1,0,0,0," Imported cases only ",1
"2020/02/29","Belarus",1,0,0,0," Imported cases only ",1
"2020/02/29","Belgium",1,0,0,0," Imported cases only ",25
"2020/02/29","Thailand",42,2,0,0," Local transmission ",0
"2020/02/29","India",3,0,0,0," Imported cases only ",26
"2020/02/29","Nepal",1,0,0,0," Imported cases only ",47
"2020/02/29","Sri Lanka",1,0,0,0," Imported cases only ",33
"2020/02/29","Iran (Islamic Republic of)",388,143,34,8," Local transmission ",0
"2020/02/29","Kuwait",45,2,0,0," Imported cases only ",0
"2020/02/29","Bahrain",38,5,0,0," Imported cases only ",0
"2020/02/29","United Arab Emirates",19,0,0,0," Local transmission ",1
"2020/02/29","Iraq",8,1,0,0," Imported cases only ",0
"2020/02/29","Oman",6,0,0,0," Imported cases only ",1
"2020/02/29","Lebanon",2,0,0,0," Imported cases only ",3
"2020/02/29","Pakistan",2,0,0,0," Imported cases only ",3
"2020/02/29","Afghanistan",1,0,0,0," Imported cases only ",5
"2020/02/29","Egypt",1,0,0,0," Imported cases only ",15
"2020/02/29","United States of America",62,3,0,0," Local transmission ",0
"2020/02/29","Canada",14,3,0,0," Imported cases only ",0
"2020/02/29","Mexico",2,2,0,0," Imported cases only ",0
"2020/02/29","Brazil",1,0,0,0," Imported cases only ",3
"2020/02/29","Algeria",1,0,0,0," Imported cases only ",4
"2020/02/29","Nigeria",1,0,0,0," Imported cases only ",1
"2020/02/29","Subtotal for all regions",5304,1318,80,17," ",NA
"2020/02/29","International conveyance (Diamond Princess)",705,0,6,2," Local transmission ",3
"2020/02/29","Grand total",6009,1318,86,19," ",NA
